<?xml version="1.0" standalone="no"?>
<!DOCTYPE svg PUBLIC "-//W3C//DTD SVG 1.1//EN" "http://www.w3.org/Graphics/SVG/1.1/DTD/svg11.dtd" >
<svg xmlns="http://www.w3.org/2000/svg">
<metadata></metadata>
<defs>
<font id="robotoregular" horiz-adv-x="1150" >
<font-face units-per-em="2048" ascent="1536" descent="-512" />
<missing-glyph horiz-adv-x="507" />
<glyph horiz-adv-x="0" />
<glyph horiz-adv-x="0" />
<glyph unicode="&#xd;" horiz-adv-x="507" />
<glyph horiz-adv-x="0" />
<glyph unicode=" "  horiz-adv-x="507" />
<glyph unicode="&#x09;" horiz-adv-x="507" />
<glyph unicode="&#xa0;" horiz-adv-x="507" />
<glyph unicode="!" horiz-adv-x="527" d="M160 93q0 45 27.5 75.5t81.5 30.5t82 -30.5t28 -75.5t-28 -74.5t-82 -29.5t-81.5 29.5t-27.5 74.5zM167 1456h194l-14 -1045h-167z" />
<glyph unicode="&#x22;" horiz-adv-x="655" d="M136 1042l1 494h140v-136l-30 -358h-111zM406 1042l1 494h140v-136l-30 -358h-111z" />
<glyph unicode="#" horiz-adv-x="1261" d="M119 410v137h265l69 354h-258v139h285l82 416h143l-82 -416h264l82 416h144l-82 -416h204v-139h-231l-69 -354h225v-137h-251l-80 -410h-144l80 410h-264l-80 -410h-143l80 410h-239zM527 547h264l69 354h-264z" />
<glyph unicode="$" d="M110 429h185q0 -139 73 -214t207 -75q131 0 206 63t75 172q0 92 -64.5 155t-217.5 114q-213 65 -310.5 169.5t-97.5 265.5q0 164 95.5 269t262.5 125v219h149v-220q168 -23 261.5 -141t93.5 -323h-184q0 141 -67 224t-181 83q-119 0 -182 -61.5t-63 -171.5 q0 -102 66.5 -162.5t219 -110t238 -109t126 -138.5t40.5 -185q0 -169 -101.5 -272t-284.5 -122v-191h-148v191q-186 17 -291.5 132.5t-105.5 313.5z" />
<glyph unicode="%" horiz-adv-x="1500" d="M105 1106v70q0 131 83.5 216t214.5 85q133 0 215.5 -85.5t82.5 -221.5v-71q0 -132 -83.5 -215.5t-212.5 -83.5q-130 0 -215 83.5t-85 222.5zM243 1099q0 -78 44 -128.5t118 -50.5q71 0 114.5 49t43.5 134v73q0 78 -43 129t-117 51t-117 -51t-43 -133v-73zM342 176 l711 1138l105 -66l-711 -1138zM814 285v72q0 131 83.5 215.5t214.5 84.5t215 -84t84 -223v-71q0 -131 -83.5 -215.5t-213.5 -84.5t-215 83.5t-85 222.5zM952 279q0 -79 44 -129.5t118 -50.5q72 0 115 49.5t43 134.5v74q0 79 -43.5 129t-116.5 50q-71 0 -115.5 -49.5 t-44.5 -133.5v-74z" />
<glyph unicode="&#x26;" horiz-adv-x="1273" d="M101 391q0 105 58.5 193t223.5 205q-97 118 -130 190t-33 143q0 166 98 260t266 94q150 0 248 -87.5t98 -220.5q0 -88 -44.5 -162.5t-155.5 -156.5l-107 -79l324 -387q68 130 68 289h167q0 -255 -123 -423l208 -249h-222l-97 115q-74 -66 -173.5 -100.5t-202.5 -34.5 q-213 0 -342 113t-129 298zM286 391q0 -118 76.5 -189t209.5 -71q147 0 269 112l-355 425l-33 -24q-167 -123 -167 -253zM405 1128q0 -96 118 -240l118 83q68 48 93 91.5t25 105.5q0 67 -50 111.5t-126 44.5q-82 0 -130 -55.5t-48 -140.5z" />
<glyph unicode="'" horiz-adv-x="357" d="M103 1057l1 479h149v-111l-21 -368h-129z" />
<glyph unicode="(" horiz-adv-x="700" d="M133 591q0 226 60.5 434t180.5 378t249 240l38 -122q-146 -112 -239.5 -342t-102.5 -515l-1 -85q0 -386 141 -670q85 -170 202 -266l-38 -113q-133 74 -254 248q-236 340 -236 813z" />
<glyph unicode=")" horiz-adv-x="712" d="M38 -357q154 118 247.5 366.5t95.5 551.5v32q0 210 -44 390.5t-122.5 323.5t-176.5 223l39 113q132 -73 251.5 -244t179 -377t59.5 -441q0 -223 -58.5 -427.5t-179 -377.5t-252.5 -246z" />
<glyph unicode="*" horiz-adv-x="882" d="M28 1073l46 151l302 -112l-9 344h153l-10 -349l297 110l46 -152l-307 -91l198 -271l-124 -94l-186 288l-180 -281l-125 91l201 276z" />
<glyph unicode="+" horiz-adv-x="1161" d="M78 606v175h406v425h186v-425h406v-175h-406v-460h-186v460h-406z" />
<glyph unicode="," horiz-adv-x="402" d="M29 -218q94 131 98 270v167h181v-145q0 -101 -49.5 -202t-124.5 -162z" />
<glyph unicode="-" horiz-adv-x="565" d="M37 543v151h488v-151h-488z" />
<glyph unicode="." horiz-adv-x="539" d="M144 97q0 48 28.5 80t85.5 32t86.5 -32t29.5 -80q0 -46 -29.5 -77t-86.5 -31t-85.5 31t-28.5 77z" />
<glyph unicode="/" horiz-adv-x="844" d="M18 -125l608 1581h158l-607 -1581h-159z" />
<glyph unicode="0" d="M115 596v247q0 321 111 477t348 156q235 0 346 -150.5t114 -464.5v-240q0 -325 -111 -483t-347 -158q-233 0 -345 154.5t-116 461.5zM300 592q0 -236 68.5 -348.5t207.5 -112.5q137 0 203.5 106t69.5 334v303q0 235 -66 342.5t-209 107.5q-142 0 -207 -107t-67 -329v-296 z" />
<glyph unicode="1" d="M170 1096v168l530 199h29v-1463h-186v1233z" />
<glyph unicode="2" d="M93 1027q0 201 129.5 325t346.5 124q203 0 321 -106.5t118 -283.5q0 -215 -274 -512l-390 -423h731v-151h-954v133l504 560q112 127 154.5 206.5t42.5 164.5q0 114 -69 187t-184 73q-138 0 -214.5 -78.5t-76.5 -218.5h-185z" />
<glyph unicode="3" d="M94 384h186q0 -115 75 -184t201 -69q134 0 205 70t71 201q0 127 -78 195t-225 70h-139v151h139q131 2 206 69t75 181q0 256 -255 256q-120 0 -191.5 -68.5t-71.5 -181.5h-185q0 173 126.5 287.5t321.5 114.5q206 0 323 -109t117 -303q0 -95 -61.5 -184t-167.5 -133 q120 -38 185.5 -126t65.5 -215q0 -196 -128 -311t-333 -115t-333.5 111t-128.5 293z" />
<glyph unicode="4" d="M53 338v109l652 1009h197v-967h202v-151h-202v-338h-186v338h-663zM263 489h453v714l-22 -40z" />
<glyph unicode="5" d="M154 383h175q17 -125 89 -188.5t190 -63.5q129 0 202.5 88t73.5 243q0 146 -79.5 234.5t-211.5 88.5q-121 0 -190 -53l-49 -40l-148 38l74 726h746v-171h-589l-44 -397q107 63 243 63q199 0 316 -131.5t117 -355.5q0 -225 -121.5 -354.5t-339.5 -129.5q-193 0 -315 107 t-139 296z" />
<glyph unicode="6" d="M132 554v71q0 402 171.5 614.5t510.5 217.5h33v-157h-34q-216 -4 -344 -128t-148 -349q115 132 314 132q190 0 303.5 -134t113.5 -346q0 -225 -122.5 -360t-328.5 -135q-209 0 -339 160.5t-130 413.5zM318 533q0 -180 81 -290t202 -110q125 0 196.5 92t71.5 241 q0 150 -72.5 242.5t-192.5 92.5q-95 0 -175 -57t-111 -143v-68z" />
<glyph unicode="7" d="M77 1304v152h984v-104l-603 -1352h-194l601 1304h-788z" />
<glyph unicode="8" d="M112 393q0 118 64.5 213t178.5 144q-97 48 -153 133t-56 193q0 184 118 292t311 108q192 0 310.5 -108t118.5 -292q0 -109 -57.5 -194t-155.5 -133q114 -49 180.5 -143t66.5 -213q0 -189 -127.5 -301t-335.5 -112q-210 0 -336.5 112.5t-126.5 300.5zM297 397 q0 -124 73.5 -195t204.5 -71q130 0 204 71.5t74 194.5q0 122 -77.5 199t-202.5 77t-200.5 -76t-75.5 -200zM331 1073q0 -111 66.5 -179.5t177.5 -68.5t177.5 68.5t66.5 179.5t-69 181t-175 70q-109 0 -176.5 -67.5t-67.5 -183.5z" />
<glyph unicode="9" d="M100 972q0 146 55.5 263t157.5 179t238 62q216 0 340.5 -161.5t124.5 -440.5v-54q0 -425 -168 -620.5t-507 -200.5h-36v156h39q229 4 352 119.5t134 365.5q-58 -69 -138.5 -111t-176.5 -42q-126 0 -219.5 62t-144.5 174.5t-51 248.5zM282 982q0 -149 71.5 -245.5 t191.5 -96.5q93 0 171.5 57t114.5 141v74q0 182 -79 296t-200 114q-122 0 -196 -93.5t-74 -246.5z" />
<glyph unicode=":" horiz-adv-x="496" d="M134 97q0 48 28.5 80t85.5 32t86.5 -32t29.5 -80q0 -46 -29.5 -77t-86.5 -31t-85.5 31t-28.5 77zM135 980q0 48 28.5 80t85.5 32t86.5 -32t29.5 -80q0 -46 -29.5 -77t-86.5 -31t-85.5 31t-28.5 77z" />
<glyph unicode=";" horiz-adv-x="433" d="M41 -218q94 131 98 270v167h181v-145q0 -101 -49.5 -202t-124.5 -162zM111 980q0 48 28.5 80t85.5 32t86.5 -32t29.5 -80q0 -46 -29.5 -77t-86.5 -31t-85.5 31t-28.5 77z" />
<glyph unicode="&#x3c;" horiz-adv-x="1041" d="M72 574v146l818 378v-196l-626 -258l626 -253v-196z" />
<glyph unicode="=" horiz-adv-x="1124" d="M152 399v160h834v-160h-834zM152 814v161h834v-161h-834z" />
<glyph unicode="&#x3e;" horiz-adv-x="1070" d="M134 196v192l661 262l-661 259v190l854 -378v-146z" />
<glyph unicode="?" horiz-adv-x="967" d="M75 1115q2 162 115.5 261.5t295.5 99.5q189 0 294.5 -101.5t105.5 -278.5q0 -175 -162 -345l-109 -108q-73 -81 -73 -233h-185q2 119 27 188t102 153l131 135q84 95 84 204q0 105 -55 164.5t-160 59.5q-102 0 -164 -54t-62 -145h-185zM349 93q0 45 27.5 75.5t81.5 30.5 t82 -30.5t28 -75.5t-28 -74.5t-82 -29.5t-81.5 29.5t-27.5 74.5z" />
<glyph unicode="@" horiz-adv-x="1839" d="M118 478q12 275 123 494.5t301 339t429 119.5q249 0 427 -112t265 -323t75 -494q-12 -242 -120 -382t-289 -140q-187 0 -240 168q-54 -85 -123.5 -126.5t-143.5 -41.5q-142 0 -215 116t-54 321q15 165 75.5 294.5t156 203.5t200.5 74q81 0 145 -21.5t144 -84.5l-52 -554 q-19 -231 128 -231q113 0 183 112t76 292q19 389 -144.5 593t-497.5 204q-201 0 -357 -99.5t-246 -287.5t-101 -434q-12 -248 60 -430.5t219.5 -279t356.5 -96.5q90 0 180.5 22t150.5 57l37 -115q-62 -39 -164.5 -64t-207.5 -25q-250 0 -430 112.5t-269.5 324t-77.5 494.5z M712 417q-14 -142 26.5 -218t128.5 -76q60 0 115.5 51t91.5 146l1 9l46 503q-56 29 -120 29q-117 0 -193.5 -119t-95.5 -325z" />
<glyph unicode="A" horiz-adv-x="1336" d="M28 0l556 1456h168l557 -1456h-197l-139 380h-610l-137 -380h-198zM421 538h495l-248 681z" />
<glyph unicode="B" horiz-adv-x="1275" d="M169 0v1456h476q237 0 356.5 -98t119.5 -290q0 -102 -58 -180.5t-158 -121.5q118 -33 186.5 -125.5t68.5 -220.5q0 -196 -127 -308t-359 -112h-505zM361 157h317q134 0 211.5 69.5t77.5 191.5q0 263 -286 263h-320v-524zM361 835h290q126 0 201.5 63t75.5 171 q0 120 -70 174.5t-213 54.5h-284v-463z" />
<glyph unicode="C" horiz-adv-x="1333" d="M119 660v140q0 203 72.5 357t205.5 236.5t308 82.5q232 0 372 -129.5t163 -358.5h-193q-25 174 -108.5 252t-233.5 78q-184 0 -288.5 -136t-104.5 -387v-141q0 -237 99 -377t277 -140q160 0 245.5 72.5t113.5 252.5h193q-27 -231 -170.5 -356.5t-381.5 -125.5 q-258 0 -413.5 185t-155.5 495z" />
<glyph unicode="D" horiz-adv-x="1343" d="M169 0v1456h411q190 0 336 -84t225.5 -239t80.5 -356v-93q0 -206 -79.5 -361t-227 -238t-343.5 -85h-403zM361 157h202q222 0 345.5 138t123.5 393v85q0 248 -116.5 385.5t-330.5 139.5h-224v-1141z" />
<glyph unicode="E" horiz-adv-x="1164" d="M169 0v1456h915v-158h-723v-468h631v-157h-631v-516h733v-157h-925z" />
<glyph unicode="F" horiz-adv-x="1132" d="M169 0v1456h902v-158h-710v-498h611v-157h-611v-643h-192z" />
<glyph unicode="G" horiz-adv-x="1395" d="M122 658v127q0 329 153.5 510t431.5 181q228 0 367 -116.5t170 -330.5h-192q-54 289 -344 289q-193 0 -292.5 -135.5t-100.5 -392.5v-119q0 -245 112 -389.5t303 -144.5q108 0 189 24t134 81v327h-337v156h528v-534q-74 -106 -206.5 -158.5t-308.5 -52.5 q-178 0 -316 83.5t-213.5 237.5t-77.5 357z" />
<glyph unicode="H" horiz-adv-x="1460" d="M169 0v1456h192v-626h734v626h193v-1456h-193v673h-734v-673h-192z" />
<glyph unicode="I" horiz-adv-x="557" d="M183 0v1456h192v-1456h-192z" />
<glyph unicode="J" horiz-adv-x="1130" d="M53 402h192q0 -125 68.5 -195t198.5 -70q119 0 192.5 75t74.5 210v1034h193v-1031q0 -209 -125.5 -327t-334.5 -118q-217 0 -338 111t-121 311z" />
<glyph unicode="K" horiz-adv-x="1284" d="M169 0v1456h192v-720l647 720h232l-573 -643l618 -813h-230l-516 677l-178 -185v-492h-192z" />
<glyph unicode="L" horiz-adv-x="1102" d="M169 0v1456h193v-1299h690v-157h-883z" />
<glyph unicode="M" horiz-adv-x="1788" d="M169 0v1456h248l476 -1188l476 1188h249v-1456h-192v567l18 612l-478 -1179h-147l-477 1176l19 -609v-567h-192z" />
<glyph unicode="N" horiz-adv-x="1460" d="M169 0v1456h193l735 -1127v1127h191v-1456h-193l-733 1122v-1122h-193z" />
<glyph unicode="O" horiz-adv-x="1408" d="M118 668v105q0 210 73 371t206.5 246.5t305.5 85.5q175 0 308.5 -84.5t205.5 -245t72 -373.5v-92q0 -214 -72 -373.5t-204 -243.5t-308 -84q-172 0 -305 84.5t-206.5 241t-75.5 362.5zM309 681q0 -251 105.5 -394.5t290.5 -143.5q186 0 288 135.5t105 388.5v108 q0 259 -104 397.5t-291 138.5q-182 0 -286.5 -138.5t-107.5 -384.5v-107z" />
<glyph unicode="P" horiz-adv-x="1292" d="M169 0v1456h537q239 0 374.5 -122t135.5 -323q0 -212 -132.5 -326.5t-379.5 -114.5h-343v-570h-192zM361 727h345q154 0 236 72.5t82 209.5q0 130 -82 208t-225 81h-356v-571z" />
<glyph unicode="Q" horiz-adv-x="1408" d="M109 668v105q0 210 73 371t206.5 246.5t305.5 85.5q176 0 309.5 -85t205.5 -244.5t72 -372.5v-93q0 -211 -67 -363.5t-188 -238.5l260 -204l-131 -121l-307 244q-72 -18 -152 -18q-172 0 -305 84.5t-206.5 241t-75.5 362.5zM301 681q0 -250 104.5 -394t290.5 -144 t288 135.5t105 388.5v108q0 257 -102.5 396.5t-292.5 139.5q-181 0 -285.5 -138.5t-107.5 -384.5v-107z" />
<glyph unicode="R" horiz-adv-x="1261" d="M168 0v1456h482q246 0 378.5 -112t132.5 -326q0 -136 -73.5 -237t-204.5 -151l342 -618v-12h-206l-316 589h-342v-589h-193zM361 746h295q143 0 227.5 74t84.5 198q0 135 -80.5 207t-232.5 73h-294v-552z" />
<glyph unicode="S" horiz-adv-x="1215" d="M80 422h193q0 -132 97.5 -208.5t260.5 -76.5q152 0 233 62t81 169t-75 165.5t-272 115.5q-247 71 -359.5 174.5t-112.5 255.5q0 172 137.5 284.5t357.5 112.5q150 0 267.5 -58t182 -160t64.5 -223h-193q0 132 -84 207.5t-237 75.5q-142 0 -221.5 -62.5t-79.5 -173.5 q0 -89 75.5 -150.5t257 -112.5t284 -112.5t152 -143.5t49.5 -193q0 -177 -138 -283.5t-369 -106.5q-150 0 -280 57.5t-200.5 157.5t-70.5 227z" />
<glyph unicode="T" horiz-adv-x="1222" d="M49 1298v158h1126v-158h-468v-1298h-191v1298h-467z" />
<glyph unicode="U" horiz-adv-x="1328" d="M140 464v992h190v-986q0 -158 87 -245.5t248 -87.5q163 0 249.5 87t86.5 245v987h193v-990q-1 -206 -129.5 -337t-348.5 -147l-51 -2q-239 0 -381 129t-144 355z" />
<glyph unicode="V" horiz-adv-x="1303" d="M28 1456h209l414 -1201l416 1201h210l-540 -1456h-170z" />
<glyph unicode="W" horiz-adv-x="1817" d="M61 1456h192l230 -997l28 -192l41 173l288 1016h162l281 -1016l40 -176l31 196l226 996h193l-353 -1456h-175l-300 1061l-23 111l-23 -111l-311 -1061h-175z" />
<glyph unicode="X" horiz-adv-x="1284" d="M57 0l472 734l-461 722h225l351 -558l349 558h226l-460 -722l471 -734h-228l-358 568l-360 -568h-227z" />
<glyph unicode="Y" horiz-adv-x="1230" d="M15 1456h220l378 -731l380 731h218l-502 -913v-543h-192v543z" />
<glyph unicode="Z" horiz-adv-x="1226" d="M86 0v144l798 1154h-785v158h1015v-141l-801 -1158h833v-157h-1060z" />
<glyph unicode="[" horiz-adv-x="543" d="M146 -312v1976h377v-152h-191v-1672h191v-152h-377z" />
<glyph unicode="\" horiz-adv-x="840" d="M40 1456h176l608 -1581h-176z" />
<glyph unicode="]" horiz-adv-x="543" d="M9 -160h193v1672h-193v152h378v-1976h-378v152z" />
<glyph unicode="^" horiz-adv-x="856" d="M64 729l299 727h127l298 -727h-171l-191 482l-190 -482h-172z" />
<glyph unicode="_" horiz-adv-x="924" d="M4 0h916v-151h-916v151z" />
<glyph unicode="`" horiz-adv-x="633" d="M57 1534h223l194 -294h-159z" />
<glyph unicode="a" horiz-adv-x="1114" d="M109 300q0 169 128.5 262.5t361.5 93.5h180v85q0 97 -58 154.5t-171 57.5q-99 0 -166 -50t-67 -121h-186q0 81 57.5 156.5t156 119.5t216.5 44q187 0 293 -93.5t110 -257.5v-498q0 -149 38 -237v-16h-194q-16 32 -26 114q-129 -134 -308 -134q-160 0 -262.5 90.5 t-102.5 229.5zM294 326q0 -87 58 -136t149 -49q87 0 165 45t113 117v222h-145q-340 0 -340 -199z" />
<glyph unicode="b" horiz-adv-x="1149" d="M140 0v1536h185v-573q112 139 309 139t309.5 -149t112.5 -408v-16q0 -248 -114 -398.5t-306 -150.5q-205 0 -317 145l-9 -125h-170zM325 307q85 -170 265 -170q133 0 207 103t74 310q0 189 -73 292t-210 103q-183 0 -263 -170v-468z" />
<glyph unicode="c" horiz-adv-x="1072" d="M92 531v31q0 158 58 281t166.5 191t256.5 68q182 0 302.5 -109t128.5 -283h-175q-8 105 -79.5 172.5t-176.5 67.5q-141 0 -218.5 -101.5t-77.5 -293.5v-35q0 -187 77 -288t220 -101q99 0 173 60t82 150h175q-5 -93 -64 -177t-157.5 -134t-208.5 -50q-221 0 -351.5 147.5 t-130.5 403.5z" />
<glyph unicode="d" horiz-adv-x="1155" d="M95 536v14q0 249 118 400.5t309 151.5q190 0 301 -130v564h185v-1536h-170l-9 116q-111 -136 -309 -136q-188 0 -306.5 154t-118.5 402zM280 529q0 -184 76 -288t210 -104q176 0 257 158v497q-83 153 -255 153q-136 0 -212 -105t-76 -311z" />
<glyph unicode="e" horiz-adv-x="1085" d="M93 511v34q0 161 61.5 287.5t172 198t239.5 71.5q211 0 328 -139t117 -398v-77h-733q4 -160 93.5 -258.5t227.5 -98.5q98 0 166 40t119 106l113 -88q-136 -209 -408 -209q-220 0 -358 144.5t-138 386.5zM284 640h542v14q-8 141 -76 218.5t-184 77.5q-112 0 -188 -81.5 t-94 -228.5z" />
<glyph unicode="f" horiz-adv-x="711" d="M60 939v143h171v111q0 174 93 269t263 95q64 0 127 -17l-10 -150q-47 9 -100 9q-90 0 -139 -52.5t-49 -150.5v-114h231v-143h-231v-939h-185v939h-171z" />
<glyph unicode="g" horiz-adv-x="1149" d="M96 550q0 253 117 402.5t310 149.5q198 0 309 -140l9 120h169v-1056q0 -210 -124.5 -331t-334.5 -121q-117 0 -229 50t-171 137l96 111q119 -147 291 -147q135 0 210.5 76t75.5 214v93q-111 -128 -303 -128q-190 0 -307.5 153t-117.5 417zM282 529q0 -183 75 -287.5 t210 -104.5q175 0 257 159v494q-85 155 -255 155q-135 0 -211 -105t-76 -311z" />
<glyph unicode="h" horiz-adv-x="1128" d="M140 0v1536h185v-585q123 151 320 151q343 0 346 -387v-715h-185v716q-1 117 -53.5 173t-163.5 56q-90 0 -158 -48t-106 -126v-771h-185z" />
<glyph unicode="i" horiz-adv-x="497" d="M141 1369q0 45 27.5 76t81.5 31t82 -31t28 -76t-28 -75t-82 -30t-81.5 30t-27.5 75zM156 0v1082h185v-1082h-185z" />
<glyph unicode="j" horiz-adv-x="489" d="M-65 -271q32 -8 84 -8q62 0 94.5 33.5t32.5 116.5v1211h185v-1207q0 -312 -283 -312q-61 0 -113 18v148zM127 1369q0 44 27.5 75.5t80.5 31.5q54 0 82 -31t28 -76t-28 -75t-82 -30t-81 30t-27 75z" />
<glyph unicode="k" horiz-adv-x="1038" d="M141 0v1536h185v-929l99 119l337 356h225l-421 -452l470 -630h-217l-377 501l-116 -121v-380h-185z" />
<glyph unicode="l" horiz-adv-x="497" d="M156 0v1536h185v-1536h-185z" />
<glyph unicode="m" horiz-adv-x="1795" d="M139 0v1082h175l5 -120q119 140 321 140q227 0 309 -174q54 78 140.5 126t204.5 48q356 0 362 -377v-725h-185v714q0 116 -53 173.5t-178 57.5q-103 0 -171 -61.5t-79 -165.5v-718h-186v709q0 236 -231 236q-182 0 -249 -155v-790h-185z" />
<glyph unicode="n" horiz-adv-x="1130" d="M140 0v1082h175l6 -136q124 156 324 156q343 0 346 -387v-715h-185v716q-1 117 -53.5 173t-163.5 56q-90 0 -158 -48t-106 -126v-771h-185z" />
<glyph unicode="o" horiz-adv-x="1168" d="M91 538v13q0 159 62.5 286t174 196t254.5 69q221 0 357.5 -153t136.5 -407v-13q0 -158 -60.5 -283.5t-173 -195.5t-258.5 -70q-220 0 -356.5 153t-136.5 405zM277 529q0 -180 83.5 -289t223.5 -109q141 0 224 110.5t83 309.5q0 178 -84.5 288.5t-224.5 110.5 q-137 0 -221 -109t-84 -312z" />
<glyph unicode="p" horiz-adv-x="1149" d="M140 -416v1498h169l9 -120q113 140 314 140q195 0 308.5 -147t113.5 -409v-17q0 -247 -113 -398t-306 -151q-197 0 -310 125v-521h-185zM325 279q83 -148 254 -148q133 0 211.5 105.5t78.5 313.5q0 183 -78 289t-214 106q-168 0 -252 -149v-517z" />
<glyph unicode="q" horiz-adv-x="1164" d="M95 537v13q0 255 117 403.5t314 148.5q192 0 303 -129l8 109h170v-1498h-185v516q-112 -120 -298 -120q-196 0 -312.5 152.5t-116.5 404.5zM280 529q0 -186 78.5 -292t211.5 -106q165 0 252 146v530q-88 143 -250 143q-134 0 -213 -106.5t-79 -314.5z" />
<glyph unicode="r" horiz-adv-x="693" d="M140 0v1082h180l3 -125q91 145 258 145q54 0 82 -14v-172q-42 7 -91 7q-182 0 -247 -155v-768h-185z" />
<glyph unicode="s" horiz-adv-x="1056" d="M95 333h185q5 -93 74.5 -147.5t183.5 -54.5q105 0 168.5 42.5t63.5 113.5q0 75 -56.5 116.5t-197 71.5t-223 72t-122 100t-39.5 138q0 133 112.5 225t287.5 92q184 0 298.5 -95t114.5 -243h-186q0 76 -64.5 131t-162.5 55q-101 0 -158 -44t-57 -115q0 -67 53 -101 t191.5 -65t224.5 -74t127.5 -103.5t41.5 -147.5q0 -145 -116 -232.5t-301 -87.5q-130 0 -230 46t-156.5 128.5t-56.5 178.5z" />
<glyph unicode="t" horiz-adv-x="669" d="M9 939v143h197v262h185v-262h202v-143h-202v-671q0 -65 27 -97.5t92 -32.5q32 0 88 12v-150q-73 -20 -142 -20q-124 0 -187 75t-63 213v671h-197z" />
<glyph unicode="u" horiz-adv-x="1129" d="M136 378v704h185v-699q0 -246 200 -246q212 0 282 158v787h185v-1082h-176l-4 107q-108 -127 -317 -127q-173 0 -263.5 100.5t-91.5 297.5z" />
<glyph unicode="v" horiz-adv-x="992" d="M33 1082h189l275 -831l268 831h189l-388 -1082h-141z" />
<glyph unicode="w" horiz-adv-x="1539" d="M43 1082h184l213 -810l252 810h149l257 -827l208 827h185l-315 -1082h-150l-263 820l-256 -820h-150z" />
<glyph unicode="x" horiz-adv-x="1015" d="M41 0l365 547l-354 535h214l237 -395l240 395h216l-354 -535l365 -547h-214l-250 405l-250 -405h-215z" />
<glyph unicode="y" horiz-adv-x="969" d="M22 1082h202l270 -811l252 811h198l-435 -1249q-101 -270 -321 -270l-35 3l-69 13v150l50 -4q94 0 146.5 38t86.5 139l41 110z" />
<glyph unicode="z" horiz-adv-x="1015" d="M88 0v136l597 793h-588v153h820v-131l-603 -800h633v-151h-859z" />
<glyph unicode="{" horiz-adv-x="693" d="M64 543v145q212 0 212 242v208q2 183 89.5 295.5t266.5 163.5l38 -115q-209 -67 -209 -349v-202q0 -227 -167 -316q167 -90 167 -319v-206q3 -275 209 -341l-38 -115q-177 50 -266.5 164.5t-89.5 302.5v199q0 243 -212 243z" />
<glyph unicode="|" horiz-adv-x="499" d="M175 -270v1726h149v-1726h-149z" />
<glyph unicode="}" horiz-adv-x="693" d="M19 -251q203 65 210 331v220q0 231 181 315q-181 82 -181 315v203q0 282 -209 349l38 115q177 -50 266 -162.5t90 -297.5v-210q0 -239 212 -239v-145q-212 0 -212 -243v-202q0 -188 -90.5 -301t-265.5 -163z" />
<glyph unicode="~" horiz-adv-x="1393" d="M131 436q0 160 92 263t231 103q76 0 146 -32t158 -112.5t152 -90.5l29 -2q76 0 123.5 58t47.5 153l153 1q0 -158 -93.5 -266.5t-230.5 -108.5q-72 0 -136 26.5t-148.5 100.5t-121.5 92t-79 18q-78 0 -120 -53.5t-42 -147.5z" />
<glyph unicode="&#xa2;" horiz-adv-x="1120" d="M105 527v35q0 212 101 354.5t278 175.5v226h185v-223q150 -23 246 -129t102 -256h-175q-8 105 -79.5 172.5t-176.5 67.5q-141 0 -218.5 -101.5t-77.5 -293.5v-35q0 -187 77.5 -288t218.5 -101q100 0 174 60.5t82 149.5h175q-6 -126 -105 -226.5t-243 -126.5v-233h-185 v234q-179 34 -279 176t-100 362z" />
<glyph unicode="&#xa3;" horiz-adv-x="1190" d="M91 622v157h160l-9 260q0 199 122.5 318t322.5 119q190 0 301 -106t111 -283h-191q0 107 -63.5 169t-174.5 62q-105 0 -170 -77t-65 -202l9 -260h319v-157h-314l8 -220q0 -154 -62 -245h733l-1 -157h-1032v157h77q40 9 65 74.5t27 161.5v8l-8 221h-165z" />
<glyph unicode="&#xa5;" horiz-adv-x="1240" d="M31 1456h220l363 -674l364 674h219l-418 -720h312v-125h-384v-165h384v-124h-384v-322h-193v322h-378v124h378v165h-378v125h313z" />
<glyph unicode="&#xa8;" horiz-adv-x="856" d="M102 1371q0 45 27.5 75.5t81.5 30.5t82 -30.5t28 -75.5t-28 -75t-82 -30t-81.5 30t-27.5 75zM532 1369q0 45 27.5 76t81.5 31t82 -31t28 -76t-28 -75t-82 -30t-81.5 30t-27.5 75z" />
<glyph unicode="&#xa9;" horiz-adv-x="1609" d="M91 729q0 202 93.5 375t259 272.5t357.5 99.5t357 -99.5t258.5 -272.5t93.5 -375q0 -197 -90 -369t-255.5 -276.5t-363.5 -104.5q-197 0 -362.5 103.5t-256.5 275.5t-91 371zM206 729q0 -172 80 -318.5t217.5 -229.5t297.5 -83t297 83t217 229.5t80 318.5q0 170 -79 315 t-216.5 228.5t-298.5 83.5q-160 0 -298 -82.5t-217.5 -228.5t-79.5 -316zM442 676v110q0 176 95.5 281.5t250.5 105.5q160 0 246 -82t86 -231h-146q0 99 -47.5 141.5t-138.5 42.5q-94 0 -148 -69t-54 -192v-113q0 -120 54 -189t148 -69q92 0 138.5 42t46.5 143h146 q0 -153 -86.5 -233.5t-244.5 -80.5q-157 0 -251.5 105.5t-94.5 287.5z" />
<glyph unicode="&#xab;" horiz-adv-x="961" d="M102 539v19l295 389h141l-258 -399l258 -397h-141zM432 539v19l295 389h141l-258 -399l258 -397h-141z" />
<glyph unicode="&#xad;" horiz-adv-x="565" d="M37 543v151h488v-151h-488z" />
<glyph unicode="&#xae;" horiz-adv-x="1610" d="M90 729q0 202 93.5 375t259 272.5t357.5 99.5t357 -99.5t258.5 -272.5t93.5 -375q0 -197 -90 -369t-255.5 -276.5t-363.5 -104.5q-197 0 -362.5 103.5t-256.5 275.5t-91 371zM205 729q0 -172 80 -318.5t217.5 -229.5t297.5 -83q161 0 299 84.5t216.5 229.5t78.5 317 q0 171 -78.5 315.5t-216.5 228t-299 83.5q-160 0 -298 -82.5t-217.5 -228.5t-79.5 -316zM512 316v849h276q153 0 237.5 -65.5t84.5 -190.5q0 -123 -128 -188q122 -50 123 -204v-61q0 -86 17 -124v-16h-145q-14 36 -14 128.5t-3 109.5q-16 96 -131 100h-176v-338h-141z M653 782h156q72 2 116 35t44 87q0 73 -39 103.5t-139 30.5h-138v-256z" />
<glyph unicode="&#xb4;" horiz-adv-x="642" d="M123 1240l193 294h224l-268 -294h-149z" />
<glyph unicode="&#xb8;" horiz-adv-x="507" d="M116 -328q79 0 122.5 26t43.5 73q0 44 -32 65t-130 30l32 134h133l-12 -52q153 -27 153 -173q0 -97 -80 -153.5t-223 -56.5z" />
<glyph unicode="&#xbb;" horiz-adv-x="960" d="M102 152l258 398l-258 399h142l295 -389v-19l-295 -389h-142zM451 152l258 398l-258 399h142l295 -389v-19l-295 -389h-142z" />
<glyph unicode="&#xd3;" horiz-adv-x="1408" d="M118 668v105q0 210 73 371t206.5 246.5t305.5 85.5q175 0 308.5 -84.5t205.5 -245t72 -373.5v-92q0 -214 -72 -373.5t-204 -243.5t-308 -84q-172 0 -305 84.5t-206.5 241t-75.5 362.5zM309 681q0 -251 105.5 -394.5t290.5 -143.5q186 0 288 135.5t105 388.5v108 q0 259 -104 397.5t-291 138.5q-182 0 -286.5 -138.5t-107.5 -384.5v-107zM604 1552l193 294h224l-268 -294h-149z" />
<glyph unicode="&#xf3;" horiz-adv-x="1168" d="M91 538v13q0 159 62.5 286t174 196t254.5 69q221 0 357.5 -153t136.5 -407v-13q0 -158 -60.5 -283.5t-173 -195.5t-258.5 -70q-220 0 -356.5 153t-136.5 405zM277 529q0 -180 83.5 -289t223.5 -109q141 0 224 110.5t83 309.5q0 178 -84.5 288.5t-224.5 110.5 q-137 0 -221 -109t-84 -312zM473 1240l193 294h224l-268 -294h-149z" />
<glyph unicode="&#x104;" horiz-adv-x="1336" d="M28 0l556 1456h168l557 -1456h-38l-58 -45q-113 -91 -113 -177q0 -72 78 -72q48 0 100 26l13 -121q-70 -44 -160 -44q-89 0 -140.5 52t-51.5 138q0 144 169 252l-135 371h-610l-137 -380h-198zM421 538h495l-248 681z" />
<glyph unicode="&#x105;" horiz-adv-x="1114" d="M109 300q0 169 128.5 262.5t361.5 93.5h180v85q0 97 -58 154.5t-171 57.5q-99 0 -166 -50t-67 -121h-186q0 81 57.5 156.5t156 119.5t216.5 44q187 0 293 -93.5t110 -257.5v-498q0 -149 38 -237v-16h-33l-58 -45q-113 -91 -113 -177q0 -72 78 -72q48 0 100 26l13 -121 q-70 -44 -160 -44q-89 0 -140.5 52t-51.5 138q0 144 167 250q-15 38 -22 107q-129 -134 -308 -134q-160 0 -262.5 90.5t-102.5 229.5zM294 326q0 -87 58 -136t149 -49q87 0 165 45t113 117v222h-145q-340 0 -340 -199z" />
<glyph unicode="&#x106;" horiz-adv-x="1333" d="M119 660v140q0 203 72.5 357t205.5 236.5t308 82.5q232 0 372 -129.5t163 -358.5h-193q-25 174 -108.5 252t-233.5 78q-184 0 -288.5 -136t-104.5 -387v-141q0 -237 99 -377t277 -140q160 0 245.5 72.5t113.5 252.5h193q-27 -231 -170.5 -356.5t-381.5 -125.5 q-258 0 -413.5 185t-155.5 495zM577 1583l193 294h224l-268 -294h-149z" />
<glyph unicode="&#x107;" horiz-adv-x="1072" d="M92 531v31q0 158 58 281t166.5 191t256.5 68q182 0 302.5 -109t128.5 -283h-175q-8 105 -79.5 172.5t-176.5 67.5q-141 0 -218.5 -101.5t-77.5 -293.5v-35q0 -187 77 -288t220 -101q99 0 173 60t82 150h175q-5 -93 -64 -177t-157.5 -134t-208.5 -50q-221 0 -351.5 147.5 t-130.5 403.5zM430 1240l193 294h224l-268 -294h-149z" />
<glyph unicode="&#x118;" horiz-adv-x="1164" d="M169 0v1456h915v-158h-723v-468h631v-157h-631v-516h733v-157h-73l-58 -45q-113 -91 -113 -177q0 -72 78 -72q48 0 100 26l13 -121q-70 -44 -160 -44q-89 0 -140.5 52t-51.5 138q0 138 155 243h-675z" />
<glyph unicode="&#x119;" horiz-adv-x="1085" d="M93 512v33q0 161 61.5 287.5t172 198t239.5 71.5q211 0 328 -139t117 -398v-77h-733q4 -160 93.5 -258.5t227.5 -98.5q98 0 166 40t119 106l113 -88q-71 -110 -186 -164h1l-58 -45q-113 -91 -113 -177q0 -72 78 -72q48 0 100 26l13 -121q-70 -44 -160 -44 q-89 0 -140.5 52t-51.5 138q0 108 98 198q-218 4 -351.5 148.5t-133.5 383.5zM284 640h542v14q-8 141 -76 218.5t-184 77.5q-112 0 -188 -81.5t-94 -228.5z" />
<glyph unicode="&#x141;" horiz-adv-x="1103" d="M34 615v125l134 42v674h193v-613l263 84v-125l-263 -84v-561h690v-157h-883v657z" />
<glyph unicode="&#x142;" horiz-adv-x="553" d="M34 620v123l144 55v738h186v-667l158 61v-123l-158 -61v-746h-186v675z" />
<glyph unicode="&#x143;" horiz-adv-x="1460" d="M169 0v1456h193l735 -1127v1127h191v-1456h-193l-733 1122v-1122h-193zM624 1550l193 294h224l-268 -294h-149z" />
<glyph unicode="&#x144;" horiz-adv-x="1130" d="M140 0v1082h175l6 -136q124 156 324 156q343 0 346 -387v-715h-185v716q-1 117 -53.5 173t-163.5 56q-90 0 -158 -48t-106 -126v-771h-185zM470 1240l193 294h224l-268 -294h-149z" />
<glyph unicode="&#x15a;" horiz-adv-x="1215" d="M80 422h193q0 -132 97.5 -208.5t260.5 -76.5q152 0 233 62t81 169t-75 165.5t-272 115.5q-247 71 -359.5 174.5t-112.5 255.5q0 172 137.5 284.5t357.5 112.5q150 0 267.5 -58t182 -160t64.5 -223h-193q0 132 -84 207.5t-237 75.5q-142 0 -221.5 -62.5t-79.5 -173.5 q0 -89 75.5 -150.5t257 -112.5t284 -112.5t152 -143.5t49.5 -193q0 -177 -138 -283.5t-369 -106.5q-150 0 -280 57.5t-200.5 157.5t-70.5 227zM520 1552l193 294h224l-268 -294h-149z" />
<glyph unicode="&#x15b;" horiz-adv-x="1056" d="M95 333h185q5 -93 74.5 -147.5t183.5 -54.5q105 0 168.5 42.5t63.5 113.5q0 75 -56.5 116.5t-197 71.5t-223 72t-122 100t-39.5 138q0 133 112.5 225t287.5 92q184 0 298.5 -95t114.5 -243h-186q0 76 -64.5 131t-162.5 55q-101 0 -158 -44t-57 -115q0 -67 53 -101 t191.5 -65t224.5 -74t127.5 -103.5t41.5 -147.5q0 -145 -116 -232.5t-301 -87.5q-130 0 -230 46t-156.5 128.5t-56.5 178.5zM460 1240l193 294h224l-268 -294h-149z" />
<glyph unicode="&#x179;" horiz-adv-x="1226" d="M86 0v144l798 1154h-785v158h1015v-141l-801 -1158h833v-157h-1060zM514 1550l193 294h224l-268 -294h-149z" />
<glyph unicode="&#x17a;" horiz-adv-x="1015" d="M88 0v136l597 793h-588v153h820v-131l-603 -800h633v-151h-859zM412 1240l193 294h224l-268 -294h-149z" />
<glyph unicode="&#x17b;" horiz-adv-x="1226" d="M86 0v144l798 1154h-785v158h1015v-141l-801 -1158h833v-157h-1060zM508 1677q0 45 27.5 76t81.5 31t82 -31t28 -76t-28 -75t-82 -30t-81.5 30t-27.5 75z" />
<glyph unicode="&#x17c;" horiz-adv-x="1015" d="M88 0v136l597 793h-588v153h820v-131l-603 -800h633v-151h-859zM406 1367q0 45 27.5 76t81.5 31t82 -31t28 -76t-28 -75t-82 -30t-81.5 30t-27.5 75z" />
<glyph unicode="&#x2c6;" horiz-adv-x="964" d="M169 1252v12l246 272h112l247 -274v-10h-153l-150 170l-149 -170h-153z" />
<glyph unicode="&#x2da;" horiz-adv-x="685" d="M121 1408q0 86 61.5 147t153.5 61t153.5 -61t61.5 -147q0 -87 -62 -145.5t-153 -58.5q-92 0 -153.5 59t-61.5 145zM220 1408q0 -47 33.5 -81t82.5 -34q48 0 82 33t34 82t-33.5 83.5t-82.5 34.5q-50 0 -83 -35t-33 -83z" />
<glyph unicode="&#x2dc;" horiz-adv-x="966" d="M123 1248q0 107 60.5 177t153.5 70q35 0 63 -10t76 -39t73.5 -38t56.5 -9q43 0 71.5 34t28.5 79l124 -12q0 -108 -61.5 -175t-153.5 -67q-41 0 -71 10t-78.5 41t-70 37.5t-49.5 6.5q-41 0 -70 -31.5t-29 -80.5z" />
<glyph unicode="&#x2000;" horiz-adv-x="938" />
<glyph unicode="&#x2001;" horiz-adv-x="1877" />
<glyph unicode="&#x2002;" horiz-adv-x="938" />
<glyph unicode="&#x2003;" horiz-adv-x="1877" />
<glyph unicode="&#x2004;" horiz-adv-x="625" />
<glyph unicode="&#x2005;" horiz-adv-x="469" />
<glyph unicode="&#x2006;" horiz-adv-x="312" />
<glyph unicode="&#x2007;" horiz-adv-x="312" />
<glyph unicode="&#x2008;" horiz-adv-x="234" />
<glyph unicode="&#x2009;" horiz-adv-x="375" />
<glyph unicode="&#x200a;" horiz-adv-x="104" />
<glyph unicode="&#x2010;" horiz-adv-x="565" d="M37 543v151h488v-151h-488z" />
<glyph unicode="&#x2011;" horiz-adv-x="565" d="M37 543v151h488v-151h-488z" />
<glyph unicode="&#x2012;" horiz-adv-x="565" d="M37 543v151h488v-151h-488z" />
<glyph unicode="&#x2013;" horiz-adv-x="1344" d="M163 651v151h1002v-151h-1002z" />
<glyph unicode="&#x2014;" horiz-adv-x="1599" d="M145 651v151h1336v-151h-1336z" />
<glyph unicode="&#x2018;" horiz-adv-x="409" d="M96 1073v116q0 102 48.5 202t125.5 164l106 -72q-93 -127 -96 -274v-136h-184z" />
<glyph unicode="&#x2019;" horiz-adv-x="409" d="M48 1118q93 130 96 274v144h183v-130q-1 -100 -49.5 -199.5t-124.5 -160.5z" />
<glyph unicode="&#x201a;" horiz-adv-x="407" d="M36 -210q91 127 94 273v118h185v-100q0 -101 -49.5 -202t-124.5 -162z" />
<glyph unicode="&#x201c;" horiz-adv-x="724" d="M104 1073v116q0 102 48.5 202t125.5 164l106 -72q-93 -127 -96 -274v-136h-184zM419 1073v116q0 102 48.5 202t125.5 164l106 -72q-93 -127 -96 -274v-136h-184z" />
<glyph unicode="&#x201d;" horiz-adv-x="731" d="M60 1118q93 130 96 274v144h183v-130q-1 -100 -49.5 -199.5t-124.5 -160.5zM367 1118q93 130 96 274v144h183v-130q-1 -100 -49.5 -199.5t-124.5 -160.5z" />
<glyph unicode="&#x201e;" horiz-adv-x="705" d="M36 -229q91 137 94 290v185h185v-164q0 -108 -49.5 -213.5t-124.5 -169.5zM332 -229q91 137 94 290v185h186v-164q0 -107 -48.5 -211.5t-126.5 -171.5z" />
<glyph unicode="&#x2022;" horiz-adv-x="690" d="M138 734v38q0 87 55.5 143t147.5 56q91 0 148 -54.5t57 -147.5v-37q0 -87 -55 -142t-149 -55q-93 0 -148.5 55.5t-55.5 143.5z" />
<glyph unicode="&#x2026;" horiz-adv-x="1370" d="M148 97q0 48 28.5 80t85.5 32t86.5 -32t29.5 -80q0 -46 -29.5 -77t-86.5 -31t-85.5 31t-28.5 77zM585 97q0 48 28.5 80t85.5 32t86.5 -32t29.5 -80q0 -46 -29.5 -77t-86.5 -31t-85.5 31t-28.5 77zM1000 97q0 48 28.5 80t85.5 32t86.5 -32t29.5 -80q0 -46 -29.5 -77 t-86.5 -31t-85.5 31t-28.5 77z" />
<glyph unicode="&#x202f;" horiz-adv-x="375" />
<glyph unicode="&#x2039;" horiz-adv-x="614" d="M108 541v19l295 389h141l-258 -399l258 -397h-141z" />
<glyph unicode="&#x203a;" horiz-adv-x="614" d="M89 152l258 398l-258 399h142l295 -389v-19l-295 -389h-142z" />
<glyph unicode="&#x205f;" horiz-adv-x="469" />
<glyph unicode="&#x20ac;" d="M95 541v124h178v137h-178v125h178q10 262 152.5 405.5t385.5 143.5q106 0 241 -31l-20 -162q-109 35 -219 35q-164 0 -252.5 -101.5t-94.5 -289.5h383v-125h-384v-137h384v-124h-384q4 -195 94 -300t255 -105q116 0 218 34l20 -160q-120 -30 -240 -30 q-248 0 -390.5 146.5t-148.5 414.5h-178z" />
<glyph unicode="&#x2122;" horiz-adv-x="1281" d="M103 1375v81h386v-81h-147v-456h-91v456h-148zM568 919v537h112l144 -399l144 399h112v-537h-90v394l-140 -394h-52l-140 393v-393h-90z" />
<glyph unicode="&#x25fc;" horiz-adv-x="1080" d="M0 0v1080h1080v-1080h-1080z" />
<hkern u1="&#x20;" u2="T" k="40" />
<hkern u1="&#x22;" u2="w" k="-11" />
<hkern u1="&#x27;" u2="w" k="-11" />
<hkern u1="&#x28;" u2="Y" k="-22" />
<hkern u1="&#x28;" u2="W" k="-18" />
<hkern u1="&#x28;" u2="V" k="-20" />
<hkern u1="&#x2f;" u2="&#x2f;" k="224" />
<hkern u1="A" u2="w" k="33" />
<hkern u1="A" u2="t" k="17" />
<hkern u1="A" u2="&#x3f;" k="61" />
<hkern u1="C" u2="&#x7d;" k="17" />
<hkern u1="C" u2="]" k="12" />
<hkern u1="C" u2="&#x29;" k="26" />
<hkern u1="E" u2="w" k="22" />
<hkern u1="E" u2="f" k="18" />
<hkern u1="F" u2="&#x2026;" k="234" />
<hkern u1="F" u2="&#x201e;" k="234" />
<hkern u1="F" u2="&#x201a;" k="234" />
<hkern u1="F" u2="&#x119;" k="21" />
<hkern u1="F" u2="&#x107;" k="21" />
<hkern u1="F" u2="&#x105;" k="34" />
<hkern u1="F" u2="&#x104;" k="170" />
<hkern u1="F" u2="&#xf3;" k="21" />
<hkern u1="F" u2="y" k="24" />
<hkern u1="F" u2="v" k="24" />
<hkern u1="F" u2="u" k="22" />
<hkern u1="F" u2="r" k="26" />
<hkern u1="F" u2="q" k="21" />
<hkern u1="F" u2="o" k="21" />
<hkern u1="F" u2="g" k="21" />
<hkern u1="F" u2="e" k="21" />
<hkern u1="F" u2="d" k="21" />
<hkern u1="F" u2="c" k="21" />
<hkern u1="F" u2="a" k="34" />
<hkern u1="F" u2="T" k="-20" />
<hkern u1="F" u2="J" k="264" />
<hkern u1="F" u2="A" k="170" />
<hkern u1="F" u2="&#x2e;" k="234" />
<hkern u1="F" u2="&#x2c;" k="234" />
<hkern u1="K" u2="w" k="63" />
<hkern u1="L" u2="w" k="92" />
<hkern u1="P" u2="t" k="-14" />
<hkern u1="Q" u2="Y" k="35" />
<hkern u1="Q" u2="W" k="20" />
<hkern u1="Q" u2="V" k="28" />
<hkern u1="Q" u2="T" k="43" />
<hkern u1="R" u2="Y" k="48" />
<hkern u1="R" u2="V" k="19" />
<hkern u1="R" u2="T" k="80" />
<hkern u1="T" u2="&#xbb;" k="216" />
<hkern u1="T" u2="&#xab;" k="328" />
<hkern u1="T" u2="w" k="57" />
<hkern u1="T" u2="r" k="75" />
<hkern u1="T" u2="&#x20;" k="40" />
<hkern u1="V" u2="&#x7d;" k="-19" />
<hkern u1="V" u2="r" k="30" />
<hkern u1="V" u2="]" k="-17" />
<hkern u1="V" u2="&#x29;" k="-20" />
<hkern u1="W" u2="&#x7d;" k="-14" />
<hkern u1="W" u2="r" k="21" />
<hkern u1="W" u2="]" k="-12" />
<hkern u1="W" u2="&#x29;" k="-15" />
<hkern u1="Y" u2="&#x2022;" k="45" />
<hkern u1="Y" u2="&#xbb;" k="51" />
<hkern u1="Y" u2="&#xab;" k="82" />
<hkern u1="Y" u2="&#x7d;" k="-19" />
<hkern u1="Y" u2="t" k="22" />
<hkern u1="Y" u2="r" k="40" />
<hkern u1="Y" u2="f" k="22" />
<hkern u1="Y" u2="]" k="-18" />
<hkern u1="Y" u2="&#x2a;" k="49" />
<hkern u1="Y" u2="&#x29;" k="-20" />
<hkern u1="Y" u2="&#x26;" k="30" />
<hkern u1="Z" u2="w" k="27" />
<hkern u1="[" u2="U" k="18" />
<hkern u1="[" u2="J" k="18" />
<hkern u1="e" u2="&#x2019;" k="80" />
<hkern u1="f" u2="&#x201d;" k="-16" />
<hkern u1="f" u2="&#x201c;" k="-16" />
<hkern u1="f" u2="&#x2019;" k="-16" />
<hkern u1="f" u2="&#x2018;" k="-16" />
<hkern u1="f" u2="&#x119;" k="24" />
<hkern u1="f" u2="&#x107;" k="24" />
<hkern u1="f" u2="&#x7d;" k="-19" />
<hkern u1="f" u2="q" k="24" />
<hkern u1="f" u2="g" k="24" />
<hkern u1="f" u2="e" k="24" />
<hkern u1="f" u2="d" k="24" />
<hkern u1="f" u2="c" k="24" />
<hkern u1="f" u2="]" k="-18" />
<hkern u1="f" u2="&#x29;" k="-20" />
<hkern u1="f" u2="&#x27;" k="-16" />
<hkern u1="f" u2="&#x22;" k="-16" />
<hkern u1="h" u2="&#x2019;" k="80" />
<hkern u1="k" u2="&#x119;" k="20" />
<hkern u1="k" u2="&#x107;" k="20" />
<hkern u1="k" u2="q" k="20" />
<hkern u1="k" u2="g" k="20" />
<hkern u1="k" u2="e" k="20" />
<hkern u1="k" u2="d" k="20" />
<hkern u1="k" u2="c" k="20" />
<hkern u1="m" u2="&#x2019;" k="80" />
<hkern u1="n" u2="&#x2019;" k="80" />
<hkern u1="o" u2="&#x2019;" k="80" />
<hkern u1="r" u2="w" k="-17" />
<hkern u1="r" u2="t" k="-50" />
<hkern u1="r" u2="f" k="-15" />
<hkern u1="t" u2="&#xf3;" k="20" />
<hkern u1="t" u2="o" k="20" />
<hkern u1="v" u2="f" k="-13" />
<hkern u1="w" u2="&#x2026;" k="124" />
<hkern u1="w" u2="&#x201e;" k="124" />
<hkern u1="w" u2="&#x201a;" k="124" />
<hkern u1="w" u2="&#x2e;" k="124" />
<hkern u1="w" u2="&#x2c;" k="124" />
<hkern u1="y" u2="f" k="-13" />
<hkern u1="&#x7b;" u2="U" k="20" />
<hkern u1="&#x7b;" u2="J" k="20" />
<hkern u1="&#xf3;" u2="&#x2019;" k="80" />
<hkern u1="&#x104;" u2="w" k="33" />
<hkern u1="&#x104;" u2="t" k="17" />
<hkern u1="&#x104;" u2="&#x3f;" k="61" />
<hkern u1="&#x106;" u2="&#x7d;" k="17" />
<hkern u1="&#x106;" u2="]" k="12" />
<hkern u1="&#x106;" u2="&#x29;" k="26" />
<hkern u1="&#x118;" u2="w" k="22" />
<hkern u1="&#x118;" u2="f" k="18" />
<hkern u1="&#x119;" u2="&#x2019;" k="80" />
<hkern u1="&#x144;" u2="&#x2019;" k="80" />
<hkern u1="&#x179;" u2="w" k="27" />
<hkern u1="&#x17b;" u2="w" k="27" />
<hkern u1="&#x2018;" u2="w" k="-11" />
<hkern u1="&#x2019;" u2="&#x15b;" k="112" />
<hkern u1="&#x2019;" u2="&#xf3;" k="128" />
<hkern u1="&#x2019;" u2="w" k="-11" />
<hkern u1="&#x2019;" u2="s" k="112" />
<hkern u1="&#x2019;" u2="o" k="128" />
<hkern u1="&#x2019;" u2="l" k="-32" />
<hkern u1="&#x2019;" u2="k" k="-32" />
<hkern u1="&#x2019;" u2="h" k="-32" />
<hkern u1="&#x201c;" u2="w" k="-11" />
<hkern u1="&#x201d;" u2="w" k="-11" />
<hkern g1="B" 	g2="T" 	k="27" />
<hkern g1="B" 	g2="V" 	k="24" />
<hkern g1="B" 	g2="Y" 	k="55" />
<hkern g1="H,I,M,N,Nacute" 	g2="T" 	k="29" />
<hkern g1="H,I,M,N,Nacute" 	g2="Y" 	k="28" />
<hkern g1="H,I,M,N,Nacute" 	g2="A,Aogonek" 	k="-18" />
<hkern g1="H,I,M,N,Nacute" 	g2="X" 	k="-17" />
<hkern g1="D,O,Oacute" 	g2="T" 	k="27" />
<hkern g1="D,O,Oacute" 	g2="V" 	k="22" />
<hkern g1="D,O,Oacute" 	g2="Y" 	k="43" />
<hkern g1="D,O,Oacute" 	g2="A,Aogonek" 	k="21" />
<hkern g1="D,O,Oacute" 	g2="X" 	k="22" />
<hkern g1="D,O,Oacute" 	g2="comma,period,quotesinglbase,quotedblbase,ellipsis" 	k="102" />
<hkern g1="D,O,Oacute" 	g2="Z,Zacute,Zdotaccent" 	k="23" />
<hkern g1="C,Cacute" 	g2="T" 	k="29" />
<hkern g1="E,Eogonek" 	g2="v,y" 	k="26" />
<hkern g1="E,Eogonek" 	g2="o,oacute" 	k="19" />
<hkern g1="E,Eogonek" 	g2="T" 	k="-20" />
<hkern g1="E,Eogonek" 	g2="u" 	k="17" />
<hkern g1="E,Eogonek" 	g2="c,d,e,g,q,cacute,eogonek" 	k="19" />
<hkern g1="T" 	g2="v,y" 	k="72" />
<hkern g1="T" 	g2="C,G,O,Q,Oacute,Cacute" 	k="28" />
<hkern g1="T" 	g2="o,oacute" 	k="99" />
<hkern g1="T" 	g2="W" 	k="-15" />
<hkern g1="T" 	g2="T" 	k="-16" />
<hkern g1="T" 	g2="u" 	k="95" />
<hkern g1="T" 	g2="z,zacute,zdotaccent" 	k="60" />
<hkern g1="T" 	g2="V" 	k="-16" />
<hkern g1="T" 	g2="Y" 	k="-16" />
<hkern g1="T" 	g2="A,Aogonek" 	k="79" />
<hkern g1="T" 	g2="comma,period,quotesinglbase,quotedblbase,ellipsis" 	k="218" />
<hkern g1="T" 	g2="c,d,e,g,q,cacute,eogonek" 	k="99" />
<hkern g1="T" 	g2="x" 	k="77" />
<hkern g1="T" 	g2="hyphen,endash,emdash" 	k="232" />
<hkern g1="T" 	g2="m,n,p,nacute" 	k="109" />
<hkern g1="T" 	g2="S,Sacute" 	k="16" />
<hkern g1="T" 	g2="a,aogonek" 	k="113" />
<hkern g1="T" 	g2="s,sacute" 	k="116" />
<hkern g1="T" 	g2="J" 	k="240" />
<hkern g1="K" 	g2="v,y" 	k="40" />
<hkern g1="K" 	g2="C,G,O,Q,Oacute,Cacute" 	k="31" />
<hkern g1="K" 	g2="o,oacute" 	k="27" />
<hkern g1="K" 	g2="u" 	k="23" />
<hkern g1="K" 	g2="c,d,e,g,q,cacute,eogonek" 	k="26" />
<hkern g1="K" 	g2="hyphen,endash,emdash" 	k="64" />
<hkern g1="K" 	g2="m,n,p,nacute" 	k="23" />
<hkern g1="L" 	g2="v,y" 	k="133" />
<hkern g1="L" 	g2="C,G,O,Q,Oacute,Cacute" 	k="65" />
<hkern g1="L" 	g2="U" 	k="54" />
<hkern g1="L" 	g2="quotedbl,quotesingle,quoteleft,quoteright,quotedblleft,quotedblright" 	k="336" />
<hkern g1="L" 	g2="W" 	k="143" />
<hkern g1="L" 	g2="T" 	k="275" />
<hkern g1="L" 	g2="u" 	k="44" />
<hkern g1="L" 	g2="V" 	k="175" />
<hkern g1="L" 	g2="Y" 	k="239" />
<hkern g1="L" 	g2="A,Aogonek" 	k="-19" />
<hkern g1="P" 	g2="v,y" 	k="-15" />
<hkern g1="P" 	g2="o,oacute" 	k="13" />
<hkern g1="P" 	g2="A,Aogonek" 	k="138" />
<hkern g1="P" 	g2="X" 	k="31" />
<hkern g1="P" 	g2="comma,period,quotesinglbase,quotedblbase,ellipsis" 	k="324" />
<hkern g1="P" 	g2="Z,Zacute,Zdotaccent" 	k="26" />
<hkern g1="P" 	g2="c,d,e,g,q,cacute,eogonek" 	k="13" />
<hkern g1="P" 	g2="a,aogonek" 	k="11" />
<hkern g1="P" 	g2="J" 	k="200" />
<hkern g1="J,U" 	g2="A,Aogonek" 	k="22" />
<hkern g1="V" 	g2="v,y" 	k="11" />
<hkern g1="V" 	g2="C,G,O,Q,Oacute,Cacute" 	k="13" />
<hkern g1="V" 	g2="o,oacute" 	k="46" />
<hkern g1="V" 	g2="u" 	k="28" />
<hkern g1="V" 	g2="A,Aogonek" 	k="75" />
<hkern g1="V" 	g2="comma,period,quotesinglbase,quotedblbase,ellipsis" 	k="225" />
<hkern g1="V" 	g2="c,d,e,g,q,cacute,eogonek" 	k="44" />
<hkern g1="V" 	g2="hyphen,endash,emdash" 	k="37" />
<hkern g1="V" 	g2="a,aogonek" 	k="46" />
<hkern g1="X" 	g2="v,y" 	k="31" />
<hkern g1="X" 	g2="C,G,O,Q,Oacute,Cacute" 	k="25" />
<hkern g1="X" 	g2="o,oacute" 	k="21" />
<hkern g1="X" 	g2="u" 	k="21" />
<hkern g1="X" 	g2="V" 	k="-14" />
<hkern g1="X" 	g2="c,d,e,g,q,cacute,eogonek" 	k="26" />
<hkern g1="X" 	g2="hyphen,endash,emdash" 	k="46" />
<hkern g1="Y" 	g2="v,y" 	k="20" />
<hkern g1="Y" 	g2="C,G,O,Q,Oacute,Cacute" 	k="29" />
<hkern g1="Y" 	g2="U" 	k="96" />
<hkern g1="Y" 	g2="o,oacute" 	k="65" />
<hkern g1="Y" 	g2="W" 	k="-17" />
<hkern g1="Y" 	g2="T" 	k="-17" />
<hkern g1="Y" 	g2="u" 	k="39" />
<hkern g1="Y" 	g2="z,zacute,zdotaccent" 	k="30" />
<hkern g1="Y" 	g2="V" 	k="-18" />
<hkern g1="Y" 	g2="Y" 	k="-18" />
<hkern g1="Y" 	g2="A,Aogonek" 	k="94" />
<hkern g1="Y" 	g2="X" 	k="-13" />
<hkern g1="Y" 	g2="comma,period,quotesinglbase,quotedblbase,ellipsis" 	k="211" />
<hkern g1="Y" 	g2="c,d,e,g,q,cacute,eogonek" 	k="65" />
<hkern g1="Y" 	g2="x" 	k="23" />
<hkern g1="Y" 	g2="hyphen,endash,emdash" 	k="52" />
<hkern g1="Y" 	g2="m,n,p,nacute" 	k="40" />
<hkern g1="Y" 	g2="S,Sacute" 	k="16" />
<hkern g1="Y" 	g2="a,aogonek" 	k="73" />
<hkern g1="Y" 	g2="s,sacute" 	k="58" />
<hkern g1="Y" 	g2="J" 	k="96" />
<hkern g1="W" 	g2="o,oacute" 	k="31" />
<hkern g1="W" 	g2="T" 	k="-14" />
<hkern g1="W" 	g2="u" 	k="19" />
<hkern g1="W" 	g2="A,Aogonek" 	k="43" />
<hkern g1="W" 	g2="comma,period,quotesinglbase,quotedblbase,ellipsis" 	k="123" />
<hkern g1="W" 	g2="c,d,e,g,q,cacute,eogonek" 	k="31" />
<hkern g1="W" 	g2="hyphen,endash,emdash" 	k="60" />
<hkern g1="W" 	g2="a,aogonek" 	k="33" />
<hkern g1="Z,Zacute,Zdotaccent" 	g2="v,y" 	k="27" />
<hkern g1="Z,Zacute,Zdotaccent" 	g2="C,G,O,Q,Oacute,Cacute" 	k="26" />
<hkern g1="Z,Zacute,Zdotaccent" 	g2="o,oacute" 	k="21" />
<hkern g1="Z,Zacute,Zdotaccent" 	g2="u" 	k="19" />
<hkern g1="Z,Zacute,Zdotaccent" 	g2="A,Aogonek" 	k="-13" />
<hkern g1="Z,Zacute,Zdotaccent" 	g2="c,d,e,g,q,cacute,eogonek" 	k="21" />
<hkern g1="a,aogonek" 	g2="v,y" 	k="15" />
<hkern g1="a,aogonek" 	g2="quotedbl,quotesingle,quoteleft,quoteright,quotedblleft,quotedblright" 	k="67" />
<hkern g1="c,cacute" 	g2="quotedbl,quotesingle,quoteleft,quoteright,quotedblleft,quotedblright" 	k="11" />
<hkern g1="b,p" 	g2="v,y" 	k="11" />
<hkern g1="b,p" 	g2="quotedbl,quotesingle,quoteleft,quoteright,quotedblleft,quotedblright" 	k="29" />
<hkern g1="b,p" 	g2="z,zacute,zdotaccent" 	k="15" />
<hkern g1="b,p" 	g2="x" 	k="15" />
<hkern g1="e,eogonek" 	g2="v,y" 	k="13" />
<hkern g1="e,eogonek" 	g2="quotedbl,quotesingle,quoteleft,quoteright,quotedblleft,quotedblright" 	k="14" />
<hkern g1="h,m,n,nacute" 	g2="quotedbl,quotesingle,quoteleft,quoteright,quotedblleft,quotedblright" 	k="104" />
<hkern g1="o,oacute" 	g2="v,y" 	k="15" />
<hkern g1="o,oacute" 	g2="quotedbl,quotesingle,quoteleft,quoteright,quotedblleft,quotedblright" 	k="136" />
<hkern g1="o,oacute" 	g2="z,zacute,zdotaccent" 	k="16" />
<hkern g1="o,oacute" 	g2="x" 	k="21" />
<hkern g1="v,y" 	g2="quotedbl,quotesingle,quoteleft,quoteright,quotedblleft,quotedblright" 	k="-15" />
<hkern g1="v,y" 	g2="o,oacute" 	k="15" />
<hkern g1="v,y" 	g2="comma,period,quotesinglbase,quotedblbase,ellipsis" 	k="107" />
<hkern g1="v,y" 	g2="c,d,e,g,q,cacute,eogonek" 	k="13" />
<hkern g1="v,y" 	g2="a,aogonek" 	k="15" />
<hkern g1="r" 	g2="v,y" 	k="-18" />
<hkern g1="r" 	g2="quotedbl,quotesingle,quoteleft,quoteright,quotedblleft,quotedblright" 	k="-16" />
<hkern g1="r" 	g2="o,oacute" 	k="20" />
<hkern g1="r" 	g2="comma,period,quotesinglbase,quotedblbase,ellipsis" 	k="123" />
<hkern g1="r" 	g2="c,d,e,g,q,cacute,eogonek" 	k="19" />
<hkern g1="r" 	g2="a,aogonek" 	k="40" />
<hkern g1="x" 	g2="o,oacute" 	k="20" />
<hkern g1="x" 	g2="c,d,e,g,q,cacute,eogonek" 	k="20" />
<hkern g1="z,zacute,zdotaccent" 	g2="o,oacute" 	k="16" />
<hkern g1="z,zacute,zdotaccent" 	g2="c,d,e,g,q,cacute,eogonek" 	k="16" />
<hkern g1="quotedbl,quotesingle,quoteleft,quoteright,quotedblleft,quotedblright" 	g2="quotedbl,quotesingle,quoteleft,quoteright,quotedblleft,quotedblright" 	k="107" />
<hkern g1="quotedbl,quotesingle,quoteleft,quoteright,quotedblleft,quotedblright" 	g2="o,oacute" 	k="61" />
<hkern g1="quotedbl,quotesingle,quoteleft,quoteright,quotedblleft,quotedblright" 	g2="A,Aogonek" 	k="120" />
<hkern g1="quotedbl,quotesingle,quoteleft,quoteright,quotedblleft,quotedblright" 	g2="c,d,e,g,q,cacute,eogonek" 	k="59" />
<hkern g1="quotedbl,quotesingle,quoteleft,quoteright,quotedblleft,quotedblright" 	g2="m,n,p,nacute" 	k="20" />
<hkern g1="quotedbl,quotesingle,quoteleft,quoteright,quotedblleft,quotedblright" 	g2="a,aogonek" 	k="50" />
<hkern g1="quotedbl,quotesingle,quoteleft,quoteright,quotedblleft,quotedblright" 	g2="s,sacute" 	k="80" />
<hkern g1="comma,period,quotesinglbase,quotedblbase,ellipsis" 	g2="quotedbl,quotesingle,quoteleft,quoteright,quotedblleft,quotedblright" 	k="170" />
</font>
</defs></svg> 