<?xml version="1.0" standalone="no"?>
<!DOCTYPE svg PUBLIC "-//W3C//DTD SVG 1.1//EN" "http://www.w3.org/Graphics/SVG/1.1/DTD/svg11.dtd" >
<svg xmlns="http://www.w3.org/2000/svg">
<metadata></metadata>
<defs>
<font id="robotobold" horiz-adv-x="1175" >
<font-face units-per-em="2048" ascent="1536" descent="-512" />
<missing-glyph horiz-adv-x="510" />
<glyph horiz-adv-x="0" />
<glyph horiz-adv-x="0" />
<glyph unicode="&#xd;" horiz-adv-x="510" />
<glyph horiz-adv-x="0" />
<glyph unicode=" "  horiz-adv-x="510" />
<glyph unicode="&#x09;" horiz-adv-x="510" />
<glyph unicode="&#xa0;" horiz-adv-x="510" />
<glyph unicode="!" horiz-adv-x="557" d="M124 136q0 66 44.5 109.5t116.5 43.5q73 0 117.5 -43t44.5 -110q0 -66 -44.5 -109t-117.5 -43q-72 0 -116.5 43t-44.5 109zM131 1456h308l-34 -1009h-240z" />
<glyph unicode="&#x22;" horiz-adv-x="657" d="M64 987v549h202v-138l-40 -411h-162zM390 987v549h201v-138l-39 -411h-162z" />
<glyph unicode="#" horiz-adv-x="1220" d="M64 410v172h257l50 284h-232v174h263l73 416h182l-73 -416h194l73 416h183l-73 -416h219v-174h-250l-50 -284h224v-172h-254l-72 -410h-183l72 410h-193l-72 -410h-183l72 410h-227zM504 582h193l50 284h-194z" />
<glyph unicode="$" d="M92 457h289q0 -119 56.5 -182.5t162.5 -63.5q88 0 139 46.5t51 125.5q0 82 -45.5 130.5t-154.5 89.5t-188 81.5t-135.5 93t-88 123.5t-31.5 169q0 169 108 277t287 126v214h160v-217q177 -25 277 -147.5t100 -317.5h-289q0 120 -49.5 179.5t-132.5 59.5q-82 0 -127 -46.5 t-45 -128.5q0 -76 44 -122t163.5 -94t196.5 -90.5t130 -96t81 -122t28 -159.5q0 -170 -106 -276t-292 -125v-199h-159v198q-205 22 -317.5 145.5t-112.5 328.5z" />
<glyph unicode="%" horiz-adv-x="1512" d="M95 1105v71q0 134 87 217.5t228 83.5q143 0 230 -82.5t87 -223.5v-72q0 -135 -87 -217t-228 -82q-142 0 -229.5 82.5t-87.5 222.5zM287 1099q0 -60 34.5 -96.5t90.5 -36.5t89 37t33 99v74q0 60 -33 97t-91 37q-55 0 -89 -36.5t-34 -101.5v-73zM328 185l711 1138l141 -76 l-711 -1138zM791 283v74q0 135 88 217.5t228 82.5q142 0 229.5 -81.5t87.5 -224.5v-72q0 -134 -86 -216.5t-229 -82.5q-144 0 -231 83t-87 220zM983 279q0 -55 36 -94t90 -39q122 0 122 135v76q0 60 -34 96.5t-90 36.5t-90 -36.5t-34 -99.5v-75z" />
<glyph unicode="&#x26;" horiz-adv-x="1344" d="M71 392q0 101 56.5 187t207.5 191q-65 87 -102 163.5t-37 159.5q0 170 107.5 276.5t289.5 106.5q163 0 267.5 -97t104.5 -242q0 -174 -176 -307l-112 -81l251 -292q59 116 59 256h246q0 -284 -131 -460l218 -253h-328l-75 86q-161 -106 -370 -106q-216 0 -346 113.5 t-130 298.5zM361 408q0 -87 55.5 -141.5t144.5 -54.5q104 0 197 58l-287 332l-21 -15q-89 -76 -89 -179zM455 1097q0 -75 88 -189l77 51q59 38 81.5 74t22.5 86t-37 87t-95 37q-62 0 -99.5 -40t-37.5 -106z" />
<glyph unicode="'" horiz-adv-x="331" d="M63 985v551h212v-147l-29 -404h-183z" />
<glyph unicode="(" horiz-adv-x="719" d="M124 539v53q0 229 61 436t180 366.5t258 221.5l56 -156q-146 -108 -228 -334t-82 -528v-31q0 -303 81 -530t229 -339l-56 -153q-136 61 -253.5 215.5t-179.5 356.5t-66 422z" />
<glyph unicode=")" horiz-adv-x="722" d="M40 -302q142 107 224 330t85 513v53q0 299 -81.5 527t-227.5 342l56 153q136 -59 256.5 -214t187 -361t69.5 -427v-45q0 -226 -65 -435t-187 -369t-261 -220z" />
<glyph unicode="*" horiz-adv-x="928" d="M27 1051l59 181l311 -125l-20 349h196l-20 -356l303 123l59 -183l-320 -89l210 -266l-159 -113l-182 292l-180 -282l-159 108l216 272z" />
<glyph unicode="+" horiz-adv-x="1118" d="M57 554v261h362v391h275v-391h361v-261h-361v-408h-275v408h-362z" />
<glyph unicode="," horiz-adv-x="500" d="M35 -286l36 65q67 122 69 243v224h244l-1 -200q-1 -111 -56 -224t-141 -187z" />
<glyph unicode="-" horiz-adv-x="794" d="M110 507v233h563v-233h-563z" />
<glyph unicode="." horiz-adv-x="595" d="M126 142q0 69 46.5 112t116.5 43q71 0 117.5 -43t46.5 -112q0 -68 -46 -110.5t-118 -42.5q-71 0 -117 42.5t-46 110.5z" />
<glyph unicode="/" horiz-adv-x="765" d="M-13 -125l536 1581h215l-536 -1581h-215z" />
<glyph unicode="0" d="M95 587v268q0 305 126.5 463t364.5 158t364 -156.5t129 -449.5v-268q0 -302 -125 -462t-366 -160q-238 0 -364 157t-129 450zM384 564q0 -178 48.5 -264.5t155.5 -86.5q106 0 153 83t49 254v346q0 181 -49.5 263.5t-154.5 82.5q-102 0 -150.5 -78.5t-51.5 -245.5v-354z " />
<glyph unicode="1" d="M167 1007v235l603 216h31v-1458h-289v1114z" />
<glyph unicode="2" d="M70 998q0 133 63.5 243t179.5 172.5t263 62.5q225 0 349.5 -108t124.5 -305q0 -108 -56 -220t-192 -261l-331 -349h626v-233h-998v198l471 502q97 106 143.5 185t46.5 150q0 97 -49 152.5t-140 55.5q-98 0 -154.5 -67.5t-56.5 -177.5h-290z" />
<glyph unicode="3" d="M64 399h289q0 -82 61.5 -134t151.5 -52q103 0 161.5 54.5t58.5 144.5q0 218 -240 218h-153v226h154q110 0 163 55t53 146q0 88 -52.5 137t-144.5 49q-83 0 -139 -45.5t-56 -118.5h-289q0 114 61.5 204.5t172 141.5t243.5 51q231 0 362 -110.5t131 -304.5q0 -100 -61 -184 t-160 -129q123 -44 183.5 -132t60.5 -208q0 -194 -141.5 -311t-374.5 -117q-218 0 -356.5 115t-138.5 304z" />
<glyph unicode="4" d="M55 497l607 959h292v-908h165v-233h-165v-315h-289v315h-597zM343 548h322v514l-19 -33z" />
<glyph unicode="5" d="M105 405h286q9 -91 63.5 -141.5t142.5 -50.5q98 0 151 70.5t53 199.5q0 124 -61 190t-173 66q-103 0 -167 -54l-28 -26l-230 57l84 740h816v-241h-579l-36 -313q103 55 219 55q208 0 326 -129t118 -361q0 -141 -59.5 -252.5t-170.5 -173t-262 -61.5q-132 0 -245 53.5 t-178.5 150.5t-69.5 221z" />
<glyph unicode="6" d="M100 567v104q0 237 89.5 418.5t257 281t388.5 100.5h48v-238h-28q-196 -3 -315.5 -102t-143.5 -275q116 118 293 118q190 0 302 -136t112 -358q0 -142 -61.5 -257t-174 -179t-254.5 -64q-230 0 -371.5 160t-141.5 427zM390 521q0 -145 57 -226.5t160 -81.5 q93 0 150.5 73.5t57.5 190.5q0 119 -58 192t-156 73q-70 0 -127 -36.5t-84 -96.5v-88z" />
<glyph unicode="7" d="M61 1222v234h1028v-162l-563 -1294h-305l564 1222h-724z" />
<glyph unicode="8" d="M95 399q0 121 62 211t167 140q-93 49 -145.5 131t-52.5 188q0 186 124 296.5t337 110.5q212 0 336.5 -109.5t124.5 -297.5q0 -106 -53 -188t-146 -131q106 -51 168 -140.5t62 -210.5q0 -194 -132 -306.5t-359 -112.5t-360 113t-133 306zM384 420q0 -93 54 -150t150 -57 q94 0 147.5 55t53.5 152q0 95 -55 152t-148 57q-92 0 -147 -56.5t-55 -152.5zM416 1055q0 -87 45 -140t127 -53t126.5 53t44.5 140q0 85 -45 136.5t-127 51.5q-81 0 -126 -50t-45 -138z" />
<glyph unicode="9" d="M86 961q0 143 62.5 262.5t174.5 186t252 66.5q144 0 256 -72t174 -207t63 -309v-107q0 -364 -181 -572t-513 -222l-71 -1v241l64 1q377 17 408 354q-113 -111 -264 -111q-193 0 -309 132.5t-116 357.5zM374 964q0 -119 54.5 -195.5t153.5 -76.5q70 0 120.5 36t76.5 87 v119q0 147 -56 228t-150 81q-87 0 -143 -79.5t-56 -199.5z" />
<glyph unicode=":" horiz-adv-x="578" d="M125 142q0 69 46.5 112t116.5 43q71 0 117.5 -43t46.5 -112q0 -68 -46 -110.5t-118 -42.5q-71 0 -117 42.5t-46 110.5zM125 961q0 69 46.5 112t116.5 43q71 0 117.5 -43t46.5 -112q0 -68 -46 -110.5t-118 -42.5q-71 0 -117 42.5t-46 110.5z" />
<glyph unicode=";" horiz-adv-x="537" d="M57 -286l36 65q67 122 69 243v224h244l-1 -200q-1 -111 -56 -224t-141 -187zM108 961q0 69 46.5 112t116.5 43q71 0 117.5 -43t46.5 -112q0 -68 -46 -110.5t-118 -42.5q-71 0 -117 42.5t-46 110.5z" />
<glyph unicode="&#x3c;" horiz-adv-x="1042" d="M54 502v236l861 365v-280l-570 -205l570 -201v-280z" />
<glyph unicode="=" horiz-adv-x="1172" d="M136 313v236h894v-236h-894zM136 746v236h894v-236h-894z" />
<glyph unicode="&#x3e;" horiz-adv-x="1058" d="M120 136v279l581 206l-581 203v278l871 -365v-235z" />
<glyph unicode="?" horiz-adv-x="1019" d="M45 1069q2 191 123.5 299t331.5 108q212 0 329 -102.5t117 -289.5q0 -85 -38 -160.5t-133 -167.5l-81 -77q-76 -73 -87 -171l-4 -61h-256q0 140 34 223t124.5 163.5t120.5 131t30 106.5q0 169 -156 169q-74 0 -118.5 -45.5t-46.5 -125.5h-290zM318 140q0 67 45.5 110.5 t116.5 43.5t116.5 -43.5t45.5 -110.5q0 -66 -44.5 -109t-117.5 -43t-117.5 43t-44.5 109z" />
<glyph unicode="@" horiz-adv-x="1833" d="M87 463q12 276 126 495t310.5 338.5t443.5 119.5q251 0 432 -107.5t271 -307.5t79 -465q-11 -256 -126.5 -406.5t-310.5 -150.5q-86 0 -148.5 37t-94.5 106q-100 -140 -261 -140q-146 0 -226 123t-60 325q18 165 83.5 293.5t165.5 197.5t216 69q143 0 244 -66l63 -43 l-51 -578q-10 -79 17.5 -121t87.5 -42q92 0 154 107.5t68 281.5q17 349 -140.5 536.5t-466.5 187.5q-193 0 -344 -98t-238 -278.5t-98 -413.5q-16 -354 142 -547.5t473 -193.5q83 0 174 18.5t157 49.5l38 -154q-61 -40 -164.5 -64.5t-208.5 -24.5q-264 0 -450 106.5 t-277.5 314t-79.5 495.5zM744 430q-11 -132 23 -200.5t110 -68.5q49 0 93 43t73 124l42 473q-39 13 -80 13q-115 0 -178.5 -98t-82.5 -286z" />
<glyph unicode="A" horiz-adv-x="1378" d="M7 0l542 1456h278l545 -1456h-319l-101 300h-526l-100 -300h-319zM507 543h364l-183 545z" />
<glyph unicode="B" horiz-adv-x="1307" d="M130 0v1456h510q265 0 402 -101.5t137 -297.5q0 -107 -55 -188.5t-153 -119.5q112 -28 176.5 -113t64.5 -208q0 -210 -134 -318t-382 -110h-566zM430 241h257q106 0 165.5 50.5t59.5 139.5q0 200 -207 203h-275v-393zM430 846h222q227 4 227 181q0 99 -57.5 142.5 t-181.5 43.5h-210v-367z" />
<glyph unicode="C" horiz-adv-x="1340" d="M86 686v89q0 210 74 370t211.5 245.5t319.5 85.5q252 0 406 -135t178 -379h-300q-11 141 -78.5 204.5t-205.5 63.5q-150 0 -224.5 -107.5t-76.5 -333.5v-110q0 -236 71.5 -345t225.5 -109q139 0 207.5 63.5t78.5 196.5h300q-17 -235 -173.5 -370t-412.5 -135 q-280 0 -440.5 188.5t-160.5 517.5z" />
<glyph unicode="D" horiz-adv-x="1331" d="M130 0v1456h448q192 0 343.5 -86.5t236.5 -246t85 -362.5v-67q0 -203 -83.5 -361t-235.5 -245t-343 -88h-451zM430 241h145q176 0 269 115t95 329v77q0 222 -92 336.5t-269 114.5h-148v-972z" />
<glyph unicode="E" horiz-adv-x="1152" d="M130 0v1456h974v-243h-674v-347h576v-235h-576v-390h676v-241h-976z" />
<glyph unicode="F" horiz-adv-x="1122" d="M130 0v1456h948v-243h-648v-376h576v-242h-576v-595h-300z" />
<glyph unicode="G" horiz-adv-x="1395" d="M94 671v99q0 218 73.5 377.5t212 244t324.5 84.5q259 0 405 -123.5t173 -359.5h-292q-20 125 -88.5 183t-188.5 58q-153 0 -233 -115t-81 -342v-93q0 -229 87 -346t255 -117q169 0 241 72v251h-273v221h573v-581q-81 -97 -229 -150.5t-328 -53.5q-189 0 -331.5 82.5 t-220 239.5t-79.5 369z" />
<glyph unicode="H" horiz-adv-x="1447" d="M130 0v1456h300v-590h585v590h300v-1456h-300v624h-585v-624h-300z" />
<glyph unicode="I" horiz-adv-x="597" d="M149 0v1456h300v-1456h-300z" />
<glyph unicode="J" horiz-adv-x="1144" d="M40 430h302q0 -107 45 -158t142 -51q86 0 137 59t51 168v1008h300v-1008q0 -139 -61.5 -245.5t-173.5 -164.5t-253 -58q-231 0 -360 117.5t-129 332.5z" />
<glyph unicode="K" horiz-adv-x="1300" d="M130 0v1456h300v-660l132 181l371 479h369l-517 -647l532 -809h-357l-374 584l-156 -168v-416h-300z" />
<glyph unicode="L" horiz-adv-x="1109" d="M130 0v1456h300v-1215h637v-241h-937z" />
<glyph unicode="M" horiz-adv-x="1794" d="M130 0v1456h392l374 -1056l372 1056h394v-1456h-301v398l30 687l-393 -1085h-206l-392 1084l30 -686v-398h-300z" />
<glyph unicode="N" horiz-adv-x="1446" d="M130 0v1456h300l585 -960v960h299v-1456h-300l-584 958v-958h-300z" />
<glyph unicode="O" horiz-adv-x="1414" d="M86 687v72q0 215 77.5 378.5t219 251t323.5 87.5t323.5 -87.5t219 -251t77.5 -377.5v-65q0 -215 -76 -377t-217.5 -250t-324.5 -88q-181 0 -323 87t-220 248.5t-79 371.5zM390 695q0 -223 82 -346t236 -123q151 0 232 118.5t82 345.5v71q0 229 -82 348t-234 119 q-151 0 -233 -117.5t-83 -344.5v-71z" />
<glyph unicode="P" horiz-adv-x="1321" d="M130 0v1456h568q164 0 288.5 -60t191.5 -170.5t67 -251.5q0 -214 -146.5 -337.5t-405.5 -123.5h-263v-513h-300zM430 756h268q119 0 181.5 56t62.5 160q0 107 -63 173t-174 68h-275v-457z" />
<glyph unicode="Q" horiz-adv-x="1414" d="M84 687v72q0 215 77.5 378.5t219 251t323.5 87.5t323.5 -87.5t219 -251t77.5 -377.5v-65q0 -204 -66 -354.5t-183 -241.5l242 -190l-191 -169l-310 249q-53 -9 -110 -9q-181 0 -323 87t-220 248.5t-79 371.5zM388 695q0 -223 82 -346t236 -123q151 0 232 118.5t82 345.5 v71q0 229 -82 348t-234 119q-151 0 -233 -117.5t-83 -344.5v-71z" />
<glyph unicode="R" horiz-adv-x="1307" d="M130 0v1456h541q258 0 398 -115t140 -325q0 -149 -64.5 -248.5t-195.5 -158.5l315 -595v-14h-322l-273 533h-239v-533h-300zM430 776h242q113 0 175 57.5t62 158.5q0 103 -58.5 162t-179.5 59h-241v-437z" />
<glyph unicode="S" horiz-adv-x="1259" d="M69 458h301q0 -241 288 -241q107 0 167 43.5t60 121.5q0 85 -60 130.5t-216 96t-247 99.5q-248 134 -248 361q0 118 66.5 210.5t191 144.5t279.5 52q156 0 278 -56.5t189.5 -159.5t67.5 -234h-300q0 100 -63 155.5t-177 55.5q-110 0 -171 -46.5t-61 -122.5 q0 -71 71.5 -119t210.5 -90q256 -77 373 -191t117 -284q0 -189 -143 -296.5t-385 -107.5q-168 0 -306 61.5t-210.5 168.5t-72.5 248z" />
<glyph unicode="T" horiz-adv-x="1267" d="M40 1213v243h1186v-243h-446v-1213h-300v1213h-440z" />
<glyph unicode="U" horiz-adv-x="1348" d="M116 486v970h300v-961q0 -143 68.5 -208.5t189.5 -65.5q253 0 257 266v969h301v-959q0 -239 -149.5 -378t-408.5 -139q-255 0 -405 135t-153 371z" />
<glyph unicode="V" horiz-adv-x="1339" d="M7 1456h333l328 -1095l330 1095h334l-507 -1456h-313z" />
<glyph unicode="W" horiz-adv-x="1791" d="M35 1456h299l197 -1034l240 1034h254l239 -1036l196 1036h299l-323 -1456h-302l-237 974l-237 -974h-302z" />
<glyph unicode="X" horiz-adv-x="1301" d="M22 0l435 734l-424 722h345l273 -502l273 502h345l-424 -722l435 -734h-349l-280 510l-280 -510h-349z" />
<glyph unicode="Y" horiz-adv-x="1266" d="M2 1456h329l301 -656l303 656h328l-478 -928v-528h-305v528z" />
<glyph unicode="Z" horiz-adv-x="1241" d="M73 0v176l720 1037h-719v243h1092v-172l-718 -1043h734v-241h-1109z" />
<glyph unicode="[" horiz-adv-x="569" d="M120 -339v2033h432v-223h-142v-1587h142v-223h-432z" />
<glyph unicode="\" horiz-adv-x="864" d="M0 1456h295l608 -1581h-296z" />
<glyph unicode="]" horiz-adv-x="569" d="M13 -116h143v1587h-143v223h432v-2033h-432v223z" />
<glyph unicode="^" horiz-adv-x="895" d="M44 729l299 727h210l299 -727h-229l-175 457l-174 -457h-230z" />
<glyph unicode="_" horiz-adv-x="914" d="M1 0h911v-226h-911v226z" />
<glyph unicode="`" horiz-adv-x="677" d="M52 1536h315l198 -310h-237z" />
<glyph unicode="a" horiz-adv-x="1098" d="M68 304q0 172 127.5 264t368.5 93h133v62q0 75 -38.5 120t-121.5 45q-73 0 -114.5 -35t-41.5 -96h-289q0 94 58 174t164 125.5t238 45.5q200 0 317.5 -100.5t117.5 -282.5v-469q1 -154 43 -233v-17h-292q-20 39 -29 97q-105 -117 -273 -117q-159 0 -263.5 92t-104.5 232z M357 325q0 -54 38 -89t104 -35q64 0 118 28.5t80 76.5v186h-108q-217 0 -231 -150z" />
<glyph unicode="b" horiz-adv-x="1153" d="M111 0v1536h289v-551q100 117 263 117q198 0 310.5 -145.5t112.5 -409.5v-16q0 -260 -111 -405.5t-310 -145.5q-176 0 -281 135l-13 -115h-260zM400 327q53 -114 192 -114q140 0 184 138q21 66 21 201q0 164 -52 239.5t-155 75.5q-138 0 -190 -113v-427z" />
<glyph unicode="c" horiz-adv-x="1068" d="M66 535v19q0 250 133 399t365 149q203 0 325.5 -115.5t124.5 -307.5h-271q-2 84 -52 136.5t-132 52.5q-101 0 -152.5 -73.5t-51.5 -238.5v-30q0 -167 51 -240t155 -73q80 0 130 44t52 117h271q-1 -110 -60 -201.5t-161.5 -142t-226.5 -50.5q-232 0 -366 147.5t-134 407.5 z" />
<glyph unicode="d" horiz-adv-x="1154" d="M66 549q0 253 113.5 403t310.5 150q158 0 261 -118v552h290v-1536h-261l-14 115q-108 -135 -278 -135q-191 0 -306.5 150.5t-115.5 418.5zM355 528q0 -152 53 -233t154 -81q134 0 189 113v427q-54 113 -187 113q-209 0 -209 -339z" />
<glyph unicode="e" horiz-adv-x="1107" d="M72 515v28q0 163 63 291.5t178.5 198t263.5 69.5q222 0 349.5 -140t127.5 -397v-118h-689q14 -106 84.5 -170t178.5 -64q167 0 261 121l142 -159q-65 -92 -176 -143.5t-246 -51.5q-238 0 -387.5 146t-149.5 389zM368 644h402v23q-2 96 -52 148.5t-142 52.5 q-86 0 -139.5 -58t-68.5 -166z" />
<glyph unicode="f" horiz-adv-x="734" d="M29 870v212h161v92q0 182 104.5 282.5t292.5 100.5q60 0 147 -20l-3 -224q-36 9 -88 9q-163 0 -163 -153v-87h215v-212h-215v-870h-290v870h-161z" />
<glyph unicode="g" horiz-adv-x="1169" d="M69 537v12q0 249 118.5 401t319.5 152q178 0 277 -122l12 102h262v-1046q0 -142 -64.5 -247t-181.5 -160t-274 -55q-119 0 -232 47.5t-171 122.5l128 176q108 -121 262 -121q115 0 179 61.5t64 174.5v58q-100 -113 -263 -113q-195 0 -315.5 152.5t-120.5 404.5zM358 528 q0 -147 59 -230.5t162 -83.5q132 0 189 99v455q-58 99 -187 99q-104 0 -163.5 -85t-59.5 -254z" />
<glyph unicode="h" horiz-adv-x="1146" d="M104 0v1536h289v-572q115 138 289 138q352 0 357 -409v-693h-289v685q0 93 -40 137.5t-133 44.5q-127 0 -184 -98v-769h-289z" />
<glyph unicode="i" horiz-adv-x="543" d="M109 1362q0 65 43.5 107t118.5 42q74 0 118 -42t44 -107q0 -66 -44.5 -108t-117.5 -42t-117.5 42t-44.5 108zM126 0v1082h290v-1082h-290z" />
<glyph unicode="j" horiz-adv-x="532" d="M-95 -191q52 -9 91 -9q131 0 131 139v1143h290v-1141q0 -179 -95 -278.5t-274 -99.5q-75 0 -143 17v229zM104 1362q0 65 43.5 107t118.5 42t118.5 -42t43.5 -107q0 -66 -44.5 -108t-117.5 -42t-117.5 42t-44.5 108z" />
<glyph unicode="k" horiz-adv-x="1094" d="M111 0v1536h289v-851l56 72l277 325h347l-391 -451l425 -631h-332l-278 434l-104 -104v-330h-289z" />
<glyph unicode="l" horiz-adv-x="543" d="M126 0v1536h290v-1536h-290z" />
<glyph unicode="m" horiz-adv-x="1773" d="M111 0v1082h271l9 -121q115 141 311 141q209 0 287 -165q114 165 325 165q176 0 262 -102.5t86 -308.5v-691h-290v690q0 92 -36 134.5t-127 42.5q-130 0 -180 -124l1 -743h-289v689q0 94 -37 136t-126 42q-123 0 -178 -102v-765h-289z" />
<glyph unicode="n" horiz-adv-x="1147" d="M105 0v1082h272l9 -125q116 145 311 145q172 0 256 -101t86 -302v-699h-289v692q0 92 -40 133.5t-133 41.5q-122 0 -183 -104v-763h-289z" />
<glyph unicode="o" horiz-adv-x="1158" d="M66 538v13q0 161 62 287t178.5 195t270.5 69q219 0 357.5 -134t154.5 -364l2 -74q0 -249 -139 -399.5t-373 -150.5t-373.5 150t-139.5 408zM355 530q0 -154 58 -235.5t166 -81.5q105 0 164 80.5t59 257.5q0 151 -59 234t-166 83q-106 0 -164 -82.5t-58 -255.5z" />
<glyph unicode="p" horiz-adv-x="1153" d="M111 -416v1498h268l10 -106q105 126 274 126q200 0 311 -148t111 -408v-15q0 -250 -113.5 -400.5t-306.5 -150.5q-164 0 -265 114v-510h-289zM400 320q53 -107 189 -107q207 0 207 339q0 151 -53.5 233t-155.5 82q-136 0 -187 -104v-443z" />
<glyph unicode="q" horiz-adv-x="1157" d="M66 551q0 255 113.5 403t311.5 148q174 0 277 -133l19 113h254v-1498h-290v509q-100 -113 -262 -113q-193 0 -308 150t-115 421zM355 530q0 -155 54.5 -236t153.5 -81q133 0 188 106v447q-54 102 -186 102q-100 0 -155 -81t-55 -257z" />
<glyph unicode="r" horiz-adv-x="747" d="M111 0v1082h273l8 -129q87 149 241 149q48 0 90 -13l-4 -278q-59 8 -104 8q-164 0 -215 -111v-708h-289z" />
<glyph unicode="s" horiz-adv-x="1053" d="M56 344h274q4 -77 57 -118t142 -41q83 0 125.5 31.5t42.5 82.5q0 53 -52.5 83.5t-168.5 54.5q-386 81 -386 328q0 144 119.5 240.5t312.5 96.5q206 0 329.5 -97t123.5 -252h-289q0 62 -40 102.5t-125 40.5q-73 0 -113 -33t-40 -84q0 -48 45.5 -77.5t153.5 -51t182 -48.5 q229 -84 229 -291q0 -148 -127 -239.5t-328 -91.5q-136 0 -241.5 48.5t-165.5 133t-60 182.5z" />
<glyph unicode="t" horiz-adv-x="692" d="M10 870v212h158v266h289v-266h185v-212h-185v-540q0 -60 23 -86t88 -26q48 0 85 7v-219q-85 -26 -175 -26q-304 0 -310 307v583h-158z" />
<glyph unicode="u" horiz-adv-x="1146" d="M104 373v709h289v-699q0 -169 154 -169q147 0 202 102v766h290v-1082h-272l-8 110q-107 -130 -296 -130q-174 0 -265.5 100t-93.5 293z" />
<glyph unicode="v" horiz-adv-x="1035" d="M13 1082h302l201 -729l201 729h302l-365 -1082h-276z" />
<glyph unicode="w" horiz-adv-x="1505" d="M28 1082h279l141 -688l198 688h209l197 -689l142 689h279l-276 -1082h-242l-205 681l-205 -681h-241z" />
<glyph unicode="x" horiz-adv-x="1042" d="M21 0l321 552l-307 530h310l178 -323l182 323h309l-308 -530l321 -552h-310l-193 340l-192 -340h-311z" />
<glyph unicode="y" horiz-adv-x="1028" d="M3 1082h311l201 -673l200 673h310l-435 -1250l-24 -57q-97 -212 -320 -212q-63 0 -128 19v219l44 -1q82 0 122.5 25t63.5 83l34 89z" />
<glyph unicode="z" horiz-adv-x="1042" d="M74 0v176l509 672h-494v234h867v-171l-513 -678h529v-233h-898z" />
<glyph unicode="{" horiz-adv-x="676" d="M48 515v207q174 0 178 199v212q0 185 90 299t270 165l56 -161q-76 -28 -115 -97.5t-41 -192.5v-210q0 -226 -179 -317q179 -92 179 -319v-212q5 -234 156 -286l-56 -162q-360 101 -360 465v199q0 211 -178 211z" />
<glyph unicode="|" horiz-adv-x="518" d="M173 -270v1726h175v-1726h-175z" />
<glyph unicode="}" horiz-adv-x="676" d="M34 -198q152 54 156 290v212q0 226 183 314q-183 88 -183 319v209q-4 233 -156 290l56 161q179 -50 269 -163.5t91 -297.5v-215q4 -199 178 -199v-207q-178 0 -178 -209v-217q-8 -350 -360 -449z" />
<glyph unicode="~" horiz-adv-x="1328" d="M106 415q0 186 90.5 299t240.5 113q78 0 142 -30t145.5 -107.5t148.5 -77.5q59 0 96.5 53t37.5 129l214 -1q0 -186 -93 -302t-240 -116q-74 0 -137.5 28.5t-146.5 108t-153 79.5q-58 0 -94 -50t-36 -128z" />
<glyph unicode="&#xa2;" horiz-adv-x="1178" d="M99 532v22q0 218 105 363t294 177v224h200v-225q163 -29 255.5 -140t94.5 -274h-272q-2 86 -52 137.5t-131 51.5q-102 0 -153 -74.5t-52 -234.5v-33q0 -168 51.5 -240.5t154.5 -72.5q80 0 130 44t52 117h272q-2 -145 -98.5 -250.5t-251.5 -134.5v-234h-200v233 q-187 30 -293 174t-106 370z" />
<glyph unicode="&#xa3;" horiz-adv-x="1217" d="M99 576v236h154l-7 227q0 202 123.5 319t330.5 117q212 0 333 -112.5t121 -304.5h-287q0 85 -43.5 130t-124.5 45q-66 0 -109.5 -49t-43.5 -145l9 -227h309v-236h-300l6 -139q0 -123 -62 -196h653v-241h-1059v241h92q72 18 72 179l-5 156h-162z" />
<glyph unicode="&#xa5;" horiz-adv-x="1254" d="M20 1456h330l276 -606l277 606h329l-375 -714h234v-175h-319v-115h319v-174h-319v-278h-300v278h-336v174h336v115h-336v175h260z" />
<glyph unicode="&#xa8;" horiz-adv-x="956" d="M93 1365q0 54 38.5 90.5t99.5 36.5q62 0 100 -37.5t38 -89.5t-38 -89t-100 -37q-59 0 -98.5 35.5t-39.5 90.5zM580 1365q0 53 39.5 90t98.5 37q58 0 98.5 -36.5t40.5 -90.5q0 -52 -38.5 -89.5t-100.5 -37.5t-100 37.5t-38 89.5z" />
<glyph unicode="&#xa9;" horiz-adv-x="1606" d="M86 729q0 202 93.5 375t259 272.5t357.5 99.5t357.5 -99.5t259 -272.5t93.5 -375q0 -204 -95 -377.5t-259.5 -272.5t-355.5 -99q-193 0 -357.5 100t-258.5 273t-94 376zM208 729q0 -170 77.5 -314t214 -227.5t296.5 -83.5t297.5 85t213.5 229t76 311q0 166 -75 308.5 t-212 228t-300 85.5q-159 0 -295.5 -82t-214.5 -226t-78 -314zM433 675v113q0 174 95.5 280.5t253.5 106.5q163 0 249.5 -82.5t86.5 -231.5h-156q0 96 -46 137.5t-134 41.5q-92 0 -142.5 -67.5t-51.5 -180.5v-123q0 -117 51 -184.5t143 -67.5q89 0 134 40.5t45 138.5h156 q0 -152 -87.5 -233t-247.5 -81t-254.5 106.5t-94.5 286.5z" />
<glyph unicode="&#xab;" horiz-adv-x="1023" d="M77 515v19l280 390h186l-240 -400l240 -399h-186zM462 515v19l280 390h186l-240 -400l240 -399h-186z" />
<glyph unicode="&#xad;" horiz-adv-x="794" d="M110 507v233h563v-233h-563z" />
<glyph unicode="&#xae;" horiz-adv-x="1606" d="M86 729q0 202 93.5 375t259 272.5t357.5 99.5t357.5 -99.5t259 -272.5t93.5 -375q0 -204 -95 -377.5t-259.5 -272.5t-355.5 -99q-193 0 -357.5 100t-258.5 273t-94 376zM208 729q0 -170 77.5 -314t214 -227.5t296.5 -83.5t297.5 85t213.5 229t76 311q0 166 -75 308.5 t-212 228t-300 85.5q-159 0 -295.5 -82t-214.5 -226t-78 -314zM501 316v850h281q151 0 238 -68.5t87 -194.5q0 -112 -113 -174q61 -31 85.5 -86.5t24.5 -137.5t3.5 -116t13.5 -57v-16h-155q-13 34 -13 194q0 76 -33 109.5t-110 33.5h-158v-337h-151zM652 787h136 q74 0 121.5 32t47.5 84q0 70 -35.5 99.5t-128.5 30.5h-141v-246z" />
<glyph unicode="&#xb4;" horiz-adv-x="679" d="M101 1226l197 310h315l-277 -310h-235z" />
<glyph unicode="&#xb8;" horiz-adv-x="548" d="M98 -136l31 143h216l-11 -58q150 -27 150 -173q0 -110 -91.5 -174t-257.5 -64l-7 167q112 0 112 81q0 42 -33.5 57.5t-108.5 20.5z" />
<glyph unicode="&#xbb;" horiz-adv-x="1023" d="M85 124l240 399l-240 400h187l280 -390v-19l-280 -390h-187zM478 124l240 399l-240 400h187l280 -390v-19l-280 -390h-187z" />
<glyph unicode="&#xd3;" horiz-adv-x="1414" d="M86 687v72q0 215 77.5 378.5t219 251t323.5 87.5t323.5 -87.5t219 -251t77.5 -377.5v-65q0 -215 -76 -377t-217.5 -250t-324.5 -88q-181 0 -323 87t-220 248.5t-79 371.5zM390 695q0 -223 82 -346t236 -123q151 0 232 118.5t82 345.5v71q0 229 -82 348t-234 119 q-151 0 -233 -117.5t-83 -344.5v-71zM567 1536l197 310h315l-277 -310h-235z" />
<glyph unicode="&#xf3;" horiz-adv-x="1158" d="M66 538v13q0 161 62 287t178.5 195t270.5 69q219 0 357.5 -134t154.5 -364l2 -74q0 -249 -139 -399.5t-373 -150.5t-373.5 150t-139.5 408zM355 530q0 -154 58 -235.5t166 -81.5q105 0 164 80.5t59 257.5q0 151 -59 234t-166 83q-106 0 -164 -82.5t-58 -255.5zM437 1226 l197 310h315l-277 -310h-235z" />
<glyph unicode="&#x104;" horiz-adv-x="1378" d="M7 0l542 1456h278l545 -1456h-84q-74 -42 -114 -82.5t-40 -93.5q0 -65 66 -65q33 0 80 20l29 -157q-73 -44 -165 -44q-100 0 -163.5 55.5t-63.5 153.5q0 135 132 224l-97 289h-526l-100 -300h-319zM507 543h364l-183 545z" />
<glyph unicode="&#x105;" horiz-adv-x="1098" d="M68 304q0 172 127.5 264t368.5 93h133v62q0 75 -38.5 120t-121.5 45q-73 0 -114.5 -35t-41.5 -96h-289q0 94 58 174t164 125.5t238 45.5q200 0 317.5 -100.5t117.5 -282.5v-469q1 -154 43 -233v-17h-48q-74 -42 -114 -82.5t-40 -93.5q0 -65 66 -65q33 0 80 20l29 -157 q-73 -44 -165 -44q-100 0 -163.5 55.5t-63.5 153.5q0 131 124 218q-17 41 -26 92q-105 -117 -273 -117q-159 0 -263.5 92t-104.5 232zM357 325q0 -54 38 -89t104 -35q64 0 118 28.5t80 76.5v186h-108q-217 0 -231 -150z" />
<glyph unicode="&#x106;" horiz-adv-x="1340" d="M86 686v89q0 210 74 370t211.5 245.5t319.5 85.5q252 0 406 -135t178 -379h-300q-11 141 -78.5 204.5t-205.5 63.5q-150 0 -224.5 -107.5t-76.5 -333.5v-110q0 -236 71.5 -345t225.5 -109q139 0 207.5 63.5t78.5 196.5h300q-17 -235 -173.5 -370t-412.5 -135 q-280 0 -440.5 188.5t-160.5 517.5zM549 1544l197 310h315l-277 -310h-235z" />
<glyph unicode="&#x107;" horiz-adv-x="1068" d="M66 535v19q0 250 133 399t365 149q203 0 325.5 -115.5t124.5 -307.5h-271q-2 84 -52 136.5t-132 52.5q-101 0 -152.5 -73.5t-51.5 -238.5v-30q0 -167 51 -240t155 -73q80 0 130 44t52 117h271q-1 -110 -60 -201.5t-161.5 -142t-226.5 -50.5q-232 0 -366 147.5t-134 407.5 zM395 1226l197 310h315l-277 -310h-235z" />
<glyph unicode="&#x118;" horiz-adv-x="1152" d="M130 0v1456h974v-243h-674v-347h576v-235h-576v-390h676v-241h-152q-74 -42 -114 -82.5t-40 -93.5q0 -65 66 -65q33 0 80 20l29 -157q-73 -44 -165 -44q-100 0 -163.5 55.5t-63.5 153.5q0 127 116 213h-569z" />
<glyph unicode="&#x119;" horiz-adv-x="1107" d="M72 512v31q0 163 63 291.5t178.5 198t263.5 69.5q222 0 349.5 -140t127.5 -397v-118h-689q14 -106 84.5 -170t178.5 -64q167 0 261 121l142 -159q-62 -91 -177 -144h1q-74 -42 -114 -82.5t-40 -93.5q0 -65 66 -65q33 0 80 20l29 -157q-73 -44 -165 -44 q-100 0 -163.5 55.5t-63.5 153.5q0 97 63 165q-214 19 -344.5 162.5t-130.5 366.5zM368 644h402v23q-2 96 -52 148.5t-142 52.5q-86 0 -139.5 -58t-68.5 -166z" />
<glyph unicode="&#x141;" horiz-adv-x="1142" d="M29 604v166l134 38v648h300v-561l215 62v-166l-215 -62v-488h637v-241h-937v642z" />
<glyph unicode="&#x142;" horiz-adv-x="626" d="M30 604v166l132 44v722h289v-626l142 47v-166l-142 -47v-744h-289v648z" />
<glyph unicode="&#x143;" horiz-adv-x="1446" d="M130 0v1456h300l585 -960v960h299v-1456h-300l-584 958v-958h-300zM587 1536l197 310h315l-277 -310h-235z" />
<glyph unicode="&#x144;" horiz-adv-x="1147" d="M105 0v1082h272l9 -125q116 145 311 145q172 0 256 -101t86 -302v-699h-289v692q0 92 -40 133.5t-133 41.5q-122 0 -183 -104v-763h-289zM436 1226l197 310h315l-277 -310h-235z" />
<glyph unicode="&#x15a;" horiz-adv-x="1259" d="M69 458h301q0 -241 288 -241q107 0 167 43.5t60 121.5q0 85 -60 130.5t-216 96t-247 99.5q-248 134 -248 361q0 118 66.5 210.5t191 144.5t279.5 52q156 0 278 -56.5t189.5 -159.5t67.5 -234h-300q0 100 -63 155.5t-177 55.5q-110 0 -171 -46.5t-61 -122.5 q0 -71 71.5 -119t210.5 -90q256 -77 373 -191t117 -284q0 -189 -143 -296.5t-385 -107.5q-168 0 -306 61.5t-210.5 168.5t-72.5 248zM509 1536l197 310h315l-277 -310h-235z" />
<glyph unicode="&#x15b;" horiz-adv-x="1053" d="M56 344h274q4 -77 57 -118t142 -41q83 0 125.5 31.5t42.5 82.5q0 53 -52.5 83.5t-168.5 54.5q-386 81 -386 328q0 144 119.5 240.5t312.5 96.5q206 0 329.5 -97t123.5 -252h-289q0 62 -40 102.5t-125 40.5q-73 0 -113 -33t-40 -84q0 -48 45.5 -77.5t153.5 -51t182 -48.5 q229 -84 229 -291q0 -148 -127 -239.5t-328 -91.5q-136 0 -241.5 48.5t-165.5 133t-60 182.5zM390 1226l197 310h315l-277 -310h-235z" />
<glyph unicode="&#x179;" horiz-adv-x="1241" d="M73 0v176l720 1037h-719v243h1092v-172l-718 -1043h734v-241h-1109zM490 1536l197 310h315l-277 -310h-235z" />
<glyph unicode="&#x17a;" horiz-adv-x="1042" d="M74 0v176l509 672h-494v234h867v-171l-513 -678h529v-233h-898zM383 1226l197 310h315l-277 -310h-235z" />
<glyph unicode="&#x17b;" horiz-adv-x="1241" d="M73 0v176l720 1037h-719v243h1092v-172l-718 -1043h734v-241h-1109zM480 1701q0 60 40.5 98.5t107.5 38.5q69 0 108.5 -38.5t39.5 -98.5t-39.5 -98t-108.5 -38q-68 0 -108 38t-40 98z" />
<glyph unicode="&#x17c;" horiz-adv-x="1042" d="M74 0v176l509 672h-494v234h867v-171l-513 -678h529v-233h-898zM373 1391q0 60 40.5 98.5t107.5 38.5q69 0 108.5 -38.5t39.5 -98.5t-39.5 -98t-108.5 -38q-68 0 -108 38t-40 98z" />
<glyph unicode="&#x2c6;" horiz-adv-x="1015" d="M123 1244v16l296 276h168l300 -280v-12h-230l-154 145l-154 -145h-226z" />
<glyph unicode="&#x2da;" horiz-adv-x="682" d="M119 1325q0 86 65 145.5t158 59.5q92 0 157.5 -58.5t65.5 -146.5q0 -85 -64 -143t-159 -58q-97 0 -160 59t-63 142zM234 1325q0 -44 29 -75.5t79 -31.5t79 31.5t29 75.5q0 46 -29.5 77.5t-78.5 31.5t-78.5 -31.5t-29.5 -77.5z" />
<glyph unicode="&#x2dc;" horiz-adv-x="985" d="M117 1258q0 111 65.5 189t160.5 78q30 0 56.5 -7.5t86.5 -36.5t83 -35t48 -6q35 0 60.5 24.5t25.5 70.5l167 -11q0 -113 -66 -189.5t-161 -76.5q-38 0 -67.5 8.5t-81.5 36.5t-75 34.5t-50 6.5q-35 0 -59.5 -25t-24.5 -71z" />
<glyph unicode="&#x2000;" horiz-adv-x="927" />
<glyph unicode="&#x2001;" horiz-adv-x="1854" />
<glyph unicode="&#x2002;" horiz-adv-x="927" />
<glyph unicode="&#x2003;" horiz-adv-x="1854" />
<glyph unicode="&#x2004;" horiz-adv-x="618" />
<glyph unicode="&#x2005;" horiz-adv-x="463" />
<glyph unicode="&#x2006;" horiz-adv-x="309" />
<glyph unicode="&#x2007;" horiz-adv-x="309" />
<glyph unicode="&#x2008;" horiz-adv-x="231" />
<glyph unicode="&#x2009;" horiz-adv-x="370" />
<glyph unicode="&#x200a;" horiz-adv-x="103" />
<glyph unicode="&#x2010;" horiz-adv-x="794" d="M110 507v233h563v-233h-563z" />
<glyph unicode="&#x2011;" horiz-adv-x="794" d="M110 507v233h563v-233h-563z" />
<glyph unicode="&#x2012;" horiz-adv-x="794" d="M110 507v233h563v-233h-563z" />
<glyph unicode="&#x2013;" horiz-adv-x="1294" d="M152 596v236h1036v-236h-1036z" />
<glyph unicode="&#x2014;" horiz-adv-x="1563" d="M109 596v236h1381v-236h-1381z" />
<glyph unicode="&#x2018;" horiz-adv-x="479" d="M104 1048v150q0 94 52.5 200.5t129.5 171.5l136 -79q-86 -136 -89 -276v-167h-229z" />
<glyph unicode="&#x2019;" horiz-adv-x="470" d="M58 1088q86 135 89 279v169h230v-155q0 -90 -50 -195t-133 -177z" />
<glyph unicode="&#x201a;" horiz-adv-x="508" d="M66 -226q78 126 81 274v181h238l-1 -166q-1 -89 -50.5 -192t-131.5 -176z" />
<glyph unicode="&#x201c;" horiz-adv-x="831" d="M112 1048v150q0 94 52.5 200.5t129.5 171.5l136 -79q-86 -136 -89 -276v-167h-229zM455 1048v150q0 94 52.5 200.5t129.5 171.5l136 -79q-86 -136 -89 -276v-167h-229z" />
<glyph unicode="&#x201d;" horiz-adv-x="837" d="M72 1088q86 135 89 279v169h230v-155q0 -90 -50 -195t-133 -177zM419 1088q86 135 89 279v169h230v-155q0 -90 -50 -195t-133 -177z" />
<glyph unicode="&#x201e;" horiz-adv-x="825" d="M66 -246q78 134 81 293v216h238l-1 -199q-1 -97 -48 -206.5t-127 -182.5zM402 -246q86 148 89 294v215h238l-1 -203q-2 -96 -52.5 -205t-130.5 -180z" />
<glyph unicode="&#x2022;" horiz-adv-x="736" d="M135 731v35q0 104 66 167t170 63q108 0 172.5 -62t66.5 -163v-43q0 -103 -65.5 -165.5t-171.5 -62.5q-105 0 -171.5 62t-66.5 169z" />
<glyph unicode="&#x2026;" horiz-adv-x="1515" d="M133 142q0 69 46.5 112t116.5 43q71 0 117.5 -43t46.5 -112q0 -68 -46 -110.5t-118 -42.5q-71 0 -117 42.5t-46 110.5zM606 142q0 69 46.5 112t116.5 43q71 0 117.5 -43t46.5 -112q0 -68 -46 -110.5t-118 -42.5q-71 0 -117 42.5t-46 110.5zM1070 142q0 69 46.5 112 t116.5 43q71 0 117.5 -43t46.5 -112q0 -68 -46 -110.5t-118 -42.5q-71 0 -117 42.5t-46 110.5z" />
<glyph unicode="&#x202f;" horiz-adv-x="370" />
<glyph unicode="&#x2039;" horiz-adv-x="638" d="M108 515v19l280 390h186l-240 -400l240 -399h-186z" />
<glyph unicode="&#x203a;" horiz-adv-x="618" d="M80 124l240 399l-240 400h187l280 -390v-19l-280 -390h-187z" />
<glyph unicode="&#x205f;" horiz-adv-x="463" />
<glyph unicode="&#x20ac;" d="M89 516v152h169v124h-169v152h171q17 252 175.5 391.5t420.5 139.5q105 0 236 -31l-36 -243q-94 32 -185 32q-283 0 -310 -289h333v-152h-335v-124h335v-152h-335q5 -147 78.5 -221t228.5 -74q105 0 190 31l36 -242q-124 -29 -256 -29q-263 0 -416.5 141.5t-161.5 393.5 h-169z" />
<glyph unicode="&#x2122;" horiz-adv-x="1293" d="M116 1348v108h407v-108h-129v-431h-142v431h-136zM594 914v542h158l117 -368l126 368h149v-542h-128v352l-111 -352h-72l-111 353v-353h-128z" />
<glyph unicode="&#x25fc;" horiz-adv-x="1080" d="M0 0v1080h1080v-1080h-1080z" />
<hkern u1="&#x20;" u2="T" k="60" />
<hkern u1="&#x22;" u2="w" k="-11" />
<hkern u1="&#x27;" u2="w" k="-11" />
<hkern u1="&#x28;" u2="Y" k="-22" />
<hkern u1="&#x28;" u2="W" k="-38" />
<hkern u1="&#x28;" u2="V" k="-20" />
<hkern u1="&#x2f;" u2="&#x2f;" k="248" />
<hkern u1="A" u2="w" k="33" />
<hkern u1="A" u2="t" k="17" />
<hkern u1="A" u2="&#x3f;" k="81" />
<hkern u1="C" u2="&#x7d;" k="17" />
<hkern u1="C" u2="]" k="12" />
<hkern u1="C" u2="&#x29;" k="26" />
<hkern u1="E" u2="w" k="22" />
<hkern u1="E" u2="f" k="18" />
<hkern u1="F" u2="&#x2026;" k="274" />
<hkern u1="F" u2="&#x201e;" k="274" />
<hkern u1="F" u2="&#x201a;" k="274" />
<hkern u1="F" u2="&#x119;" k="21" />
<hkern u1="F" u2="&#x107;" k="21" />
<hkern u1="F" u2="&#x105;" k="34" />
<hkern u1="F" u2="&#x104;" k="192" />
<hkern u1="F" u2="&#xf3;" k="21" />
<hkern u1="F" u2="y" k="24" />
<hkern u1="F" u2="v" k="24" />
<hkern u1="F" u2="u" k="22" />
<hkern u1="F" u2="r" k="26" />
<hkern u1="F" u2="q" k="21" />
<hkern u1="F" u2="o" k="21" />
<hkern u1="F" u2="g" k="21" />
<hkern u1="F" u2="e" k="21" />
<hkern u1="F" u2="d" k="21" />
<hkern u1="F" u2="c" k="21" />
<hkern u1="F" u2="a" k="34" />
<hkern u1="F" u2="T" k="-20" />
<hkern u1="F" u2="J" k="208" />
<hkern u1="F" u2="A" k="192" />
<hkern u1="F" u2="&#x2e;" k="274" />
<hkern u1="F" u2="&#x2c;" k="274" />
<hkern u1="K" u2="w" k="63" />
<hkern u1="L" u2="w" k="52" />
<hkern u1="P" u2="t" k="-14" />
<hkern u1="Q" u2="Y" k="35" />
<hkern u1="Q" u2="W" k="20" />
<hkern u1="Q" u2="V" k="28" />
<hkern u1="Q" u2="T" k="33" />
<hkern u1="R" u2="Y" k="48" />
<hkern u1="R" u2="V" k="19" />
<hkern u1="R" u2="T" k="50" />
<hkern u1="T" u2="&#xbb;" k="146" />
<hkern u1="T" u2="&#xab;" k="148" />
<hkern u1="T" u2="w" k="47" />
<hkern u1="T" u2="r" k="65" />
<hkern u1="T" u2="&#x20;" k="60" />
<hkern u1="V" u2="&#x7d;" k="-19" />
<hkern u1="V" u2="r" k="30" />
<hkern u1="V" u2="]" k="-17" />
<hkern u1="V" u2="&#x29;" k="-20" />
<hkern u1="W" u2="&#x7d;" k="-14" />
<hkern u1="W" u2="r" k="21" />
<hkern u1="W" u2="]" k="-12" />
<hkern u1="W" u2="&#x29;" k="-15" />
<hkern u1="Y" u2="&#x2022;" k="45" />
<hkern u1="Y" u2="&#xbb;" k="51" />
<hkern u1="Y" u2="&#xab;" k="82" />
<hkern u1="Y" u2="&#x7d;" k="-19" />
<hkern u1="Y" u2="t" k="22" />
<hkern u1="Y" u2="r" k="40" />
<hkern u1="Y" u2="f" k="22" />
<hkern u1="Y" u2="]" k="-18" />
<hkern u1="Y" u2="&#x2a;" k="49" />
<hkern u1="Y" u2="&#x29;" k="-20" />
<hkern u1="Y" u2="&#x26;" k="30" />
<hkern u1="Z" u2="w" k="27" />
<hkern u1="[" u2="U" k="18" />
<hkern u1="[" u2="J" k="18" />
<hkern u1="e" u2="&#x2019;" k="64" />
<hkern u1="f" u2="&#x201d;" k="-16" />
<hkern u1="f" u2="&#x201c;" k="-16" />
<hkern u1="f" u2="&#x2019;" k="-16" />
<hkern u1="f" u2="&#x2018;" k="-16" />
<hkern u1="f" u2="&#x119;" k="24" />
<hkern u1="f" u2="&#x107;" k="24" />
<hkern u1="f" u2="&#x7d;" k="-19" />
<hkern u1="f" u2="q" k="24" />
<hkern u1="f" u2="g" k="24" />
<hkern u1="f" u2="e" k="24" />
<hkern u1="f" u2="d" k="24" />
<hkern u1="f" u2="c" k="24" />
<hkern u1="f" u2="]" k="-18" />
<hkern u1="f" u2="&#x29;" k="-20" />
<hkern u1="f" u2="&#x27;" k="-16" />
<hkern u1="f" u2="&#x22;" k="-16" />
<hkern u1="h" u2="&#x2019;" k="104" />
<hkern u1="k" u2="&#x119;" k="20" />
<hkern u1="k" u2="&#x107;" k="20" />
<hkern u1="k" u2="q" k="20" />
<hkern u1="k" u2="g" k="20" />
<hkern u1="k" u2="e" k="20" />
<hkern u1="k" u2="d" k="20" />
<hkern u1="k" u2="c" k="20" />
<hkern u1="m" u2="&#x2019;" k="120" />
<hkern u1="n" u2="&#x2019;" k="120" />
<hkern u1="o" u2="&#x2019;" k="112" />
<hkern u1="r" u2="&#x2019;" k="-16" />
<hkern u1="r" u2="w" k="-17" />
<hkern u1="r" u2="t" k="-50" />
<hkern u1="r" u2="f" k="-20" />
<hkern u1="t" u2="&#x2019;" k="-24" />
<hkern u1="t" u2="&#xf3;" k="30" />
<hkern u1="t" u2="o" k="30" />
<hkern u1="v" u2="f" k="-13" />
<hkern u1="w" u2="&#x2026;" k="124" />
<hkern u1="w" u2="&#x201e;" k="124" />
<hkern u1="w" u2="&#x201a;" k="124" />
<hkern u1="w" u2="&#x2e;" k="124" />
<hkern u1="w" u2="&#x2c;" k="124" />
<hkern u1="y" u2="f" k="-13" />
<hkern u1="&#x7b;" u2="U" k="20" />
<hkern u1="&#x7b;" u2="J" k="20" />
<hkern u1="&#xf3;" u2="&#x2019;" k="112" />
<hkern u1="&#x104;" u2="w" k="33" />
<hkern u1="&#x104;" u2="t" k="17" />
<hkern u1="&#x104;" u2="&#x3f;" k="81" />
<hkern u1="&#x106;" u2="&#x7d;" k="17" />
<hkern u1="&#x106;" u2="]" k="12" />
<hkern u1="&#x106;" u2="&#x29;" k="26" />
<hkern u1="&#x118;" u2="w" k="22" />
<hkern u1="&#x118;" u2="f" k="18" />
<hkern u1="&#x119;" u2="&#x2019;" k="64" />
<hkern u1="&#x144;" u2="&#x2019;" k="120" />
<hkern u1="&#x179;" u2="w" k="27" />
<hkern u1="&#x17b;" u2="w" k="27" />
<hkern u1="&#x2018;" u2="w" k="-11" />
<hkern u1="&#x2019;" u2="&#x15b;" k="232" />
<hkern u1="&#x2019;" u2="&#x119;" k="104" />
<hkern u1="&#x2019;" u2="&#x107;" k="104" />
<hkern u1="&#x2019;" u2="&#xf3;" k="144" />
<hkern u1="&#x2019;" u2="w" k="-11" />
<hkern u1="&#x2019;" u2="s" k="232" />
<hkern u1="&#x2019;" u2="q" k="104" />
<hkern u1="&#x2019;" u2="o" k="144" />
<hkern u1="&#x2019;" u2="g" k="104" />
<hkern u1="&#x2019;" u2="e" k="104" />
<hkern u1="&#x2019;" u2="d" k="104" />
<hkern u1="&#x2019;" u2="c" k="104" />
<hkern u1="&#x201c;" u2="w" k="-11" />
<hkern u1="&#x201d;" u2="w" k="-11" />
<hkern g1="B" 	g2="V" 	k="24" />
<hkern g1="B" 	g2="Y" 	k="55" />
<hkern g1="B" 	g2="T" 	k="27" />
<hkern g1="H,I,M,N,Nacute" 	g2="Y" 	k="28" />
<hkern g1="H,I,M,N,Nacute" 	g2="T" 	k="29" />
<hkern g1="H,I,M,N,Nacute" 	g2="A,Aogonek" 	k="-18" />
<hkern g1="H,I,M,N,Nacute" 	g2="X" 	k="-17" />
<hkern g1="D,O,Oacute" 	g2="V" 	k="22" />
<hkern g1="D,O,Oacute" 	g2="Y" 	k="43" />
<hkern g1="D,O,Oacute" 	g2="T" 	k="85" />
<hkern g1="D,O,Oacute" 	g2="A,Aogonek" 	k="21" />
<hkern g1="D,O,Oacute" 	g2="X" 	k="22" />
<hkern g1="D,O,Oacute" 	g2="Z,Zacute,Zdotaccent" 	k="23" />
<hkern g1="D,O,Oacute" 	g2="comma,period,quotesinglbase,quotedblbase,ellipsis" 	k="122" />
<hkern g1="C,Cacute" 	g2="T" 	k="29" />
<hkern g1="E,Eogonek" 	g2="o,oacute" 	k="19" />
<hkern g1="E,Eogonek" 	g2="v,y" 	k="26" />
<hkern g1="E,Eogonek" 	g2="T" 	k="-20" />
<hkern g1="E,Eogonek" 	g2="u" 	k="17" />
<hkern g1="E,Eogonek" 	g2="c,d,e,g,q,cacute,eogonek" 	k="19" />
<hkern g1="T" 	g2="z,zacute,zdotaccent" 	k="60" />
<hkern g1="T" 	g2="o,oacute" 	k="208" />
<hkern g1="T" 	g2="v,y" 	k="82" />
<hkern g1="T" 	g2="C,G,O,Q,Oacute,Cacute" 	k="28" />
<hkern g1="T" 	g2="V" 	k="-16" />
<hkern g1="T" 	g2="m,n,p,nacute" 	k="89" />
<hkern g1="T" 	g2="Y" 	k="-16" />
<hkern g1="T" 	g2="T" 	k="-16" />
<hkern g1="T" 	g2="u" 	k="65" />
<hkern g1="T" 	g2="W" 	k="-15" />
<hkern g1="T" 	g2="A,Aogonek" 	k="120" />
<hkern g1="T" 	g2="comma,period,quotesinglbase,quotedblbase,ellipsis" 	k="258" />
<hkern g1="T" 	g2="c,d,e,g,q,cacute,eogonek" 	k="89" />
<hkern g1="T" 	g2="x" 	k="77" />
<hkern g1="T" 	g2="s,sacute" 	k="76" />
<hkern g1="T" 	g2="hyphen,endash,emdash" 	k="272" />
<hkern g1="T" 	g2="S,Sacute" 	k="16" />
<hkern g1="T" 	g2="a,aogonek" 	k="168" />
<hkern g1="T" 	g2="J" 	k="216" />
<hkern g1="K" 	g2="o,oacute" 	k="27" />
<hkern g1="K" 	g2="v,y" 	k="40" />
<hkern g1="K" 	g2="C,G,O,Q,Oacute,Cacute" 	k="31" />
<hkern g1="K" 	g2="u" 	k="23" />
<hkern g1="K" 	g2="c,d,e,g,q,cacute,eogonek" 	k="26" />
<hkern g1="K" 	g2="hyphen,endash,emdash" 	k="164" />
<hkern g1="L" 	g2="v,y" 	k="123" />
<hkern g1="L" 	g2="C,G,O,Q,Oacute,Cacute" 	k="64" />
<hkern g1="L" 	g2="V" 	k="206" />
<hkern g1="L" 	g2="U" 	k="24" />
<hkern g1="L" 	g2="Y" 	k="279" />
<hkern g1="L" 	g2="quotedbl,quotesingle,quoteleft,quoteright,quotedblleft,quotedblright" 	k="288" />
<hkern g1="L" 	g2="T" 	k="205" />
<hkern g1="L" 	g2="u" 	k="14" />
<hkern g1="L" 	g2="W" 	k="93" />
<hkern g1="L" 	g2="A,Aogonek" 	k="-19" />
<hkern g1="P" 	g2="o,oacute" 	k="13" />
<hkern g1="P" 	g2="v,y" 	k="-15" />
<hkern g1="P" 	g2="A,Aogonek" 	k="178" />
<hkern g1="P" 	g2="X" 	k="51" />
<hkern g1="P" 	g2="Z,Zacute,Zdotaccent" 	k="36" />
<hkern g1="P" 	g2="comma,period,quotesinglbase,quotedblbase,ellipsis" 	k="404" />
<hkern g1="P" 	g2="c,d,e,g,q,cacute,eogonek" 	k="13" />
<hkern g1="P" 	g2="a,aogonek" 	k="11" />
<hkern g1="P" 	g2="J" 	k="184" />
<hkern g1="J,U" 	g2="A,Aogonek" 	k="22" />
<hkern g1="V" 	g2="o,oacute" 	k="46" />
<hkern g1="V" 	g2="v,y" 	k="11" />
<hkern g1="V" 	g2="C,G,O,Q,Oacute,Cacute" 	k="13" />
<hkern g1="V" 	g2="u" 	k="28" />
<hkern g1="V" 	g2="A,Aogonek" 	k="75" />
<hkern g1="V" 	g2="comma,period,quotesinglbase,quotedblbase,ellipsis" 	k="215" />
<hkern g1="V" 	g2="c,d,e,g,q,cacute,eogonek" 	k="44" />
<hkern g1="V" 	g2="hyphen,endash,emdash" 	k="157" />
<hkern g1="V" 	g2="a,aogonek" 	k="46" />
<hkern g1="X" 	g2="o,oacute" 	k="21" />
<hkern g1="X" 	g2="v,y" 	k="31" />
<hkern g1="X" 	g2="C,G,O,Q,Oacute,Cacute" 	k="25" />
<hkern g1="X" 	g2="V" 	k="-14" />
<hkern g1="X" 	g2="u" 	k="21" />
<hkern g1="X" 	g2="c,d,e,g,q,cacute,eogonek" 	k="26" />
<hkern g1="X" 	g2="hyphen,endash,emdash" 	k="156" />
<hkern g1="Y" 	g2="z,zacute,zdotaccent" 	k="30" />
<hkern g1="Y" 	g2="o,oacute" 	k="65" />
<hkern g1="Y" 	g2="v,y" 	k="20" />
<hkern g1="Y" 	g2="C,G,O,Q,Oacute,Cacute" 	k="29" />
<hkern g1="Y" 	g2="V" 	k="-18" />
<hkern g1="Y" 	g2="U" 	k="96" />
<hkern g1="Y" 	g2="m,n,p,nacute" 	k="40" />
<hkern g1="Y" 	g2="Y" 	k="-18" />
<hkern g1="Y" 	g2="T" 	k="-17" />
<hkern g1="Y" 	g2="u" 	k="39" />
<hkern g1="Y" 	g2="W" 	k="-17" />
<hkern g1="Y" 	g2="A,Aogonek" 	k="150" />
<hkern g1="Y" 	g2="X" 	k="-13" />
<hkern g1="Y" 	g2="comma,period,quotesinglbase,quotedblbase,ellipsis" 	k="231" />
<hkern g1="Y" 	g2="c,d,e,g,q,cacute,eogonek" 	k="65" />
<hkern g1="Y" 	g2="x" 	k="23" />
<hkern g1="Y" 	g2="s,sacute" 	k="58" />
<hkern g1="Y" 	g2="hyphen,endash,emdash" 	k="152" />
<hkern g1="Y" 	g2="S,Sacute" 	k="16" />
<hkern g1="Y" 	g2="a,aogonek" 	k="63" />
<hkern g1="Y" 	g2="J" 	k="96" />
<hkern g1="W" 	g2="o,oacute" 	k="31" />
<hkern g1="W" 	g2="T" 	k="-14" />
<hkern g1="W" 	g2="u" 	k="19" />
<hkern g1="W" 	g2="A,Aogonek" 	k="43" />
<hkern g1="W" 	g2="comma,period,quotesinglbase,quotedblbase,ellipsis" 	k="143" />
<hkern g1="W" 	g2="c,d,e,g,q,cacute,eogonek" 	k="31" />
<hkern g1="W" 	g2="hyphen,endash,emdash" 	k="60" />
<hkern g1="W" 	g2="a,aogonek" 	k="33" />
<hkern g1="Z,Zacute,Zdotaccent" 	g2="o,oacute" 	k="21" />
<hkern g1="Z,Zacute,Zdotaccent" 	g2="v,y" 	k="27" />
<hkern g1="Z,Zacute,Zdotaccent" 	g2="C,G,O,Q,Oacute,Cacute" 	k="26" />
<hkern g1="Z,Zacute,Zdotaccent" 	g2="u" 	k="19" />
<hkern g1="Z,Zacute,Zdotaccent" 	g2="A,Aogonek" 	k="-13" />
<hkern g1="Z,Zacute,Zdotaccent" 	g2="c,d,e,g,q,cacute,eogonek" 	k="21" />
<hkern g1="a,aogonek" 	g2="v,y" 	k="15" />
<hkern g1="a,aogonek" 	g2="quotedbl,quotesingle,quoteleft,quoteright,quotedblleft,quotedblright" 	k="17" />
<hkern g1="c,cacute" 	g2="quotedbl,quotesingle,quoteleft,quoteright,quotedblleft,quotedblright" 	k="11" />
<hkern g1="b,p" 	g2="z,zacute,zdotaccent" 	k="15" />
<hkern g1="b,p" 	g2="v,y" 	k="11" />
<hkern g1="b,p" 	g2="quotedbl,quotesingle,quoteleft,quoteright,quotedblleft,quotedblright" 	k="29" />
<hkern g1="b,p" 	g2="x" 	k="15" />
<hkern g1="e,eogonek" 	g2="v,y" 	k="13" />
<hkern g1="e,eogonek" 	g2="quotedbl,quotesingle,quoteleft,quoteright,quotedblleft,quotedblright" 	k="14" />
<hkern g1="h,m,n,nacute" 	g2="quotedbl,quotesingle,quoteleft,quoteright,quotedblleft,quotedblright" 	k="80" />
<hkern g1="o,oacute" 	g2="z,zacute,zdotaccent" 	k="16" />
<hkern g1="o,oacute" 	g2="v,y" 	k="15" />
<hkern g1="o,oacute" 	g2="quotedbl,quotesingle,quoteleft,quoteright,quotedblleft,quotedblright" 	k="88" />
<hkern g1="o,oacute" 	g2="x" 	k="21" />
<hkern g1="v,y" 	g2="o,oacute" 	k="15" />
<hkern g1="v,y" 	g2="quotedbl,quotesingle,quoteleft,quoteright,quotedblleft,quotedblright" 	k="-15" />
<hkern g1="v,y" 	g2="comma,period,quotesinglbase,quotedblbase,ellipsis" 	k="167" />
<hkern g1="v,y" 	g2="c,d,e,g,q,cacute,eogonek" 	k="13" />
<hkern g1="v,y" 	g2="a,aogonek" 	k="15" />
<hkern g1="r" 	g2="o,oacute" 	k="36" />
<hkern g1="r" 	g2="v,y" 	k="-18" />
<hkern g1="r" 	g2="quotedbl,quotesingle,quoteleft,quoteright,quotedblleft,quotedblright" 	k="-16" />
<hkern g1="r" 	g2="comma,period,quotesinglbase,quotedblbase,ellipsis" 	k="173" />
<hkern g1="r" 	g2="c,d,e,g,q,cacute,eogonek" 	k="19" />
<hkern g1="r" 	g2="a,aogonek" 	k="30" />
<hkern g1="x" 	g2="o,oacute" 	k="40" />
<hkern g1="x" 	g2="c,d,e,g,q,cacute,eogonek" 	k="20" />
<hkern g1="z,zacute,zdotaccent" 	g2="o,oacute" 	k="16" />
<hkern g1="z,zacute,zdotaccent" 	g2="c,d,e,g,q,cacute,eogonek" 	k="16" />
<hkern g1="quotedbl,quotesingle,quoteleft,quoteright,quotedblleft,quotedblright" 	g2="o,oacute" 	k="91" />
<hkern g1="quotedbl,quotesingle,quoteleft,quoteright,quotedblleft,quotedblright" 	g2="m,n,p,nacute" 	k="20" />
<hkern g1="quotedbl,quotesingle,quoteleft,quoteright,quotedblleft,quotedblright" 	g2="quotedbl,quotesingle,quoteleft,quoteright,quotedblleft,quotedblright" 	k="37" />
<hkern g1="quotedbl,quotesingle,quoteleft,quoteright,quotedblleft,quotedblright" 	g2="A,Aogonek" 	k="120" />
<hkern g1="quotedbl,quotesingle,quoteleft,quoteright,quotedblleft,quotedblright" 	g2="c,d,e,g,q,cacute,eogonek" 	k="59" />
<hkern g1="quotedbl,quotesingle,quoteleft,quoteright,quotedblleft,quotedblright" 	g2="s,sacute" 	k="92" />
<hkern g1="quotedbl,quotesingle,quoteleft,quoteright,quotedblleft,quotedblright" 	g2="a,aogonek" 	k="50" />
<hkern g1="comma,period,quotesinglbase,quotedblbase,ellipsis" 	g2="quotedbl,quotesingle,quoteleft,quoteright,quotedblleft,quotedblright" 	k="285" />
</font>
</defs></svg> 