<?xml version="1.0" standalone="no"?>
<!DOCTYPE svg PUBLIC "-//W3C//DTD SVG 1.1//EN" "http://www.w3.org/Graphics/SVG/1.1/DTD/svg11.dtd" >
<svg xmlns="http://www.w3.org/2000/svg">
<metadata></metadata>
<defs>
<font id="roboto_slabbold" horiz-adv-x="815" >
<font-face units-per-em="2048" ascent="1638" descent="-410" />
<missing-glyph horiz-adv-x="502" />
<glyph horiz-adv-x="0" />
<glyph unicode="&#xd;" horiz-adv-x="502" />
<glyph horiz-adv-x="225" />
<glyph unicode="&#x9;" horiz-adv-x="0" />
<glyph unicode=" "  horiz-adv-x="502" />
<glyph unicode="&#x09;" horiz-adv-x="502" />
<glyph unicode="&#xa0;" horiz-adv-x="502" />
<glyph unicode="!" horiz-adv-x="507" d="M119 0v256h292v-256h-292zM119 502v954h292v-954h-292z" />
<glyph unicode="&#x22;" horiz-adv-x="782" d="M140 1039v521h206v-272l-77 -249h-129zM467 1039v521h205v-272l-77 -249h-128z" />
<glyph unicode="#" horiz-adv-x="1198" d="M39 410v169h256l51 290h-231v171h261l74 416h183l-73 -416h192l73 416h184l-74 -416h220v-171h-250l-51 -290h226v-169h-255l-72 -410h-183l72 410h-192l-72 -410h-184l72 410h-227zM479 579h192l51 290h-192z" />
<glyph unicode="$" horiz-adv-x="1107" d="M57 449l2 5h284q0 -134 62 -192t156 -58q91 0 139.5 48.5t48.5 130.5q0 81 -46.5 132t-159.5 95q-222 81 -329 180.5t-107 280.5q0 168 107.5 275.5t289.5 126.5v215h159v-218q175 -26 275.5 -146.5t98.5 -313.5l-3 -5h-284q0 118 -49 182t-132 64q-86 0 -128.5 -49.5 t-42.5 -131.5q0 -78 44.5 -126.5t163.5 -95.5q221 -87 328 -186t107 -277q0 -173 -107.5 -277.5t-290.5 -123.5v-198h-159v197q-187 19 -309 132.5t-118 333.5z" />
<glyph unicode="%" horiz-adv-x="1429" d="M49 1099v77q0 129 83.5 215t232.5 86q151 0 234 -85.5t83 -215.5v-77q0 -129 -83 -214t-232 -85q-150 0 -234 85t-84 214zM243 1099q0 -58 32 -97.5t92 -39.5q58 0 90 39.5t32 97.5v77q0 58 -32.5 98.5t-91.5 40.5t-90.5 -40.5t-31.5 -98.5v-77zM308 184l711 1138 l142 -75l-711 -1138zM745 280v77q0 128 84 214t233 86q150 0 233.5 -85.5t83.5 -214.5v-77q0 -130 -83 -215t-232 -85q-150 0 -234.5 85.5t-84.5 214.5zM939 280q0 -57 34.5 -97.5t90.5 -40.5q65 0 93 37.5t28 100.5v77q0 57 -32 97.5t-91 40.5q-60 0 -91.5 -40.5 t-31.5 -97.5v-77z" />
<glyph unicode="&#x26;" horiz-adv-x="1278" d="M45 392q0 118 65 203.5t198 178.5q-68 92 -101.5 168t-33.5 155q0 173 108 276.5t289 103.5q159 0 258.5 -98.5t99.5 -238.5q0 -98 -49 -179t-134 -142l-93 -66l276 -322q36 60 56 130t20 148h218q0 -138 -34 -254t-104 -206l208 -244l-2 -5h-324l-77 89 q-85 -55 -175 -82.5t-193 -27.5q-218 0 -347 114.5t-129 298.5zM337 407q0 -89 55 -146.5t144 -57.5q53 0 106 13.5t102 40.5l-300 348l-19 -13q-51 -48 -69.5 -93.5t-18.5 -91.5zM434 1100q0 -43 21.5 -88.5t64.5 -100.5l86 56q56 36 75.5 74t19.5 83q0 50 -36.5 89 t-95.5 39q-65 0 -100 -43.5t-35 -108.5z" />
<glyph unicode="'" horiz-adv-x="449" d="M139 1008v552h199v-269l-70 -283h-129z" />
<glyph unicode="(" horiz-adv-x="685" d="M89 570v22q0 392 152 665.5t344 354.5h6l53 -146q-131 -98 -220 -316t-89 -556v-26q0 -339 89 -556.5t220 -318.5l-53 -143h-6q-192 81 -344 354t-152 666z" />
<glyph unicode=")" horiz-adv-x="712" d="M61 -307q129 98 219 317t90 558v26q0 336 -91 556.5t-218 319.5l54 142h6q194 -80 352 -359t158 -661v-22q0 -383 -158 -661.5t-352 -358.5h-6z" />
<glyph unicode="*" horiz-adv-x="914" d="M34 1055l57 177l297 -123l-18 347h188l-20 -353l291 120l56 -180l-306 -89l200 -265l-151 -110l-175 290l-173 -281l-152 106l208 272z" />
<glyph unicode="+" horiz-adv-x="1098" d="M49 560v252h362v394h277v-394h359v-252h-359v-414h-277v414h-362z" />
<glyph unicode="," horiz-adv-x="503" d="M58 -286q39 70 60 144.5t21 166.5v218h262l-1 -204q0 -102 -57.5 -216t-140.5 -187z" />
<glyph unicode="-" d="M131 510v225h564v-225h-564z" />
<glyph unicode="." horiz-adv-x="522" d="M129 0v256h291v-256h-291z" />
<glyph unicode="/" horiz-adv-x="748" d="M-23 -125l534 1581h216l-534 -1581h-216z" />
<glyph unicode="0" horiz-adv-x="1170" d="M97 567v321q0 288 132.5 438.5t359.5 150.5q226 0 359.5 -150.5t133.5 -438.5v-321q0 -289 -132.5 -438.5t-358.5 -149.5q-228 0 -361 149.5t-133 438.5zM388 539q0 -176 51.5 -256t151.5 -80q98 0 149 80t51 256v379q0 173 -52 253.5t-150 80.5q-99 0 -150 -80t-51 -254 v-379z" />
<glyph unicode="1" horiz-adv-x="905" d="M62 1191v167l540 98v-1251l246 -30v-175h-783v175l246 30v986h-249z" />
<glyph unicode="2" horiz-adv-x="1132" d="M50 1007q-5 197 129.5 333.5t362.5 136.5q225 0 354 -117t129 -312q0 -132 -72.5 -244t-240.5 -292l-259 -283l2 -5h378l12 144h222v-368h-994v191l471 505q102 117 145 197.5t43 149.5q0 92 -49.5 150.5t-140.5 58.5q-101 0 -153.5 -68.5t-52.5 -182.5h-284z" />
<glyph unicode="3" horiz-adv-x="1112" d="M57 390l2 6h283q0 -84 60 -138.5t152 -54.5q101 0 159.5 56t58.5 152q0 115 -57.5 168.5t-169.5 53.5h-164v219h164q104 0 154 54.5t50 151.5q0 88 -50 141t-145 53q-82 0 -138 -48t-56 -126h-283l-2 6q-6 171 131 282t340 111q226 0 360.5 -108t134.5 -308 q0 -95 -60 -180.5t-165 -133.5q121 -43 184.5 -132t63.5 -207q0 -200 -145.5 -314.5t-372.5 -114.5q-203 0 -348.5 107.5t-140.5 303.5z" />
<glyph unicode="4" horiz-adv-x="1154" d="M36 491l605 965h294v-914h165v-194h-165v-143l155 -30v-175h-602v175l156 30v143h-594zM309 542h335v525l-6 2l-24 -42z" />
<glyph unicode="5" horiz-adv-x="1092" d="M67 390l2 5l280 14q0 -97 55 -151.5t144 -54.5q102 0 151 73t49 189q0 126 -52 202t-155 76q-83 0 -127.5 -31t-63.5 -84l-258 17l84 811h838v-332h-180l-26 98h-392l-41 -336q41 30 98 49.5t126 20.5q210 3 325 -127t115 -362q0 -210 -126.5 -349t-364.5 -139 q-200 0 -343 109.5t-138 301.5z" />
<glyph unicode="6" horiz-adv-x="1144" d="M91 569v256q0 309 163.5 480.5t420.5 171.5q82 0 151.5 -15.5t139.5 -45.5l-51 -213q-63 22 -116 33.5t-122 11.5q-130 0 -208.5 -95t-79.5 -280l3 -5q49 51 124.5 80t168.5 29q195 0 306 -138.5t111 -353.5q0 -220 -137 -363t-354 -143q-230 0 -375 156.5t-145 433.5z M382 562q0 -173 62.5 -266t166.5 -93q90 0 144.5 82.5t54.5 199.5q0 121 -55 196t-147 75q-81 0 -138 -26t-88 -71v-97z" />
<glyph unicode="7" horiz-adv-x="1107" d="M49 1087v369h1029v-225q-234 -274 -319.5 -511t-122.5 -572l-14 -148h-292l14 148q34 321 146 589.5t307 493.5h-513l-11 -144h-224z" />
<glyph unicode="8" horiz-adv-x="1115" d="M67 398q0 118 66.5 208.5t182.5 139.5q-102 47 -159 131t-57 193q0 194 127 300.5t335 106.5t336 -106.5t128 -300.5q0 -109 -58 -193t-159 -131q116 -49 183 -140t67 -208q0 -202 -137 -310.5t-358 -108.5q-222 0 -359.5 108.5t-137.5 310.5zM359 418q0 -100 56 -157.5 t149 -57.5q91 0 147.5 58t56.5 157q0 98 -57.5 157t-148.5 59t-147 -59t-56 -157zM393 1057q0 -91 45 -144.5t126 -53.5q79 0 124.5 53.5t45.5 144.5q0 88 -46.5 141.5t-125.5 53.5q-80 0 -124.5 -52.5t-44.5 -142.5z" />
<glyph unicode="9" horiz-adv-x="1141" d="M63 957q0 221 138.5 370.5t350.5 149.5q223 0 362 -153.5t139 -431.5v-316q0 -283 -154.5 -440t-397.5 -157q-76 0 -156.5 15.5t-148.5 45.5l33 211q67 -25 130 -36.5t142 -11.5q117 0 189 89.5t72 268.5v22q-49 -63 -117 -95.5t-146 -32.5q-204 0 -320 133.5t-116 368.5 zM355 957q0 -132 49.5 -210t143.5 -78q73 0 127.5 27.5t86.5 73.5v156q0 160 -56 243t-152 83q-88 0 -143.5 -86.5t-55.5 -208.5z" />
<glyph unicode=":" horiz-adv-x="455" d="M91 0v256h291v-256h-291zM91 0zM91 825v256h291v-256h-291z" />
<glyph unicode=";" horiz-adv-x="453" d="M28 0zM28 -286q39 70 60 144.5t21 166.5v218h262l-1 -204q0 -102 -57.5 -216t-140.5 -187zM90 825v256h291v-256h-291z" />
<glyph unicode="&#x3c;" horiz-adv-x="1012" d="M58 436v227l861 366v-272l-576 -207v-6l576 -203v-272z" />
<glyph unicode="=" horiz-adv-x="1123" d="M123 332v229h896v-229h-896zM123 763v229h896v-229h-896z" />
<glyph unicode="&#x3e;" horiz-adv-x="1031" d="M104 60v270l585 209v6l-585 206v269l871 -366v-227z" />
<glyph unicode="?" horiz-adv-x="985" d="M34 1081q-3 192 126.5 294t337.5 102q224 0 351.5 -113.5t127.5 -308.5q0 -127 -74.5 -235t-186.5 -181q-61 -47 -80 -94.5t-19 -130.5h-291q1 140 41.5 205t161.5 158q71 58 113.5 125t42.5 150q0 92 -48.5 144t-138.5 52q-74 0 -125.5 -44t-52.5 -129h-284zM325 0v250 h294v-250h-294z" />
<glyph unicode="@" horiz-adv-x="1806" d="M67 478q18 427 255 683.5t626 256.5q387 0 593 -242.5t190 -662.5q-9 -218 -128 -376t-356 -158q-78 0 -135 44t-81 123q-44 -82 -109.5 -123t-153.5 -41q-141 0 -216.5 119t-56.5 315q25 254 144 407t288 153q116 0 186 -26t155 -80l-3 -4h5l-51 -573q-7 -94 14 -129.5 t57 -35.5q115 0 184.5 109t77.5 276q16 354 -136.5 551.5t-471.5 197.5q-304 0 -484.5 -213t-195.5 -571q-18 -355 145.5 -560t469.5 -205q85 0 175.5 20t155.5 50l38 -147q-67 -42 -170.5 -65.5t-202.5 -23.5q-396 0 -610.5 249t-197.5 682zM721 416q-10 -127 18.5 -192.5 t92.5 -65.5q56 0 101.5 26.5t81.5 96.5q0 2 0.5 6t0.5 6l44 496q-23 7 -46.5 11t-47.5 4q-111 0 -169 -96.5t-76 -291.5z" />
<glyph unicode="A" horiz-adv-x="1471" d="M41 0v175l104 15l443 1266h299l440 -1266l104 -15v-175h-496v175l101 18l-64 200h-472l-64 -200l101 -18v-175h-496zM569 608h334l-164 513h-6z" />
<glyph unicode="B" horiz-adv-x="1354" d="M56 0v175l155 30v1045l-155 30v176h155h492q257 0 401 -100t144 -299q0 -101 -53.5 -180.5t-155.5 -119.5q131 -28 196.5 -120t65.5 -213q0 -209 -138 -316.5t-391 -107.5h-716zM503 224h269q116 0 177 50.5t61 149.5q0 107 -52 163.5t-164 56.5h-291v-420zM503 846h210 q117 0 180 48t63 140q0 101 -63.5 149t-189.5 48h-200v-385z" />
<glyph unicode="C" horiz-adv-x="1327" d="M52 703v49q0 317 186 521t481 204q169 0 305 -61.5t225 -162.5v-288h-217l-30 194q-43 43 -108.5 68t-154.5 25q-190 0 -292.5 -138t-102.5 -360v-51q0 -222 102 -361t288 -139q86 0 157.5 25t110.5 68l30 194h217v-288q-88 -102 -224.5 -162.5t-305.5 -60.5 q-293 0 -480 203t-187 521z" />
<glyph unicode="D" horiz-adv-x="1411" d="M56 0v175l155 30v1045l-155 30v176h155h500q267 0 440 -170.5t173 -437.5v-241q0 -268 -173 -437.5t-440 -169.5h-655zM503 224h193q157 0 246 106t89 277v243q0 169 -89 275t-246 106h-193v-1007z" />
<glyph unicode="E" horiz-adv-x="1308" d="M56 0v175l155 30v1045l-155 30v176h155h995v-399h-224l-13 174h-466v-366h493v-225h-493v-416h470l13 174h222v-398h-1152z" />
<glyph unicode="F" horiz-adv-x="1265" d="M56 0v175l155 30v1045l-155 30v176h1159v-399h-224l-13 174h-475v-401h510v-225h-510v-400l156 -30v-175h-603z" />
<glyph unicode="G" horiz-adv-x="1353" d="M47 690v50q0 327 182.5 532t476.5 205q171 0 312.5 -54.5t235.5 -147.5v-293h-216l-41 195q-40 34 -105.5 54.5t-150.5 20.5q-191 0 -297 -141t-106 -369v-52q0 -222 104 -354.5t300 -132.5q88 0 142.5 15t85.5 35v247l-208 16v205h501v-559q-71 -70 -207 -126.5 t-344 -56.5q-295 0 -480 197.5t-185 513.5z" />
<glyph unicode="H" horiz-adv-x="1601" d="M56 0v175l155 30v1045l-155 30v176h603v-176l-156 -30v-420h594v420l-156 30v176h156h291h156v-176l-156 -30v-1045l156 -30v-175h-603v175l156 30v400h-594v-400l156 -30v-175h-603z" />
<glyph unicode="I" horiz-adv-x="713" d="M55 0v175l156 30v1045l-156 30v176h603v-176l-156 -30v-1045l156 -30v-175h-603z" />
<glyph unicode="J" horiz-adv-x="1192" d="M35 417l2 6h284q0 -115 55 -167.5t148 -52.5q81 0 137.5 62.5t56.5 171.5v813l-156 30v176h447h156v-176l-156 -30v-813q0 -211 -137.5 -334.5t-347.5 -123.5q-228 0 -361 111q-128 107 -128 311v16z" />
<glyph unicode="K" horiz-adv-x="1464" d="M56 0v175l155 30v1045l-155 30v176h595v-176l-148 -30v-389h127l280 407l-86 12v176h577v-176l-158 -27l-358 -478l402 -575l146 -25v-175h-577v175l90 12l-280 421h-163v-403l148 -30v-175h-595z" />
<glyph unicode="L" horiz-adv-x="1200" d="M56 0v175l155 30v1045l-155 30v176h155h292h156v-176l-156 -30v-1026h411l14 183h223v-407h-1095z" />
<glyph unicode="M" horiz-adv-x="1929" d="M56 0v175l155 30v1045l-155 30v176h155h381l371 -1073h6l374 1073h538v-176l-156 -30v-1045l156 -30v-175h-603v175l155 30v229l28 643l-6 1l-390 -1078h-196l-388 1074l-6 -1l28 -639v-229l156 -30v-175h-603z" />
<glyph unicode="N" horiz-adv-x="1582" d="M56 0v175l155 30v1045l-155 30v176h155h292l588 -980l6 1v773l-156 30v176h447h156v-176l-156 -30v-1250h-291l-588 980l-6 -1v-774l156 -30v-175h-603z" />
<glyph unicode="O" horiz-adv-x="1448" d="M67 717v22q0 318 181 528t476 210q296 0 479.5 -210t183.5 -528v-22q0 -320 -183 -529t-479 -209q-295 0 -476.5 209t-181.5 529zM359 717q0 -230 91.5 -370.5t274.5 -140.5q185 0 278 140.5t93 370.5v24q0 226 -94 367t-278 141t-274.5 -140t-90.5 -368v-24z" />
<glyph unicode="P" horiz-adv-x="1325" d="M56 0v175l155 30v1045l-155 30v176h155h538q250 0 394.5 -128.5t144.5 -336.5q0 -209 -144.5 -336t-394.5 -127h-246v-323l156 -30v-175h-603zM503 753h246q122 0 184.5 66.5t62.5 169.5q0 105 -62.5 173.5t-184.5 68.5h-246v-478z" />
<glyph unicode="Q" horiz-adv-x="1449" d="M67 717v22q0 318 181 528t476 210q296 0 479.5 -210t183.5 -528v-22q0 -190 -68.5 -347t-191.5 -256l310 -193l-206 -159l-349 235q-39 -8 -78.5 -13t-78.5 -5q-295 0 -476.5 209t-181.5 529zM359 717q0 -230 91.5 -370.5t274.5 -140.5q185 0 278 140.5t93 370.5v24 q0 226 -94 367t-278 141t-274.5 -140t-90.5 -368v-24z" />
<glyph unicode="R" horiz-adv-x="1408" d="M56 0v175l155 30v1045l-155 30v176h155h499q248 0 389 -113.5t141 -313.5q0 -110 -59 -191t-173 -131q129 -38 185.5 -126.5t56.5 -219.5v-74q0 -48 19 -74.5t63 -31.5l36 -5v-176h-151q-143 0 -201 77t-58 199v83q0 106 -56.5 166.5t-159.5 63.5h-239v-384l156 -30v-175 h-603zM503 814h202q122 0 183 52t61 150t-60.5 156.5t-178.5 58.5h-207v-417z" />
<glyph unicode="S" horiz-adv-x="1242" d="M97 1071q0 177 150 289.5t377 115.5q168 0 306 -51t232 -136v-298h-219l-38 200q-38 24 -111 42t-155 18q-120 0 -185.5 -50.5t-65.5 -130.5q0 -74 68.5 -121.5t236.5 -100.5q241 -67 365.5 -177t124.5 -289q0 -187 -148 -295t-390 -108q-173 0 -312.5 55t-232.5 152v304 h226l31 -207q44 -36 119.5 -59.5t168.5 -23.5q120 0 182.5 49t62.5 131q0 84 -59.5 135t-208.5 96q-259 75 -392 178t-133 282z" />
<glyph unicode="T" horiz-adv-x="1377" d="M40 1068v388h1298v-388h-224l-12 163h-268v-1026l156 -30v-175h-604v175l156 30v1026h-267l-12 -163h-223z" />
<glyph unicode="U" horiz-adv-x="1547" d="M39 1280v176h155h292h156v-176l-156 -30v-760q0 -144 77.5 -215.5t212.5 -71.5q137 0 215 71t78 216v760l-155 30v176h603v-176l-156 -30v-760q0 -245 -161.5 -378t-423.5 -133q-261 0 -421.5 133t-160.5 378v760z" />
<glyph unicode="V" horiz-adv-x="1468" d="M34 1280v176h532v-176l-111 -20l258 -873l18 -80h6l17 78l259 875l-110 20v176h532v-176l-122 -16l-429 -1264h-300l-430 1264z" />
<glyph unicode="W" horiz-adv-x="1972" d="M29 1280v176h536v-176l-133 -23l167 -798l6 -1l273 998h215l275 -998l6 1l166 798l-133 23v176h535v-176l-120 -15l-295 -1265h-271l-267 961h-6l-267 -961h-271l-297 1265z" />
<glyph unicode="X" horiz-adv-x="1438" d="M33 0v175l123 24l385 535l-375 521l-122 25v176h559v-176l-119 -13l225 -357l226 357l-117 13v176h561v-176l-122 -25l-375 -521l393 -534l129 -25v-175h-573v175l116 12l-234 368l-235 -368l117 -12v-175h-562z" />
<glyph unicode="Y" horiz-adv-x="1398" d="M36 1280v176h551v-176l-119 -17l226 -478h6l226 478l-118 17v176h551v-176l-124 -20l-396 -748v-307l156 -30v-175h-603v175l156 30v322l-389 733z" />
<glyph unicode="Z" horiz-adv-x="1226" d="M74 0v152l710 1079h-463l-23 -176h-223l22 401h1046v-146l-713 -1086h507l24 176h222l-22 -400h-1087z" />
<glyph unicode="[" horiz-adv-x="578" d="M139 -336v2027h433v-216h-141v-1595h141v-216h-433z" />
<glyph unicode="\" horiz-adv-x="854" d="M12 1456h288l608 -1581h-288z" />
<glyph unicode="]" horiz-adv-x="569" d="M11 -120h143v1595h-143v216h434v-2027h-434v216z" />
<glyph unicode="^" horiz-adv-x="884" d="M45 729l299 727h212l299 -727h-231l-165 413l-8 34h-6l-7 -34l-162 -413h-231z" />
<glyph unicode="_" horiz-adv-x="1094" d="M92 0h910v-186h-910v186z" />
<glyph unicode="`" horiz-adv-x="622" d="M64 1472l2 6h310l196 -266h-236z" />
<glyph unicode="a" horiz-adv-x="1125" d="M74 301q0 152 122 235t358 83h149v106q0 78 -45 121t-133 43q-50 0 -89 -11.5t-63 -27.5l-19 -116h-220l1 240q80 54 183.5 91t225.5 37q201 0 326.5 -98.5t125.5 -280.5v-447q0 -25 0.5 -47t3.5 -42l89 -12v-175h-337q-12 27 -21 55.5t-14 57.5q-52 -60 -126.5 -97 t-170.5 -37q-159 0 -252.5 86.5t-93.5 235.5zM365 312q0 -55 35.5 -86t98.5 -31q66 0 120 28.5t84 71.5v165h-149q-93 0 -141 -43.5t-48 -104.5z" />
<glyph unicode="b" horiz-adv-x="1181" d="M-22 1384v176h446v-593q47 65 112.5 100t150.5 35q206 0 314 -155.5t108 -414.5v-21q0 -242 -108 -387t-312 -145q-95 0 -165 39.5t-118 114.5l-21 -133h-252v1354zM424 308q27 -50 74.5 -76t116.5 -26q113 0 158 79.5t45 225.5v21q0 158 -46.5 250.5t-158.5 92.5 q-68 0 -115 -28.5t-74 -81.5v-457z" />
<glyph unicode="c" horiz-adv-x="1079" d="M67 525v30q0 239 134.5 393t383.5 154q131 0 235 -39t173 -110l4 -289h-237l-48 169q-22 19 -54 31.5t-73 12.5q-124 0 -175 -90t-51 -232v-30q0 -145 47 -233.5t165 -88.5q78 0 125 45.5t47 121.5h264l3 -6v-10q0 -156 -123 -264q-127 -110 -316 -111q-242 0 -373 153 t-131 393z" />
<glyph unicode="d" horiz-adv-x="1212" d="M67 511v21q0 256 111 413t312 157q81 0 146 -35.5t114 -100.5v388l-156 30v176h156h292v-1355l140 -30v-175h-393l-22 132q-51 -75 -120.5 -114t-158.5 -39q-200 0 -310.5 146t-110.5 386zM359 511q0 -142 47.5 -223.5t155.5 -81.5q64 0 111 26t77 75v459 q-30 52 -76.5 80.5t-109.5 28.5q-107 0 -156 -95t-49 -248v-21z" />
<glyph unicode="e" horiz-adv-x="1091" d="M67 510v40q1 241 133 397q132 155 352 155h3q219 0 340 -132t121 -357v-159h-646l-2 -6q8 -107 71.5 -176t172.5 -69q97 0 161 19.5t140 61.5l79 -180q-67 -53 -173.5 -89t-237.5 -36q-234 0 -374 150t-140 381zM369 652l3 -5h358v26q0 93 -43.5 148.5t-131.5 55.5 q-81 0 -128 -62t-58 -163z" />
<glyph unicode="f" horiz-adv-x="762" d="M59 877v205h161v120q0 182 105 280.5t295 98.5q37 0 75.5 -5.5t84.5 -15.5l-25 -217q-24 4 -46.5 7t-52.5 3q-71 0 -107.5 -39t-36.5 -112v-120h215v-205h-215v-672l141 -30v-175h-574v175l141 30v672h-161z" />
<glyph unicode="g" horiz-adv-x="1170" d="M81 511v21q0 256 111.5 413t312.5 157q91 0 160 -40.5t118 -115.5l21 136h254v-1050q0 -214 -134.5 -341.5t-369.5 -127.5q-82 0 -174 22.5t-170 61.5l54 205q70 -30 140 -47.5t148 -17.5q107 0 160 65t53 181v71q-48 -61 -113 -93t-149 -32q-199 0 -310.5 146.5 t-111.5 385.5zM373 511q0 -142 48 -223.5t156 -81.5q67 0 113.5 24.5t74.5 71.5v470q-28 49 -74.5 76t-111.5 27q-107 0 -156.5 -95t-49.5 -248v-21z" />
<glyph unicode="h" horiz-adv-x="1302" d="M32 1384v176h447v-616q51 75 125 116.5t164 41.5q170 0 266.5 -112.5t96.5 -347.5v-437l140 -30v-175h-558v175l126 30v439q0 126 -44.5 178.5t-132.5 52.5q-61 0 -106.5 -22t-76.5 -62v-586l126 -30v-175h-558v175l141 30v1149z" />
<glyph unicode="i" horiz-adv-x="660" d="M39 906v176h448v-877l140 -30v-175h-573v175l141 30v671zM195 1341v219h292v-219h-292z" />
<glyph unicode="j" horiz-adv-x="599" d="M-33 -420l14 223q22 -6 45 -9t50 -3q59 0 91.5 41.5t32.5 127.5v916l-156 30v176h448v-1122q0 -190 -101 -293.5t-280 -103.5q-41 0 -74.5 4t-69.5 13zM194 1343v217h292v-217h-292z" />
<glyph unicode="k" horiz-adv-x="1249" d="M32 1384v176h447v-904h65l168 237l-95 13v176h532v-176l-128 -29l-195 -268l273 -411l111 -23v-175h-500v175l60 10l-166 268h-125v-248l126 -30v-175h-558v175l141 30v1149z" />
<glyph unicode="l" horiz-adv-x="653" d="M32 1384v176h448v-1355l141 -30v-175h-574v175l141 30v1149z" />
<glyph unicode="m" horiz-adv-x="1905" d="M29 906v176h427l12 -143q52 78 130.5 120.5t181.5 42.5q104 0 178 -46t112 -139q50 87 130 136t188 49q160 0 252.5 -110.5t92.5 -336.5v-450l141 -30v-175h-559v175l126 30v451q0 123 -40 171t-119 48q-62 0 -107.5 -27.5t-72.5 -76.5q0 -19 1 -32.5t1 -27.5v-506 l118 -30v-175h-527v175l118 30v451q0 120 -40 169.5t-120 49.5q-59 0 -103.5 -22.5t-73.5 -63.5v-584l126 -30v-175h-558v175l141 30v671z" />
<glyph unicode="n" horiz-adv-x="1300" d="M32 906v176h427l13 -155q54 83 133 129t177 46q164 0 256 -103t92 -323v-471l140 -30v-175h-558v175l125 30v470q0 109 -44 154.5t-133 45.5q-58 0 -104 -23.5t-77 -66.5v-580l118 -30v-175h-550v175l140 30v671z" />
<glyph unicode="o" horiz-adv-x="1148" d="M63 530v21q0 242 135.5 396.5t374.5 154.5q240 0 375.5 -154t135.5 -397v-21q0 -244 -135.5 -397.5t-373.5 -153.5q-241 0 -376.5 153.5t-135.5 397.5zM355 530q0 -148 52 -237.5t168 -89.5q113 0 165.5 90t52.5 237v21q0 144 -53 235t-167 91t-166 -91t-52 -235v-21z " />
<glyph unicode="p" horiz-adv-x="1240" d="M41 906v176h424l14 -126q48 70 115 108t156 38q201 0 312 -157t111 -413v-21q0 -240 -111 -386t-310 -146q-85 0 -151 31.5t-113 92.5v-313l141 -30v-176h-573v176l141 30v1086zM488 297q27 -46 73.5 -70t114.5 -24q106 0 155.5 83t49.5 225v21q0 153 -51 248t-156 95 q-66 0 -112.5 -27t-73.5 -77v-474z" />
<glyph unicode="q" horiz-adv-x="1154" d="M67 511v21q0 256 111 413t312 157q88 0 156 -39t117 -111l23 130h253v-1292l141 -30v-176h-574v176l141 30v310q-48 -60 -112.5 -90.5t-146.5 -30.5q-200 0 -310.5 146t-110.5 386zM359 511q0 -143 47.5 -225.5t155.5 -82.5q64 0 110 23.5t75 69.5v481q-29 48 -74.5 74 t-108.5 26q-107 0 -156 -95.5t-49 -249.5v-21z" />
<glyph unicode="r" horiz-adv-x="862" d="M70 906v176h427l13 -158q38 84 98 131t139 47q23 0 48.5 -3.5t42.5 -8.5l-31 -266l-120 3q-64 0 -106 -25t-64 -71v-526l140 -30v-175h-572v175l140 30v671z" />
<glyph unicode="s" horiz-adv-x="1054" d="M97 767q0 136 112 234.5t319 98.5q126 0 238.5 -34t176.5 -87l3 -269h-196l-31 135q-30 24 -75.5 40t-100.5 16q-77 0 -122 -34.5t-45 -86.5q0 -49 43 -81.5t172 -57.5q201 -40 298 -117.5t97 -213.5q0 -146 -125.5 -238.5t-330.5 -92.5q-125 0 -229.5 36.5t-185.5 104.5 l-3 243h204l40 -141q26 -22 71 -32.5t94 -10.5q89 0 135.5 32t46.5 87q0 48 -47 83t-173 62q-191 39 -288.5 115.5t-97.5 208.5z" />
<glyph unicode="t" horiz-adv-x="764" d="M44 877v205h159v265h291v-265h190v-205h-190v-551q0 -63 26 -90t70 -27q30 0 52.5 2.5t50.5 8.5l25 -211q-49 -15 -97 -22.5t-104 -7.5q-151 0 -232.5 83t-81.5 263v552h-159z" />
<glyph unicode="u" horiz-adv-x="1278" d="M33 906v176h119h292v-655q0 -118 39.5 -169.5t117.5 -51.5q69 0 119.5 22.5t82.5 64.5v583l-128 30v176h128h292v-877l131 -30v-175h-387l-19 137q-52 -76 -128.5 -117t-174.5 -41q-171 0 -268 109.5t-97 340.5v447z" />
<glyph unicode="v" horiz-adv-x="1167" d="M31 906v176h491v-176l-102 -19l143 -484l19 -102h6l21 102l141 483l-104 20v176h491v-176l-94 -15l-319 -891h-279l-320 891z" />
<glyph unicode="w" horiz-adv-x="1642" d="M39 906v176h490v-176l-115 -22l102 -495h6l202 693h196l204 -695h6l101 496l-116 23v176h490v-176l-109 -14l-226 -892h-244l-201 644h-6l-201 -644h-243l-227 892z" />
<glyph unicode="x" horiz-adv-x="1191" d="M32 0v175l101 16l294 356l-284 342l-101 17v176h487v-169l-99 -12l164 -208l161 208l-101 12v169h489v-176l-98 -17l-278 -342l293 -356l102 -16v-175h-495v168l99 12l-168 218l-171 -219l87 -11v-168h-482z" />
<glyph unicode="y" horiz-adv-x="1212" d="M26 906v176h530v-176l-121 -20l148 -432l15 -78l6 -1l171 511l-122 20v176h530v-176l-101 -15l-398 -1053q-47 -117 -125.5 -196t-236.5 -79q-37 0 -69.5 6t-76.5 17l34 213q14 -2 29 -4t26 -2q73 0 112 35.5t60 88.5l33 82l-343 891z" />
<glyph unicode="z" horiz-adv-x="1070" d="M88 0v172l515 684h-265l-11 -143h-224v369h866v-167l-519 -691h302l12 144h223v-368h-899z" />
<glyph unicode="{" horiz-adv-x="654" d="M39 518v201q91 0 134.5 54.5t43.5 155.5v203q0 171 82.5 290.5t277.5 174.5l56 -157q-86 -31 -120.5 -110.5t-34.5 -197.5v-203q0 -104 -45 -184.5t-135 -125.5q90 -47 135 -127.5t45 -182.5v-203q0 -118 34.5 -197.5t120.5 -110.5l-56 -158q-195 55 -277.5 175 t-82.5 291v203q0 99 -43.5 154t-134.5 55z" />
<glyph unicode="|" horiz-adv-x="428" d="M132 -270v1726h175v-1726h-175z" />
<glyph unicode="}" horiz-adv-x="651" d="M11 -202q84 31 119 110.5t35 197.5v203q0 104 46 184t140 125q-94 45 -140 125.5t-46 185.5v203q0 118 -35 197.5t-119 110.5l56 157q194 -55 277 -174.5t83 -290.5v-203q0 -101 43 -155.5t134 -54.5v-201q-91 0 -134 -55t-43 -154v-203q0 -171 -83 -291t-277 -175z" />
<glyph unicode="~" horiz-adv-x="1323" d="M100 448q0 162 86.5 269.5t223.5 107.5q83 0 158.5 -33.5t150.5 -99.5q49 -45 87 -64.5t81 -19.5q51 0 88 52t37 125l202 -27q0 -161 -88.5 -270.5t-223.5 -109.5q-85 0 -157 31.5t-150 101.5q-50 44 -88 64t-82 20q-52 0 -88 -51t-36 -122z" />
<glyph unicode="&#xa2;" horiz-adv-x="1092" d="M80 525v30q0 203 100 348.5t287 185.5v229h200v-219q107 -10 193 -47.5t146 -98.5l4 -289h-237l-48 169q-22 19 -54 31.5t-73 12.5q-124 0 -175 -90t-51 -232v-30q0 -145 47 -233.5t165 -88.5q78 0 125 45.5t47 121.5h265l3 -6q3 -144 -98 -249.5t-259 -128.5v-231h-200 v235q-188 36 -287.5 181.5t-99.5 353.5z" />
<glyph unicode="&#xa3;" horiz-adv-x="1177" d="M57 588v225h155l-8 214q0 210 120.5 330t322.5 120q215 0 333.5 -111.5t114.5 -294.5l-2 -6h-285q0 96 -46 141.5t-116 45.5q-71 0 -111 -59t-40 -166l10 -214h356v-225h-346l4 -85q0 -78 -30 -150t-86 -129h479l12 144h223v-368h-997v224h10q47 12 70.5 94.5t23.5 171.5 l-4 98h-163z" />
<glyph unicode="&#xa5;" horiz-adv-x="1401" d="M41 1280v176h536v-176l-68 -13l193 -418h6l193 418l-68 13v176h536v-176l-166 -22l-276 -516h244v-165h-324v-125h324v-164h-324v-83l140 -30v-175h-587v175l155 30v83h-339v164h339v125h-339v165h267l-276 516z" />
<glyph unicode="&#xa8;" horiz-adv-x="1031" d="M144 1252v204h267v-204h-267zM644 1252v204h267v-204h-267z" />
<glyph unicode="&#xa9;" horiz-adv-x="1566" d="M74 729q0 315 207 531t503 216q295 0 502.5 -216t207.5 -531q0 -316 -208 -533t-502 -217q-296 0 -503 217t-207 533zM196 729q0 -264 171.5 -444.5t416.5 -180.5q244 0 415.5 180.5t171.5 444.5q0 263 -171.5 442.5t-415.5 179.5q-246 0 -417 -179.5t-171 -442.5z M421 669v119q0 173 94.5 280t254.5 107q157 0 245.5 -79.5t84.5 -228.5l-2 -6h-148q0 94 -45 136.5t-135 42.5q-94 0 -144 -69t-50 -182v-120q0 -115 50 -183.5t144 -68.5q90 0 134.5 41.5t44.5 137.5h148l2 -6q4 -151 -84 -229.5t-245 -78.5q-160 0 -254.5 106t-94.5 281z " />
<glyph unicode="&#xab;" horiz-adv-x="953" d="M4 116zM4 506v19l280 390h187l-240 -400l240 -399h-187zM399 506v19l280 390h187l-240 -400l240 -399h-187z" />
<glyph unicode="&#xad;" d="M131 510v225h564v-225h-564z" />
<glyph unicode="&#xae;" horiz-adv-x="1566" d="M74 729q0 315 207 531t503 216q295 0 502.5 -216t207.5 -531q0 -316 -208 -533t-502 -217q-296 0 -503 217t-207 533zM196 729q0 -264 171.5 -444.5t416.5 -180.5q244 0 415.5 180.5t171.5 444.5q0 263 -171.5 442.5t-415.5 179.5q-246 0 -417 -179.5t-171 -442.5z M489 316v850h281q151 0 238 -68t87 -194q0 -58 -29 -101.5t-85 -74.5q58 -30 84.5 -84.5t26.5 -128.5v-56q0 -41 3.5 -73.5t13.5 -53.5v-16h-155q-9 21 -11 61.5t-2 82.5v54q0 71 -33.5 105t-109.5 34h-158v-337h-151zM640 787h136q71 0 120 30t49 86q0 72 -39 101t-136 29 h-130v-246z" />
<glyph unicode="&#xb4;" horiz-adv-x="644" d="M82 1212l199 266h309l2 -6l-276 -260h-234z" />
<glyph unicode="&#xb8;" horiz-adv-x="500" d="M83 -136l31 142h219l-11 -57q64 -11 107 -52t43 -121q0 -107 -91.5 -171t-259.5 -64l-7 161q51 0 81 20.5t30 62.5q0 41 -32 57.5t-110 21.5z" />
<glyph unicode="&#xbb;" horiz-adv-x="973" d="M64 151l239 399l-239 400h187l280 -390v-19l-280 -390h-187zM64 151zM470 151l239 399l-239 400h187l280 -390v-19l-280 -390h-187z" />
<glyph unicode="&#xd3;" horiz-adv-x="1448" d="M67 0zM67 717v22q0 318 181 528t476 210q296 0 479.5 -210t183.5 -528v-22q0 -320 -183 -529t-479 -209q-295 0 -476.5 209t-181.5 529zM359 717q0 -230 91.5 -370.5t274.5 -140.5q185 0 278 140.5t93 370.5v24q0 226 -94 367t-278 141t-274.5 -140t-90.5 -368v-24z M551 1559l199 266h309l2 -6l-276 -260h-234z" />
<glyph unicode="&#xf3;" horiz-adv-x="1148" d="M63 0zM63 530v21q0 242 135.5 396.5t374.5 154.5q240 0 375.5 -154t135.5 -397v-21q0 -244 -135.5 -397.5t-373.5 -153.5q-241 0 -376.5 153.5t-135.5 397.5zM355 530q0 -148 52 -237.5t168 -89.5q113 0 165.5 90t52.5 237v21q0 144 -53 235t-167 91t-166 -91t-52 -235 v-21zM398 1238l199 266h309l2 -6l-276 -260h-234z" />
<glyph unicode="&#x104;" horiz-adv-x="1471" d="M41 0v175l104 15l443 1266h299l440 -1266l104 -15v-175h-496v175l101 18l-64 200h-472l-64 -200l101 -18v-175h-496zM41 0zM569 608h334l-164 513h-6zM1110 -210q0 77 46 146.5t144 123.5l132 -60q-53 -53 -78 -90t-25 -86q0 -27 16.5 -48.5t68.5 -21.5q28 0 49.5 6 t44.5 14l35 -154q-36 -19 -80 -31.5t-105 -12.5q-109 0 -178.5 56.5t-69.5 157.5z" />
<glyph unicode="&#x105;" horiz-adv-x="1125" d="M74 0zM74 301q0 152 122 235t358 83h149v106q0 78 -45 121t-133 43q-50 0 -89 -11.5t-63 -27.5l-19 -116h-220l1 240q80 54 183.5 91t225.5 37q201 0 326.5 -98.5t125.5 -280.5v-447q0 -25 0.5 -47t3.5 -42l89 -12v-175h-337q-12 27 -21 55.5t-14 57.5 q-52 -60 -126.5 -97t-170.5 -37q-159 0 -252.5 86.5t-93.5 235.5zM365 312q0 -55 35.5 -86t98.5 -31q66 0 120 28.5t84 71.5v165h-149q-93 0 -141 -43.5t-48 -104.5zM767 -210q0 77 46 146.5t144 123.5l132 -60q-53 -53 -78 -90t-25 -86q0 -27 16.5 -48.5t68.5 -21.5 q28 0 49.5 6t44.5 14l35 -154q-36 -19 -80 -31.5t-105 -12.5q-109 0 -178.5 56.5t-69.5 157.5z" />
<glyph unicode="&#x106;" horiz-adv-x="1327" d="M52 0zM52 703v49q0 317 186 521t481 204q169 0 305 -61.5t225 -162.5v-288h-217l-30 194q-43 43 -108.5 68t-154.5 25q-190 0 -292.5 -138t-102.5 -360v-51q0 -222 102 -361t288 -139q86 0 157.5 25t110.5 68l30 194h217v-288q-88 -102 -224.5 -162.5t-305.5 -60.5 q-293 0 -480 203t-187 521zM542 1567l199 266h309l2 -6l-276 -260h-234z" />
<glyph unicode="&#x107;" horiz-adv-x="1079" d="M67 0zM67 525v30q0 239 134.5 393t383.5 154q131 0 235 -39t173 -110l4 -289h-237l-48 169q-22 19 -54 31.5t-73 12.5q-124 0 -175 -90t-51 -232v-30q0 -145 47 -233.5t165 -88.5q78 0 125 45.5t47 121.5h264l3 -6q4 -164 -123 -274.5t-316 -110.5q-242 0 -373 153 t-131 393zM399 1236l199 266h309l2 -6l-276 -260h-234z" />
<glyph unicode="&#x118;" horiz-adv-x="1308" d="M56 0v175l155 30v1045l-155 30v176h155h995v-399h-224l-13 174h-466v-366h493v-225h-493v-416h470l13 174h222v-398h-1152zM56 0zM422 -200q0 77 46 146.5t144 123.5l132 -60q-53 -53 -78 -90t-25 -86q0 -27 16.5 -48.5t68.5 -21.5q28 0 49.5 6t44.5 14l35 -154 q-36 -19 -80 -31.5t-105 -12.5q-109 0 -178.5 56.5t-69.5 157.5z" />
<glyph unicode="&#x119;" horiz-adv-x="1091" d="M67 0zM67 510v40q0 241 132.5 397t355.5 155q219 0 340 -132t121 -357v-159h-646l-2 -6q8 -107 71.5 -176t172.5 -69q97 0 161 19.5t140 61.5l79 -180q-67 -53 -173.5 -89t-237.5 -36q-234 0 -374 150t-140 381zM369 652l3 -5h358v26q0 93 -43.5 148.5t-131.5 55.5 q-81 0 -128 -62t-58 -163zM559 -152q0 77 46 146.5t144 123.5l132 -60q-53 -53 -78 -90t-25 -86q0 -27 16.5 -48.5t68.5 -21.5q28 0 49.5 6t44.5 14l35 -154q-36 -19 -80 -31.5t-105 -12.5q-109 0 -178.5 56.5t-69.5 157.5z" />
<glyph unicode="&#x141;" horiz-adv-x="1192" d="M56 0v175l155 30v406l-138 -39v195l138 39v444l-155 30v176h603v-176l-156 -30v-360l220 64v-195l-220 -64v-471h411l14 183h223v-407h-1095z" />
<glyph unicode="&#x142;" horiz-adv-x="653" d="M25 1384v176h448v-655l146 49v-195l-146 -49v-505l141 -30v-175h-574v175l141 30v409l-127 -42v195l127 42v545z" />
<glyph unicode="&#x143;" horiz-adv-x="1582" d="M56 0v175l155 30v1045l-155 30v176h155h292l588 -980l6 1v773l-156 30v176h447h156v-176l-156 -30v-1250h-291l-588 980l-6 -1v-774l156 -30v-175h-603zM56 0zM610 1560l199 266h309l2 -6l-276 -260h-234z" />
<glyph unicode="&#x144;" horiz-adv-x="1300" d="M32 0zM32 906v176h427l13 -155q54 83 133 129t177 46q164 0 256 -103t92 -323v-471l140 -30v-175h-558v175l125 30v470q0 109 -44 154.5t-133 45.5q-58 0 -104 -23.5t-77 -66.5v-580l118 -30v-175h-550v175l140 30v671zM445 1236l199 266h309l2 -6l-276 -260h-234z" />
<glyph unicode="&#x15a;" horiz-adv-x="1242" d="M97 0zM97 1071q0 177 150 289.5t377 115.5q168 0 306 -51t232 -136v-298h-219l-38 200q-38 24 -111 42t-155 18q-120 0 -185.5 -50.5t-65.5 -130.5q0 -74 68.5 -121.5t236.5 -100.5q241 -67 365.5 -177t124.5 -289q0 -187 -148 -295t-390 -108q-173 0 -312.5 55 t-232.5 152v304h226l31 -207q44 -36 119.5 -59.5t168.5 -23.5q120 0 182.5 49t62.5 131q0 84 -59.5 135t-208.5 96q-259 75 -392 178t-133 282zM457 1559l199 266h309l2 -6l-276 -260h-234z" />
<glyph unicode="&#x15b;" horiz-adv-x="1054" d="M97 0zM97 767q0 136 112 234.5t319 98.5q126 0 238.5 -34t176.5 -87l3 -269h-196l-31 135q-30 24 -75.5 40t-100.5 16q-77 0 -122 -34.5t-45 -86.5q0 -49 43 -81.5t172 -57.5q201 -40 298 -117.5t97 -213.5q0 -146 -125.5 -238.5t-330.5 -92.5q-125 0 -229.5 36.5 t-185.5 104.5l-3 243h204l40 -141q26 -22 71 -32.5t94 -10.5q89 0 135.5 32t46.5 87q0 48 -47 83t-173 62q-191 39 -288.5 115.5t-97.5 208.5zM358 1239l199 266h309l2 -6l-276 -260h-234z" />
<glyph unicode="&#x179;" horiz-adv-x="1226" d="M74 0v152l710 1079h-463l-23 -176h-223l22 401h1046v-146l-713 -1086h507l24 176h222l-22 -400h-1087zM74 0zM438 1561l199 266h309l2 -6l-276 -260h-234z" />
<glyph unicode="&#x17a;" horiz-adv-x="1070" d="M88 0v172l515 684h-265l-11 -143h-224v369h866v-167l-519 -691h302l12 144h223v-368h-899zM88 0zM366 1238l199 266h309l2 -6l-276 -260h-234z" />
<glyph unicode="&#x17b;" horiz-adv-x="1226" d="M74 0v152l710 1079h-463l-23 -176h-223l22 401h1046v-146l-713 -1086h507l24 176h222l-22 -400h-1087zM74 0zM448 1602v241h305v-241h-305z" />
<glyph unicode="&#x17c;" horiz-adv-x="1070" d="M88 0v172l515 684h-265l-11 -143h-224v369h866v-167l-519 -691h302l12 144h223v-368h-899zM88 0zM376 1279v241h305v-241h-305z" />
<glyph unicode="&#x2c6;" horiz-adv-x="890" d="M90 1252v26l282 240h169l287 -243v-23h-217l-155 146l-154 -146h-212z" />
<glyph unicode="&#x2da;" horiz-adv-x="654" d="M114 1298q0 83 61.5 139.5t151.5 56.5q88 0 148.5 -56.5t60.5 -139.5q0 -84 -60.5 -138t-148.5 -54q-91 0 -152 54t-61 138zM229 1298q0 -43 28 -70.5t70 -27.5q41 0 67 27.5t26 70.5q0 44 -26 72t-67 28q-42 0 -70 -28.5t-28 -71.5z" />
<glyph unicode="&#x2dc;" horiz-adv-x="950" d="M108 1272q0 94 59.5 163.5t149.5 69.5q56 0 151.5 -43.5t147.5 -43.5q35 0 60.5 32t25.5 79l155 -45q0 -96 -59.5 -163.5t-150.5 -67.5q-70 0 -158.5 43.5t-140.5 43.5q-36 0 -60.5 -32.5t-24.5 -77.5z" />
<glyph unicode="&#x2000;" horiz-adv-x="921" />
<glyph unicode="&#x2001;" horiz-adv-x="1843" />
<glyph unicode="&#x2002;" horiz-adv-x="921" />
<glyph unicode="&#x2003;" horiz-adv-x="1843" />
<glyph unicode="&#x2004;" horiz-adv-x="614" />
<glyph unicode="&#x2005;" horiz-adv-x="460" />
<glyph unicode="&#x2006;" horiz-adv-x="307" />
<glyph unicode="&#x2007;" horiz-adv-x="307" />
<glyph unicode="&#x2008;" horiz-adv-x="230" />
<glyph unicode="&#x2009;" horiz-adv-x="368" />
<glyph unicode="&#x200a;" horiz-adv-x="102" />
<glyph unicode="&#x2010;" d="M131 510v225h564v-225h-564z" />
<glyph unicode="&#x2011;" d="M131 510v225h564v-225h-564z" />
<glyph unicode="&#x2012;" d="M131 510v225h564v-225h-564z" />
<glyph unicode="&#x2013;" horiz-adv-x="1372" d="M165 601zM165 601v228h1085v-228h-1085z" />
<glyph unicode="&#x2014;" horiz-adv-x="1595" d="M166 601zM167 601v228h1334v-228h-1334z" />
<glyph unicode="&#x2018;" horiz-adv-x="480" d="M96 1009v193q0 99 52.5 209t130.5 181l144 -78q-40 -70 -60.5 -144.5t-20.5 -167.5v-193h-246z" />
<glyph unicode="&#x2019;" horiz-adv-x="471" d="M59 1057q39 69 60 143.5t21 168.5v191h245v-191q0 -100 -53 -210.5t-129 -180.5z" />
<glyph unicode="&#x201a;" horiz-adv-x="510" d="M67 -245q39 70 60 144.5t21 166.5v221h246l-1 -220q0 -99 -53 -209.5t-129 -180.5z" />
<glyph unicode="&#x201c;" horiz-adv-x="833" d="M101 1009v193q0 99 52.5 209t130.5 181l144 -78q-40 -70 -60.5 -144.5t-20.5 -167.5v-193h-246zM101 1009zM438 1009v193q0 99 52.5 209t130.5 181l144 -78q-40 -70 -60.5 -144.5t-20.5 -167.5v-193h-246z" />
<glyph unicode="&#x201d;" horiz-adv-x="840" d="M73 978zM73 1057q39 69 60 143.5t21 168.5v191h245v-191q0 -100 -53 -210.5t-129 -180.5zM413 1057q39 69 60 143.5t21 168.5v191h245v-191q0 -100 -53 -210.5t-129 -180.5z" />
<glyph unicode="&#x201e;" horiz-adv-x="827" d="M67 -245q39 70 60 144.5t21 166.5v221h246l-1 -220q0 -99 -53 -209.5t-129 -180.5zM404 -245q39 70 60 144.5t21 166.5v221h246l-1 -220q0 -99 -53 -209.5t-129 -180.5z" />
<glyph unicode="&#x2022;" horiz-adv-x="703" d="M120 716v90q0 100 64.5 164t172.5 64q110 0 174.5 -63.5t64.5 -164.5v-90q0 -101 -64.5 -163t-173.5 -62t-173.5 62t-64.5 163z" />
<glyph unicode="&#x2026;" horiz-adv-x="1461" d="M137 0v256h291v-256h-291zM137 0zM610 0v256h291v-256h-291zM1075 0v256h291v-256h-291z" />
<glyph unicode="&#x202f;" horiz-adv-x="368" />
<glyph unicode="&#x2039;" horiz-adv-x="570" d="M44 541v19l280 390h187l-240 -400l240 -399h-187z" />
<glyph unicode="&#x203a;" horiz-adv-x="576" d="M71 151l239 399l-239 400h187l280 -390v-19l-280 -390h-187z" />
<glyph unicode="&#x205f;" horiz-adv-x="460" />
<glyph unicode="&#x20ac;" horiz-adv-x="1063" d="M58 485v153h146v150h-146v153h146v13q0 238 150.5 380.5t394.5 142.5q60 0 117.5 -8t125.5 -23l-21 -229q-53 16 -109.5 25.5t-112.5 9.5q-118 0 -185.5 -79t-67.5 -217v-15h428v-153h-428v-150h428v-153h-428v-8q0 -132 67.5 -203t187.5 -71q58 0 113.5 8.5t106.5 25.5 l21 -227q-57 -15 -118 -23t-123 -8q-245 0 -396 135t-151 363v8h-146z" />
<glyph unicode="&#x2122;" horiz-adv-x="1239" d="M76 1351v105h398v-105h-128v-434h-144v434h-126zM545 915v541h159l119 -362h6l120 362h154v-541h-129v282l-6 1l-105 -283h-73l-110 298l-6 -1v-297h-129z" />
<glyph unicode="&#x25fc;" horiz-adv-x="1080" d="M0 0v1080h1080v-1080h-1080z" />
<hkern u1="&#x22;" u2="w" k="-11" />
<hkern u1="&#x27;" u2="w" k="-11" />
<hkern u1="&#x28;" u2="Y" k="-22" />
<hkern u1="&#x28;" u2="W" k="-38" />
<hkern u1="&#x28;" u2="V" k="-20" />
<hkern u1="&#x2f;" u2="&#x2f;" k="338" />
<hkern u1="A" u2="w" k="173" />
<hkern u1="A" u2="t" k="117" />
<hkern u1="A" u2="&#x3f;" k="151" />
<hkern u1="C" u2="&#x7d;" k="17" />
<hkern u1="C" u2="]" k="12" />
<hkern u1="C" u2="&#x29;" k="26" />
<hkern u1="E" u2="w" k="22" />
<hkern u1="F" u2="&#x2026;" k="304" />
<hkern u1="F" u2="&#x201e;" k="304" />
<hkern u1="F" u2="&#x201a;" k="304" />
<hkern u1="F" u2="&#x119;" k="21" />
<hkern u1="F" u2="&#x107;" k="21" />
<hkern u1="F" u2="&#x106;" k="40" />
<hkern u1="F" u2="&#x105;" k="34" />
<hkern u1="F" u2="&#x104;" k="300" />
<hkern u1="F" u2="&#xf3;" k="21" />
<hkern u1="F" u2="&#xd3;" k="40" />
<hkern u1="F" u2="y" k="24" />
<hkern u1="F" u2="v" k="24" />
<hkern u1="F" u2="u" k="22" />
<hkern u1="F" u2="r" k="26" />
<hkern u1="F" u2="q" k="21" />
<hkern u1="F" u2="o" k="21" />
<hkern u1="F" u2="g" k="21" />
<hkern u1="F" u2="e" k="21" />
<hkern u1="F" u2="d" k="21" />
<hkern u1="F" u2="c" k="21" />
<hkern u1="F" u2="a" k="34" />
<hkern u1="F" u2="T" k="-20" />
<hkern u1="F" u2="Q" k="40" />
<hkern u1="F" u2="O" k="40" />
<hkern u1="F" u2="J" k="208" />
<hkern u1="F" u2="G" k="40" />
<hkern u1="F" u2="C" k="40" />
<hkern u1="F" u2="A" k="300" />
<hkern u1="F" u2="&#x2e;" k="304" />
<hkern u1="F" u2="&#x2c;" k="304" />
<hkern u1="K" u2="w" k="63" />
<hkern u1="L" u2="w" k="52" />
<hkern u1="N" u2="&#x104;" k="128" />
<hkern u1="N" u2="A" k="128" />
<hkern u1="P" u2="t" k="-14" />
<hkern u1="Q" u2="Y" k="35" />
<hkern u1="Q" u2="W" k="18" />
<hkern u1="Q" u2="V" k="28" />
<hkern u1="Q" u2="T" k="33" />
<hkern u1="R" u2="Y" k="100" />
<hkern u1="R" u2="V" k="90" />
<hkern u1="R" u2="T" k="50" />
<hkern u1="T" u2="&#xbb;" k="146" />
<hkern u1="T" u2="&#xab;" k="148" />
<hkern u1="T" u2="w" k="47" />
<hkern u1="T" u2="r" k="65" />
<hkern u1="V" u2="&#x7d;" k="-19" />
<hkern u1="V" u2="r" k="30" />
<hkern u1="V" u2="]" k="-17" />
<hkern u1="V" u2="&#x29;" k="-20" />
<hkern u1="W" u2="&#x7d;" k="-14" />
<hkern u1="W" u2="r" k="21" />
<hkern u1="W" u2="]" k="-12" />
<hkern u1="W" u2="&#x29;" k="-35" />
<hkern u1="Y" u2="&#x2022;" k="45" />
<hkern u1="Y" u2="&#xbb;" k="51" />
<hkern u1="Y" u2="&#xab;" k="82" />
<hkern u1="Y" u2="&#x7d;" k="-19" />
<hkern u1="Y" u2="t" k="22" />
<hkern u1="Y" u2="r" k="40" />
<hkern u1="Y" u2="f" k="82" />
<hkern u1="Y" u2="]" k="-18" />
<hkern u1="Y" u2="&#x2a;" k="49" />
<hkern u1="Y" u2="&#x29;" k="-20" />
<hkern u1="Y" u2="&#x26;" k="30" />
<hkern u1="Z" u2="w" k="27" />
<hkern u1="[" u2="U" k="18" />
<hkern u1="[" u2="J" k="18" />
<hkern u1="a" u2="t" k="80" />
<hkern u1="a" u2="b" k="32" />
<hkern u1="d" u2="t" k="64" />
<hkern u1="f" u2="&#x119;" k="24" />
<hkern u1="f" u2="&#x107;" k="24" />
<hkern u1="f" u2="&#x7d;" k="-19" />
<hkern u1="f" u2="q" k="24" />
<hkern u1="f" u2="g" k="24" />
<hkern u1="f" u2="e" k="24" />
<hkern u1="f" u2="d" k="24" />
<hkern u1="f" u2="c" k="24" />
<hkern u1="f" u2="]" k="-18" />
<hkern u1="f" u2="&#x29;" k="-50" />
<hkern u1="k" u2="&#x119;" k="20" />
<hkern u1="k" u2="&#x107;" k="20" />
<hkern u1="k" u2="q" k="20" />
<hkern u1="k" u2="g" k="20" />
<hkern u1="k" u2="e" k="20" />
<hkern u1="k" u2="d" k="20" />
<hkern u1="k" u2="c" k="20" />
<hkern u1="l" u2="&#xf3;" k="20" />
<hkern u1="l" u2="o" k="20" />
<hkern u1="r" u2="w" k="-17" />
<hkern u1="r" u2="t" k="-24" />
<hkern u1="r" u2="f" k="-20" />
<hkern u1="t" u2="&#xf3;" k="30" />
<hkern u1="t" u2="o" k="30" />
<hkern u1="v" u2="f" k="-13" />
<hkern u1="w" u2="&#x2026;" k="124" />
<hkern u1="w" u2="&#x201e;" k="124" />
<hkern u1="w" u2="&#x201a;" k="124" />
<hkern u1="w" u2="&#x2e;" k="124" />
<hkern u1="w" u2="&#x2c;" k="124" />
<hkern u1="y" u2="f" k="-13" />
<hkern u1="&#x7b;" u2="U" k="20" />
<hkern u1="&#x7b;" u2="J" k="20" />
<hkern u1="&#x104;" u2="w" k="173" />
<hkern u1="&#x104;" u2="t" k="117" />
<hkern u1="&#x104;" u2="&#x3f;" k="151" />
<hkern u1="&#x105;" u2="t" k="80" />
<hkern u1="&#x105;" u2="b" k="32" />
<hkern u1="&#x106;" u2="&#x7d;" k="17" />
<hkern u1="&#x106;" u2="]" k="12" />
<hkern u1="&#x106;" u2="&#x29;" k="26" />
<hkern u1="&#x118;" u2="w" k="22" />
<hkern u1="&#x179;" u2="w" k="27" />
<hkern u1="&#x17b;" u2="w" k="27" />
<hkern u1="&#x2018;" u2="w" k="-11" />
<hkern u1="&#x2019;" u2="w" k="-11" />
<hkern u1="&#x201c;" u2="w" k="-11" />
<hkern u1="&#x201d;" u2="w" k="-11" />
<hkern g1="B" 	g2="V" 	k="24" />
<hkern g1="B" 	g2="Y" 	k="55" />
<hkern g1="B" 	g2="T" 	k="27" />
<hkern g1="D,O,Oacute" 	g2="V" 	k="22" />
<hkern g1="D,O,Oacute" 	g2="Y" 	k="43" />
<hkern g1="D,O,Oacute" 	g2="T" 	k="27" />
<hkern g1="D,O,Oacute" 	g2="A,Aogonek" 	k="60" />
<hkern g1="D,O,Oacute" 	g2="Z,Zacute,Zdotaccent" 	k="23" />
<hkern g1="D,O,Oacute" 	g2="X" 	k="30" />
<hkern g1="D,O,Oacute" 	g2="comma,period,quotesinglbase,quotedblbase,ellipsis" 	k="122" />
<hkern g1="C,Cacute" 	g2="T" 	k="29" />
<hkern g1="E,Eogonek" 	g2="o,oacute" 	k="19" />
<hkern g1="E,Eogonek" 	g2="v,y" 	k="26" />
<hkern g1="E,Eogonek" 	g2="T" 	k="-20" />
<hkern g1="E,Eogonek" 	g2="u" 	k="17" />
<hkern g1="E,Eogonek" 	g2="c,d,e,g,q,cacute,eogonek" 	k="19" />
<hkern g1="T" 	g2="o,oacute" 	k="79" />
<hkern g1="T" 	g2="v,y" 	k="82" />
<hkern g1="T" 	g2="C,G,O,Q,Oacute,Cacute" 	k="28" />
<hkern g1="T" 	g2="V" 	k="-16" />
<hkern g1="T" 	g2="Y" 	k="-16" />
<hkern g1="T" 	g2="T" 	k="-16" />
<hkern g1="T" 	g2="u" 	k="65" />
<hkern g1="T" 	g2="W" 	k="-15" />
<hkern g1="T" 	g2="A,Aogonek" 	k="180" />
<hkern g1="T" 	g2="comma,period,quotesinglbase,quotedblbase,ellipsis" 	k="258" />
<hkern g1="T" 	g2="c,d,e,g,q,cacute,eogonek" 	k="89" />
<hkern g1="T" 	g2="z,zacute,zdotaccent" 	k="60" />
<hkern g1="T" 	g2="x" 	k="77" />
<hkern g1="T" 	g2="m,n,p,nacute" 	k="89" />
<hkern g1="T" 	g2="s,sacute" 	k="76" />
<hkern g1="T" 	g2="hyphen,endash,emdash" 	k="272" />
<hkern g1="T" 	g2="S,Sacute" 	k="16" />
<hkern g1="T" 	g2="a,aogonek" 	k="83" />
<hkern g1="T" 	g2="J" 	k="196" />
<hkern g1="K" 	g2="o,oacute" 	k="27" />
<hkern g1="K" 	g2="v,y" 	k="40" />
<hkern g1="K" 	g2="C,G,O,Q,Oacute,Cacute" 	k="107" />
<hkern g1="K" 	g2="u" 	k="23" />
<hkern g1="K" 	g2="c,d,e,g,q,cacute,eogonek" 	k="26" />
<hkern g1="K" 	g2="hyphen,endash,emdash" 	k="234" />
<hkern g1="L" 	g2="v,y" 	k="123" />
<hkern g1="L" 	g2="C,G,O,Q,Oacute,Cacute" 	k="25" />
<hkern g1="L" 	g2="V" 	k="264" />
<hkern g1="L" 	g2="U" 	k="74" />
<hkern g1="L" 	g2="Y" 	k="279" />
<hkern g1="L" 	g2="quotedbl,quotesingle,quoteleft,quoteright,quotedblleft,quotedblright" 	k="308" />
<hkern g1="L" 	g2="T" 	k="205" />
<hkern g1="L" 	g2="u" 	k="14" />
<hkern g1="L" 	g2="W" 	k="93" />
<hkern g1="P" 	g2="o,oacute" 	k="13" />
<hkern g1="P" 	g2="v,y" 	k="-15" />
<hkern g1="P" 	g2="A,Aogonek" 	k="236" />
<hkern g1="P" 	g2="Z,Zacute,Zdotaccent" 	k="36" />
<hkern g1="P" 	g2="X" 	k="51" />
<hkern g1="P" 	g2="comma,period,quotesinglbase,quotedblbase,ellipsis" 	k="404" />
<hkern g1="P" 	g2="c,d,e,g,q,cacute,eogonek" 	k="13" />
<hkern g1="P" 	g2="a,aogonek" 	k="11" />
<hkern g1="P" 	g2="J" 	k="184" />
<hkern g1="J,U" 	g2="A,Aogonek" 	k="100" />
<hkern g1="V" 	g2="o,oacute" 	k="46" />
<hkern g1="V" 	g2="v,y" 	k="11" />
<hkern g1="V" 	g2="C,G,O,Q,Oacute,Cacute" 	k="13" />
<hkern g1="V" 	g2="u" 	k="28" />
<hkern g1="V" 	g2="A,Aogonek" 	k="220" />
<hkern g1="V" 	g2="comma,period,quotesinglbase,quotedblbase,ellipsis" 	k="215" />
<hkern g1="V" 	g2="c,d,e,g,q,cacute,eogonek" 	k="44" />
<hkern g1="V" 	g2="hyphen,endash,emdash" 	k="157" />
<hkern g1="V" 	g2="a,aogonek" 	k="46" />
<hkern g1="V" 	g2="J" 	k="213" />
<hkern g1="X" 	g2="o,oacute" 	k="21" />
<hkern g1="X" 	g2="v,y" 	k="31" />
<hkern g1="X" 	g2="C,G,O,Q,Oacute,Cacute" 	k="30" />
<hkern g1="X" 	g2="V" 	k="-14" />
<hkern g1="X" 	g2="u" 	k="21" />
<hkern g1="X" 	g2="c,d,e,g,q,cacute,eogonek" 	k="26" />
<hkern g1="X" 	g2="hyphen,endash,emdash" 	k="196" />
<hkern g1="Y" 	g2="o,oacute" 	k="65" />
<hkern g1="Y" 	g2="v,y" 	k="20" />
<hkern g1="Y" 	g2="C,G,O,Q,Oacute,Cacute" 	k="29" />
<hkern g1="Y" 	g2="V" 	k="-18" />
<hkern g1="Y" 	g2="Y" 	k="-18" />
<hkern g1="Y" 	g2="T" 	k="-17" />
<hkern g1="Y" 	g2="u" 	k="39" />
<hkern g1="Y" 	g2="W" 	k="-17" />
<hkern g1="Y" 	g2="A,Aogonek" 	k="256" />
<hkern g1="Y" 	g2="X" 	k="-13" />
<hkern g1="Y" 	g2="comma,period,quotesinglbase,quotedblbase,ellipsis" 	k="231" />
<hkern g1="Y" 	g2="c,d,e,g,q,cacute,eogonek" 	k="65" />
<hkern g1="Y" 	g2="z,zacute,zdotaccent" 	k="30" />
<hkern g1="Y" 	g2="x" 	k="23" />
<hkern g1="Y" 	g2="m,n,p,nacute" 	k="80" />
<hkern g1="Y" 	g2="s,sacute" 	k="58" />
<hkern g1="Y" 	g2="hyphen,endash,emdash" 	k="212" />
<hkern g1="Y" 	g2="S,Sacute" 	k="16" />
<hkern g1="Y" 	g2="a,aogonek" 	k="63" />
<hkern g1="Y" 	g2="J" 	k="286" />
<hkern g1="W" 	g2="o,oacute" 	k="31" />
<hkern g1="W" 	g2="T" 	k="-14" />
<hkern g1="W" 	g2="u" 	k="19" />
<hkern g1="W" 	g2="A,Aogonek" 	k="171" />
<hkern g1="W" 	g2="comma,period,quotesinglbase,quotedblbase,ellipsis" 	k="143" />
<hkern g1="W" 	g2="c,d,e,g,q,cacute,eogonek" 	k="31" />
<hkern g1="W" 	g2="hyphen,endash,emdash" 	k="100" />
<hkern g1="W" 	g2="a,aogonek" 	k="33" />
<hkern g1="W" 	g2="J" 	k="149" />
<hkern g1="Z,Zacute,Zdotaccent" 	g2="o,oacute" 	k="21" />
<hkern g1="Z,Zacute,Zdotaccent" 	g2="v,y" 	k="27" />
<hkern g1="Z,Zacute,Zdotaccent" 	g2="C,G,O,Q,Oacute,Cacute" 	k="26" />
<hkern g1="Z,Zacute,Zdotaccent" 	g2="u" 	k="19" />
<hkern g1="Z,Zacute,Zdotaccent" 	g2="c,d,e,g,q,cacute,eogonek" 	k="21" />
<hkern g1="a,aogonek" 	g2="v,y" 	k="15" />
<hkern g1="a,aogonek" 	g2="quotedbl,quotesingle,quoteleft,quoteright,quotedblleft,quotedblright" 	k="77" />
<hkern g1="a,aogonek" 	g2="u" 	k="32" />
<hkern g1="c,cacute" 	g2="quotedbl,quotesingle,quoteleft,quoteright,quotedblleft,quotedblright" 	k="71" />
<hkern g1="b,p" 	g2="v,y" 	k="11" />
<hkern g1="b,p" 	g2="quotedbl,quotesingle,quoteleft,quoteright,quotedblleft,quotedblright" 	k="89" />
<hkern g1="b,p" 	g2="z,zacute,zdotaccent" 	k="15" />
<hkern g1="b,p" 	g2="x" 	k="15" />
<hkern g1="b,p" 	g2="h,k,l" 	k="20" />
<hkern g1="e,eogonek" 	g2="v,y" 	k="13" />
<hkern g1="e,eogonek" 	g2="quotedbl,quotesingle,quoteleft,quoteright,quotedblleft,quotedblright" 	k="74" />
<hkern g1="h,m,n,nacute" 	g2="o,oacute" 	k="10" />
<hkern g1="h,m,n,nacute" 	g2="quotedbl,quotesingle,quoteleft,quoteright,quotedblleft,quotedblright" 	k="166" />
<hkern g1="h,m,n,nacute" 	g2="c,d,e,g,q,cacute,eogonek" 	k="10" />
<hkern g1="o,oacute" 	g2="v,y" 	k="15" />
<hkern g1="o,oacute" 	g2="quotedbl,quotesingle,quoteleft,quoteright,quotedblleft,quotedblright" 	k="120" />
<hkern g1="o,oacute" 	g2="z,zacute,zdotaccent" 	k="16" />
<hkern g1="o,oacute" 	g2="x" 	k="21" />
<hkern g1="o,oacute" 	g2="h,k,l" 	k="20" />
<hkern g1="v,y" 	g2="o,oacute" 	k="15" />
<hkern g1="v,y" 	g2="quotedbl,quotesingle,quoteleft,quoteright,quotedblleft,quotedblright" 	k="-5" />
<hkern g1="v,y" 	g2="comma,period,quotesinglbase,quotedblbase,ellipsis" 	k="167" />
<hkern g1="v,y" 	g2="c,d,e,g,q,cacute,eogonek" 	k="13" />
<hkern g1="v,y" 	g2="a,aogonek" 	k="15" />
<hkern g1="r" 	g2="o,oacute" 	k="20" />
<hkern g1="r" 	g2="v,y" 	k="-18" />
<hkern g1="r" 	g2="quotedbl,quotesingle,quoteleft,quoteright,quotedblleft,quotedblright" 	k="-6" />
<hkern g1="r" 	g2="comma,period,quotesinglbase,quotedblbase,ellipsis" 	k="173" />
<hkern g1="r" 	g2="c,d,e,g,q,cacute,eogonek" 	k="19" />
<hkern g1="r" 	g2="a,aogonek" 	k="20" />
<hkern g1="r" 	g2="h,k,l" 	k="50" />
<hkern g1="u" 	g2="v,y" 	k="56" />
<hkern g1="x" 	g2="o,oacute" 	k="40" />
<hkern g1="x" 	g2="c,d,e,g,q,cacute,eogonek" 	k="20" />
<hkern g1="z,zacute,zdotaccent" 	g2="o,oacute" 	k="16" />
<hkern g1="z,zacute,zdotaccent" 	g2="c,d,e,g,q,cacute,eogonek" 	k="16" />
<hkern g1="quotedbl,quotesingle,quoteleft,quoteright,quotedblleft,quotedblright" 	g2="o,oacute" 	k="161" />
<hkern g1="quotedbl,quotesingle,quoteleft,quoteright,quotedblleft,quotedblright" 	g2="quotedbl,quotesingle,quoteleft,quoteright,quotedblleft,quotedblright" 	k="97" />
<hkern g1="quotedbl,quotesingle,quoteleft,quoteright,quotedblleft,quotedblright" 	g2="A,Aogonek" 	k="120" />
<hkern g1="quotedbl,quotesingle,quoteleft,quoteright,quotedblleft,quotedblright" 	g2="c,d,e,g,q,cacute,eogonek" 	k="59" />
<hkern g1="quotedbl,quotesingle,quoteleft,quoteright,quotedblleft,quotedblright" 	g2="m,n,p,nacute" 	k="20" />
<hkern g1="quotedbl,quotesingle,quoteleft,quoteright,quotedblleft,quotedblright" 	g2="s,sacute" 	k="92" />
<hkern g1="quotedbl,quotesingle,quoteleft,quoteright,quotedblleft,quotedblright" 	g2="a,aogonek" 	k="50" />
<hkern g1="comma,period,quotesinglbase,quotedblbase,ellipsis" 	g2="quotedbl,quotesingle,quoteleft,quoteright,quotedblleft,quotedblright" 	k="285" />
</font>
</defs></svg> 