<?xml version="1.0" standalone="no"?>
<!DOCTYPE svg PUBLIC "-//W3C//DTD SVG 1.1//EN" "http://www.w3.org/Graphics/SVG/1.1/DTD/svg11.dtd" >
<svg xmlns="http://www.w3.org/2000/svg">
<metadata></metadata>
<defs>
<font id="robotoblack" horiz-adv-x="1186" >
<font-face units-per-em="2048" ascent="1536" descent="-512" />
<missing-glyph horiz-adv-x="510" />
<glyph horiz-adv-x="0" />
<glyph horiz-adv-x="0" />
<glyph unicode="&#xd;" horiz-adv-x="510" />
<glyph horiz-adv-x="0" />
<glyph unicode=" "  horiz-adv-x="510" />
<glyph unicode="&#x09;" horiz-adv-x="510" />
<glyph unicode="&#xa0;" horiz-adv-x="510" />
<glyph unicode="!" horiz-adv-x="565" d="M103 151q0 74 53.5 121.5t133.5 47.5t133.5 -47.5t53.5 -121.5t-53.5 -121.5t-133.5 -47.5t-133.5 47.5t-53.5 121.5zM113 1456h359l-43 -995h-273z" />
<glyph unicode="&#x22;" horiz-adv-x="649" d="M25 969v568h230v-139l-43 -429h-187zM378 969v568h228v-139l-43 -429h-185z" />
<glyph unicode="#" horiz-adv-x="1190" d="M30 410v183h252l44 264h-221v183h251l69 416h198l-68 -416h161l69 416h199l-69 -416h231v-183h-261l-44 -264h229v-183h-259l-67 -410h-199l67 410h-161l-67 -410h-199l67 410h-222zM481 593h161l44 264h-161z" />
<glyph unicode="$" d="M83 467h337q0 -114 50.5 -173.5t143.5 -59.5q68 0 107 40.5t39 111.5q0 79 -39 124t-137 85t-181 81t-143 95t-92 125t-32 172q0 169 114 278.5t304 127.5v211h159v-215q183 -27 287.5 -150.5t104.5 -313.5h-338q0 104 -40 160t-114 56q-66 0 -102.5 -41.5t-36.5 -114.5 q0 -74 42 -117.5t135 -83t175.5 -82t142.5 -96.5t94 -126t34 -173q0 -171 -108.5 -279t-295.5 -126v-201h-159v202q-218 23 -334.5 149.5t-116.5 333.5z" />
<glyph unicode="%" horiz-adv-x="1520" d="M90 1105v71q0 135 88 218t236 83q150 0 237 -82.5t87 -223.5v-72q0 -135 -87 -217t-235 -82q-147 0 -236.5 81.5t-89.5 223.5zM307 1099q0 -52 29 -84.5t80 -32.5q105 0 105 134v60q0 52 -28 85.5t-79 33.5q-49 0 -78 -32.5t-29 -88.5v-75zM323 188l711 1138l157 -79 l-711 -1138zM782 285v72q0 136 88.5 218t235.5 82q149 0 237 -81t88 -226v-70q0 -136 -87 -218t-236 -82q-147 0 -236.5 81.5t-89.5 223.5zM998 280q0 -47 32 -82.5t78 -35.5q97 0 105 92l1 103q0 53 -29 85.5t-79 32.5q-48 0 -77 -30.5t-31 -82.5v-82z" />
<glyph unicode="&#x26;" horiz-adv-x="1380" d="M56 391q0 101 51.5 183t200.5 191l3 2q-59 84 -92.5 160t-33.5 157q0 176 114 284.5t298 108.5q165 0 273 -100.5t108 -249.5q0 -186 -205 -330l-76 -53l224 -257q55 110 55 241h283q0 -295 -136 -473l222 -255h-376l-68 77q-84 -50 -171.5 -74t-197.5 -24 q-216 0 -346 113.5t-130 298.5zM394 414q0 -73 46 -124t114 -51q88 0 168 41l-262 298l-9 -6q-57 -70 -57 -158zM476 1088q0 -70 76 -170l67 42q46 30 67 62t21 81q0 46 -32 80t-79 34q-56 0 -88 -35.5t-32 -93.5z" />
<glyph unicode="'" horiz-adv-x="316" d="M43 961v575h240v-162l-33 -413h-207z" />
<glyph unicode="(" horiz-adv-x="723" d="M120 547v45q0 244 65 454t179.5 356t254.5 204l64 -166q-140 -103 -216.5 -321.5t-77.5 -512.5v-44q0 -301 76.5 -522t217.5 -324l-64 -166q-138 56 -254.5 204.5t-179.5 354.5t-65 438z" />
<glyph unicode=")" horiz-adv-x="721" d="M40 -284q139 104 215 320t79 497v61q0 301 -76.5 522t-217.5 324l64 166q140 -55 260.5 -203.5t190 -357t71.5 -437.5v-44q0 -235 -69 -446t-190.5 -362.5t-262.5 -205.5z" />
<glyph unicode="*" horiz-adv-x="952" d="M26 1046l65 189l319 -131l-25 352h214l-26 -359l310 128l65 -191l-330 -90l219 -265l-173 -118l-183 294l-184 -284l-173 113l228 272z" />
<glyph unicode="+" horiz-adv-x="1094" d="M45 537v289h342v380h315v-380h341v-289h-341v-391h-315v391h-342z" />
<glyph unicode="," horiz-adv-x="552" d="M43 -312l34 68q70 130 73 248v250h270l-1 -217q-1 -115 -59 -234t-147 -195z" />
<glyph unicode="-" horiz-adv-x="921" d="M152 497v261h601v-261h-601z" />
<glyph unicode="." horiz-adv-x="619" d="M117 158q0 73 52.5 121t133.5 48q80 0 133 -47.5t53 -121.5t-53 -121.5t-133 -47.5q-81 0 -133.5 48t-52.5 121z" />
<glyph unicode="/" horiz-adv-x="719" d="M-29 -125l497 1581h240l-498 -1581h-239z" />
<glyph unicode="0" d="M85 595v266q0 295 132.5 455t374.5 160t375 -161t133 -455v-265q0 -295 -132.5 -455t-373.5 -160q-243 0 -376 161t-133 454zM423 554q0 -163 41 -238.5t130 -75.5q86 0 127 73.5t42 230.5v360q0 157 -41 234.5t-130 77.5q-87 0 -126.5 -72t-42.5 -218v-372z" />
<glyph unicode="1" d="M166 979v256l639 221h31v-1456h-338v1076z" />
<glyph unicode="2" d="M59 988q0 134 67 247.5t186 177.5t266 64q236 0 363.5 -109t127.5 -313q0 -86 -32 -167.5t-99.5 -171t-217.5 -239.5l-188 -217h573v-260h-1016v220l468 492q173 197 173 313q0 94 -41 143t-119 49q-77 0 -125 -65.5t-48 -163.5h-338z" />
<glyph unicode="3" d="M47 405h339q0 -67 54 -116t133 -49q89 0 142 49.5t53 126.5q0 110 -55 156t-152 46h-164v251h159q189 0 189 185q0 72 -45 117.5t-127 45.5q-67 0 -116.5 -39t-49.5 -97h-337q0 115 64 205t177.5 140.5t249.5 50.5q243 0 382 -111t139 -305q0 -94 -57.5 -177.5 t-167.5 -135.5q116 -42 182 -127.5t66 -211.5q0 -195 -150 -312t-394 -117q-143 0 -265.5 54.5t-185.5 151t-63 219.5z" />
<glyph unicode="4" d="M59 515l583 938v3h337v-887h148v-260h-148v-309h-337v309h-563zM380 569h262v448l-21 -34z" />
<glyph unicode="5" d="M81 414h338q5 -80 51 -127t121 -47q170 0 170 252q0 233 -208 233q-118 0 -176 -76l-268 63l89 744h851v-262h-577l-33 -289q36 21 94.5 37t114.5 16q217 0 333.5 -128.5t116.5 -360.5q0 -140 -62.5 -253.5t-175.5 -174.5t-267 -61q-137 0 -257 56.5t-188 155t-67 222.5z " />
<glyph unicode="6" d="M83 554v135q0 225 96.5 404.5t275.5 281.5t397 102h51v-265h-15q-189 0 -310.5 -90.5t-149.5 -251.5q114 112 288 112q189 0 301 -138t112 -362q0 -139 -65.5 -255t-183 -181.5t-260.5 -65.5q-155 0 -277 70.5t-190 201.5t-70 302zM420 516q0 -276 191 -276 q77 0 128.5 69t51.5 173q0 107 -52.5 174.5t-139.5 67.5q-67 0 -112 -31t-67 -76v-101z" />
<glyph unicode="7" d="M52 1196v260h1049v-180l-544 -1276h-356l545 1196h-694z" />
<glyph unicode="8" d="M84 401q0 117 60 207t170 142q-93 49 -146 130t-53 187q0 190 129 300t348 110q221 0 350 -110t129 -300q0 -106 -52.5 -187t-144.5 -130q104 -51 165 -139.5t61 -209.5q0 -195 -134.5 -308t-370.5 -113q-237 0 -374 113.5t-137 307.5zM423 428q0 -87 47.5 -137.5 t124.5 -50.5q75 0 121 50t46 138q0 90 -46.5 138.5t-122.5 48.5t-123 -48.5t-47 -138.5zM453 1049q0 -78 36 -126t106 -48q69 0 103.5 48t34.5 126t-35.5 123t-105.5 45q-68 0 -103.5 -44.5t-35.5 -123.5z" />
<glyph unicode="9" d="M79 957q0 140 65 260t182.5 190t259.5 70q144 0 260.5 -72.5t181.5 -205t67 -305.5v-129q0 -241 -94.5 -418t-269.5 -272t-408 -95h-21v270l64 1q348 17 387 312q-109 -98 -244 -98q-198 0 -314 134t-116 358zM417 957q0 -114 49 -181.5t134 -67.5q110 0 158 95v140 q0 140 -47 207t-127 67q-71 0 -119 -76t-48 -184z" />
<glyph unicode=":" horiz-adv-x="615" d="M118 158q0 73 52.5 121t133.5 48q80 0 133 -47.5t53 -121.5t-53 -121.5t-133 -47.5q-81 0 -133.5 48t-52.5 121zM118 956q0 73 52.5 121t133.5 48q80 0 133 -47.5t53 -121.5t-53 -121.5t-133 -47.5q-81 0 -133.5 48t-52.5 121z" />
<glyph unicode=";" horiz-adv-x="590" d="M68 -312l34 68q70 130 73 248v250h270l-1 -217q-1 -115 -59 -234t-147 -195zM108 956q0 73 52.5 121t133.5 48q80 0 133 -47.5t53 -121.5t-53 -121.5t-133 -47.5q-81 0 -133.5 48t-52.5 121z" />
<glyph unicode="&#x3c;" horiz-adv-x="1044" d="M46 478v266l884 360v-306l-547 -189l547 -184v-307z" />
<glyph unicode="=" horiz-adv-x="1199" d="M128 283v260h926v-260h-926zM128 722v260h926v-260h-926z" />
<glyph unicode="&#x3e;" horiz-adv-x="1050" d="M111 117v306l544 189l-544 185v306l879 -360v-266z" />
<glyph unicode="?" horiz-adv-x="1043" d="M31 1053q2 200 126 311.5t348 111.5q223 0 345.5 -103t122.5 -293q0 -83 -33 -151t-106 -139l-115 -107q-49 -47 -68 -96.5t-21 -125.5h-286q0 146 33 230.5t107 146.5t112.5 113.5t38.5 113.5q0 151 -130 151q-60 0 -97 -44t-39 -119h-338zM303 157q0 74 53.5 121.5 t133.5 47.5t133.5 -47.5t53.5 -121.5t-53.5 -121.5t-133.5 -47.5t-133.5 47.5t-53.5 121.5z" />
<glyph unicode="@" horiz-adv-x="1834" d="M69 458q12 276 127.5 494.5t316 338t452.5 119.5t435 -104.5t275 -300.5t81 -455q-10 -261 -130 -416t-320 -155q-82 0 -145 35.5t-98 100.5q-98 -132 -263 -132q-96 0 -168 56.5t-105.5 160.5t-20.5 236q30 250 161 402t321 152q147 0 253 -68l63 -42l-51 -587 q-17 -139 96 -139q85 0 142.5 108.5t63.5 277.5q17 334 -138.5 516t-455.5 182q-191 0 -339.5 -97.5t-235 -276t-97.5 -406.5q-16 -350 140 -535.5t468 -185.5q84 0 178 19.5t153 45.5l37 -166q-61 -40 -164.5 -64.5t-207.5 -24.5q-273 0 -461.5 104.5t-280.5 309.5t-82 497 zM756 436q-11 -130 20.5 -196.5t101.5 -66.5q47 0 86.5 42t65.5 120l40 456q-30 8 -62 8q-112 0 -172.5 -87.5t-79.5 -275.5z" />
<glyph unicode="A" horiz-adv-x="1395" d="M-3 0l534 1456h330l538 -1456h-377l-85 272h-481l-84 -272h-375zM540 543h313l-157 505z" />
<glyph unicode="B" horiz-adv-x="1321" d="M110 0v1456h523q281 0 427.5 -103t146.5 -299q0 -113 -52 -193t-153 -118q114 -30 175 -112t61 -200q0 -214 -135.5 -321.5t-401.5 -109.5h-591zM461 270h230q95 0 146 43.5t51 122.5q0 182 -181 183h-246v-349zM461 849h183q115 1 164 42t49 121q0 92 -53 132.5 t-171 40.5h-172v-336z" />
<glyph unicode="C" horiz-adv-x="1344" d="M69 695v72q0 214 74.5 374.5t214.5 248t324 87.5q265 0 426 -139.5t183 -384.5h-350q-4 133 -67 191t-192 58q-131 0 -192 -98t-64 -313v-103q0 -233 58.5 -333t201.5 -100q121 0 185 57t68 181h349q-7 -152 -82 -268.5t-210.5 -180.5t-309.5 -64q-287 0 -452 187 t-165 528z" />
<glyph unicode="D" horiz-adv-x="1324" d="M110 0v1456h469q193 0 347 -87.5t240.5 -247t87.5 -357.5v-67q0 -200 -84.5 -358.5t-238 -248t-342.5 -90.5h-479zM461 270h122q151 0 232 107.5t81 319.5v63q0 211 -81 318t-236 107h-118v-915z" />
<glyph unicode="E" horiz-adv-x="1146" d="M110 0v1456h1005v-271h-654v-307h552v-261h-552v-347h652v-270h-1003z" />
<glyph unicode="F" horiz-adv-x="1120" d="M110 0v1456h974v-271h-623v-335h566v-270h-566v-580h-351z" />
<glyph unicode="G" horiz-adv-x="1396" d="M82 768q0 215 76 375.5t217.5 247t327.5 86.5q272 0 422.5 -124.5t175.5 -371.5h-338q-18 122 -78 174t-170 52q-132 0 -204 -112t-73 -320v-88q0 -218 74.5 -327.5t234.5 -109.5q137 0 204 61v226h-244v241h595v-598q-81 -90 -237 -145t-342 -55q-286 0 -457 175 t-183 487z" />
<glyph unicode="H" horiz-adv-x="1439" d="M110 0v1456h351v-578h517v578h349v-1456h-349v608h-517v-608h-351z" />
<glyph unicode="I" horiz-adv-x="618" d="M134 0v1456h350v-1456h-350z" />
<glyph unicode="J" horiz-adv-x="1151" d="M36 440h352q0 -100 34.5 -145t115.5 -45q73 0 112.5 54.5t39.5 152.5v999h350v-999q0 -139 -64.5 -248t-180 -169t-257.5 -60q-238 0 -370 120t-132 340z" />
<glyph unicode="K" horiz-adv-x="1310" d="M110 0v1456h351v-642l122 185l314 457h434l-492 -644l492 -812h-416l-310 542l-144 -158v-384h-351z" />
<glyph unicode="L" horiz-adv-x="1110" d="M110 0v1456h351v-1186h611v-270h-962z" />
<glyph unicode="M" horiz-adv-x="1795" d="M110 0v1456h461l325 -1013l324 1013h462v-1456h-352v340l34 696l-352 -1036h-232l-353 1037l34 -697v-340h-351z" />
<glyph unicode="N" horiz-adv-x="1438" d="M110 0v1456h351l515 -906v906h350v-1456h-349l-516 906v-906h-351z" />
<glyph unicode="O" horiz-adv-x="1414" d="M69 675v82q0 214 78.5 377.5t225 252.5t333.5 89q185 0 330 -88t225.5 -250.5t81.5 -372.5v-67q0 -213 -79 -377t-224.5 -252.5t-331.5 -88.5t-330 85.5t-224.5 244.5t-84.5 365zM426 698q0 -214 71 -329t211 -115q133 0 205 113t73 325v67q0 217 -72.5 329.5 t-207.5 112.5q-264 0 -279 -396z" />
<glyph unicode="P" horiz-adv-x="1333" d="M110 0v1456h581q167 0 295.5 -61.5t199 -175t70.5 -257.5q0 -213 -152.5 -340.5t-418.5 -127.5h-224v-494h-351zM461 765h230q102 0 155.5 51t53.5 144q0 102 -55 163t-150 62h-234v-420z" />
<glyph unicode="Q" horiz-adv-x="1414" d="M72 680v77q0 215 78.5 378t224 252t333.5 89q185 0 330 -88t225.5 -250.5t81.5 -372.5v-67q0 -202 -67 -352.5t-185 -241.5l235 -186l-217 -184l-313 252q-44 -6 -88 -6q-186 0 -330 86t-224.5 246t-83.5 368zM428 698q0 -215 71 -329.5t211 -114.5q134 0 205.5 113 t72.5 325v67q0 217 -72.5 329.5t-207.5 112.5q-139 0 -209 -111t-71 -325v-67z" />
<glyph unicode="R" horiz-adv-x="1336" d="M110 0v1456h573q259 0 405 -115t146 -325q0 -152 -61.5 -252t-192.5 -162l304 -587v-15h-376l-257 514h-190v-514h-351zM461 785h222q100 0 150.5 52.5t50.5 146.5t-51 147.5t-150 53.5h-222v-400z" />
<glyph unicode="S" horiz-adv-x="1282" d="M64 472h352q0 -117 60.5 -172.5t196.5 -55.5q87 0 137.5 37.5t50.5 105.5q0 77 -54.5 120t-191.5 89t-224 89q-283 139 -283 382q0 121 70.5 213.5t199.5 144t290 51.5q157 0 281.5 -56t193.5 -159.5t69 -236.5h-350q0 89 -54.5 138t-147.5 49q-94 0 -148.5 -41.5 t-54.5 -105.5q0 -56 60 -101.5t211 -94t248 -104.5q236 -136 236 -375q0 -191 -144 -300t-395 -109q-177 0 -320.5 63.5t-216 174t-72.5 254.5z" />
<glyph unicode="T" horiz-adv-x="1291" d="M36 1185v271h1217v-271h-437v-1185h-351v1185h-429z" />
<glyph unicode="U" horiz-adv-x="1361" d="M105 496v960h353v-967q6 -239 222 -239q109 0 165 60t56 195v951h351v-953q0 -162 -69 -280.5t-198 -180.5t-305 -62q-266 0 -419 138t-156 378z" />
<glyph unicode="V" horiz-adv-x="1353" d="M-3 1456h389l289 -1060l290 1060h392l-490 -1456h-384z" />
<glyph unicode="W" horiz-adv-x="1780" d="M21 1456h349l167 -913l200 913h298l203 -913l167 913h348l-309 -1456h-364l-195 830l-191 -830h-363z" />
<glyph unicode="X" horiz-adv-x="1307" d="M4 0l417 734l-406 722h400l238 -484l238 484h401l-407 -722l418 -734h-405l-245 493l-245 -493h-404z" />
<glyph unicode="Y" horiz-adv-x="1286" d="M-3 1456h377l269 -632l268 632h379l-469 -933v-523h-356v523z" />
<glyph unicode="Z" horiz-adv-x="1249" d="M62 1185v271h1131v-180l-689 -1006h696v-270h-1134v185l694 1000h-698z" />
<glyph unicode="[" horiz-adv-x="577" d="M108 -349v2055h456v-246h-118v-1564h118v-245h-456z" />
<glyph unicode="\" horiz-adv-x="873" d="M-20 1456h351l608 -1581h-353z" />
<glyph unicode="]" horiz-adv-x="577" d="M14 -104h119v1564h-119v246h456v-2055h-456v245z" />
<glyph unicode="^" horiz-adv-x="916" d="M36 729l299 727h249l300 -727h-254l-170 453l-171 -453h-253z" />
<glyph unicode="_" horiz-adv-x="904" d="M0 0h903v-251h-903v251z" />
<glyph unicode="`" horiz-adv-x="695" d="M54 1536h356l200 -314h-274z" />
<glyph unicode="a" horiz-adv-x="1087" d="M45 305q0 176 130 266t378 90h104v57q0 149 -129 149q-120 0 -120 -118h-337q0 157 133.5 255t340.5 98t327 -101t123 -277v-479q2 -149 46 -228v-17h-337q-18 33 -32 97q-93 -117 -260 -117q-153 0 -260 92.5t-107 232.5zM383 323q0 -46 31 -74.5t79 -28.5 q63 0 104.5 27t59.5 61v173h-98q-176 0 -176 -158z" />
<glyph unicode="b" horiz-adv-x="1153" d="M97 0v1536h337v-541q94 107 243 107q202 0 312 -145t110 -408v-17q0 -266 -110 -409t-310 -143q-165 0 -266 131l-14 -111h-302zM434 325q43 -86 160 -86q119 0 151 116q16 57 16 198q0 156 -41.5 222.5t-127.5 66.5q-114 0 -158 -87v-430z" />
<glyph unicode="c" horiz-adv-x="1064" d="M52 538v14q0 164 60.5 289.5t174.5 193t270 67.5q211 0 335 -117t124 -317h-316q0 84 -41 129t-110 45q-131 0 -153 -167q-7 -53 -7 -146q0 -163 39 -226t124 -63q71 0 110 38.5t38 107.5h316q0 -178 -127.5 -292t-328.5 -114q-236 0 -372 148t-136 410z" />
<glyph unicode="d" horiz-adv-x="1152" d="M52 549q0 257 111 405t310 148q145 0 244 -114v548h338v-1536h-303l-17 116q-104 -136 -264 -136q-193 0 -306 148t-113 421zM389 528q0 -288 168 -288q112 0 160 94v412q-46 96 -158 96q-156 0 -169 -252z" />
<glyph unicode="e" horiz-adv-x="1115" d="M61 515v28q0 166 61.5 293t179.5 196.5t280 69.5q228 0 360 -141.5t132 -394.5v-131h-670q18 -91 79 -143t158 -52q160 0 250 112l154 -182q-63 -87 -178.5 -138.5t-248.5 -51.5q-249 0 -403 148.5t-154 386.5zM404 646h340v26v7q0 77 -41 119q-43 44 -123 44 q-148 0 -176 -196z" />
<glyph unicode="f" horiz-adv-x="742" d="M12 848v234h157v86q0 185 109 287t306 102q72 0 158 -21l1 -248q-31 9 -83 9q-153 0 -153 -132v-83h211v-234h-211v-848h-338v848h-157z" />
<glyph unicode="g" horiz-adv-x="1178" d="M55 537v12q0 164 54 290t155 194.5t235 68.5q169 0 264 -114l12 94h306v-1041q0 -143 -66.5 -248.5t-192.5 -162t-292 -56.5q-119 0 -230.5 45t-170.5 117l141 198q94 -111 248 -111q224 0 224 230v34q-97 -107 -245 -107q-198 0 -320 151.5t-122 405.5zM393 528 q0 -133 50 -210.5t140 -77.5q109 0 159 73v455q-49 74 -157 74q-90 0 -141 -80.5t-51 -233.5z" />
<glyph unicode="h" horiz-adv-x="1156" d="M87 0v1536h337v-570q108 136 276 136q179 0 270 -106t93 -313v-683h-338v675q0 86 -35 126.5t-119 40.5q-104 0 -147 -66v-776h-337z" />
<glyph unicode="i" horiz-adv-x="563" d="M92 1361q0 72 52 118t135 46t135 -46t52 -118t-52 -118t-135 -46t-135 46t-52 118zM112 0v1082h338v-1082h-338z" />
<glyph unicode="j" horiz-adv-x="553" d="M-116 -165q58 -9 95 -9q140 0 140 139v1117h338v-1119q-1 -192 -110 -296t-304 -104q-84 0 -159 17v255zM94 1361q0 72 52 118t135 46t135 -46t52 -118t-52 -118t-135 -46t-135 46t-52 118z" />
<glyph unicode="k" horiz-adv-x="1120" d="M97 0v1537h337v-816l34 45l254 316h404l-379 -445l404 -637h-386l-236 403l-95 -95v-308h-337z" />
<glyph unicode="l" horiz-adv-x="563" d="M112 0v1536h338v-1536h-338z" />
<glyph unicode="m" horiz-adv-x="1764" d="M97 0v1082h316l11 -127q115 147 309 147q205 0 277 -163q110 163 318 163q329 0 338 -398v-704h-338v683q0 83 -28 121t-102 38q-100 0 -149 -89l1 -14v-739h-338v681q0 85 -27 123t-103 38q-97 0 -148 -89v-753h-337z" />
<glyph unicode="n" horiz-adv-x="1155" d="M88 0v1082h316l11 -127q112 147 309 147q169 0 252.5 -101t86.5 -304v-697h-338v683q0 82 -33 120.5t-120 38.5q-99 0 -147 -78v-764h-337z" />
<glyph unicode="o" horiz-adv-x="1150" d="M52 551q0 162 63 288.5t181 194.5t277 68q243 0 383 -150.5t140 -409.5v-12q0 -253 -140.5 -401.5t-380.5 -148.5q-231 0 -371 138.5t-151 375.5zM389 530q0 -150 47 -220t139 -70q180 0 184 277v34q0 291 -186 291q-169 0 -183 -251z" />
<glyph unicode="p" horiz-adv-x="1153" d="M97 -416v1498h315l10 -100q97 120 255 120q200 0 311 -147.5t111 -405.5v-16q0 -252 -113.5 -402.5t-306.5 -150.5q-149 0 -245 109v-505h-337zM434 330q44 -90 162 -90q161 0 166 278v36q0 288 -168 288q-120 0 -160 -86v-426z" />
<glyph unicode="q" horiz-adv-x="1151" d="M52 552q0 258 112 404t309 146q166 0 266 -136l24 116h292v-1498h-338v506q-97 -110 -246 -110q-192 0 -305.5 148.5t-113.5 423.5zM389 531q0 -291 168 -291q116 0 160 88v428q-42 86 -158 86q-157 0 -169 -251z" />
<glyph unicode="r" horiz-adv-x="776" d="M97 0v1082h316l11 -139q85 159 237 159q54 0 94 -12l-6 -313l-111 8q-159 0 -204 -100v-685h-337z" />
<glyph unicode="s" horiz-adv-x="1049" d="M35 347h315q2 -75 50 -109.5t123 -34.5q69 0 103.5 28t34.5 73q0 43 -45 69t-171 54t-208 73.5t-125 110.5t-43 149q0 149 123 245.5t322 96.5q214 0 344 -97t130 -255h-338q0 130 -137 130q-53 0 -89 -29.5t-36 -73.5q0 -45 44 -73t140.5 -46t169.5 -43 q244 -84 244 -301q0 -148 -131.5 -241t-340.5 -93q-139 0 -248 50t-170 136t-61 181z" />
<glyph unicode="t" horiz-adv-x="703" d="M12 848v234h138v269h337v-269h178v-234h-178v-495q0 -61 22 -85t87 -24q50 0 84 6v-241q-91 -29 -190 -29q-174 0 -257 82t-83 249v537h-138z" />
<glyph unicode="u" horiz-adv-x="1155" d="M89 381v701h337v-703q0 -139 135 -139q116 0 165 83v759h339v-1082h-316l-10 117q-107 -137 -289 -137q-178 0 -269.5 103.5t-91.5 297.5z" />
<glyph unicode="v" horiz-adv-x="1058" d="M2 1082h356l168 -681l171 681h355l-353 -1082h-344z" />
<glyph unicode="w" horiz-adv-x="1487" d="M22 1082h323l107 -653l172 653h235l170 -638l109 638h323l-255 -1082h-285l-179 642l-180 -642h-285z" />
<glyph unicode="x" horiz-adv-x="1054" d="M11 0l300 555l-284 527h354l152 -298l157 298h350l-285 -527l299 -555h-352l-170 320l-167 -320h-354z" />
<glyph unicode="y" horiz-adv-x="1061" d="M-4 1082h360l171 -610l180 610h361l-441 -1263l-19 -46q-94 -210 -332 -210q-66 0 -139 20v241h44q71 0 108.5 20.5t55.5 73.5l27 72z" />
<glyph unicode="z" horiz-adv-x="1054" d="M66 0v188l480 634h-459v260h887v-182l-482 -640h493v-260h-919z" />
<glyph unicode="{" horiz-adv-x="665" d="M40 505v227q162 0 162 203v210q3 180 93.5 291t266.5 161l63 -176q-126 -48 -131 -269v-217q0 -224 -185 -316q185 -92 185 -317v-216q5 -221 131 -269l-63 -177q-360 101 -360 465v198q0 202 -162 202z" />
<glyph unicode="|" horiz-adv-x="523" d="M172 -270v1726h184v-1726h-184z" />
<glyph unicode="}" horiz-adv-x="665" d="M41 -183q126 48 131 269v217q0 225 186 316q-186 91 -186 316v217q-5 221 -131 269l63 176q179 -50 269 -163.5t91 -297.5v-201q0 -203 162 -203v-227q-162 0 -162 -201v-213q-7 -352 -360 -451z" />
<glyph unicode="~" horiz-adv-x="1295" d="M94 409q0 196 89.5 311.5t242.5 115.5q76 0 139 -29.5t137.5 -104t137.5 -74.5q51 0 83.5 49.5t32.5 122.5l241 -1q0 -196 -91.5 -314t-242.5 -118q-75 0 -135.5 29t-137 104.5t-141.5 75.5q-50 0 -83.5 -49t-33.5 -122z" />
<glyph unicode="&#xa2;" horiz-adv-x="1209" d="M98 534v18q0 224 109 369.5t303 173.5v223h200v-225q165 -29 258.5 -141.5t93.5 -283.5h-316q0 84 -41 129t-110 45q-131 0 -153 -167q-7 -53 -7 -146q0 -163 39 -226t124 -63q71 0 110 38.5t38 107.5h316q0 -156 -97 -262.5t-255 -134.5v-234h-200v232 q-193 28 -302.5 171.5t-109.5 375.5z" />
<glyph unicode="&#xa3;" horiz-adv-x="1229" d="M103 561v261h154l-6 217q0 205 122.5 320.5t331.5 115.5q224 0 349.5 -115t125.5 -312h-330q0 157 -136 157q-51 0 -82 -40.5t-31 -125.5l9 -217h307v-261h-296l5 -112q0 -114 -59 -179h608v-270h-1069v270h103q57 15 60 103l1 53l-5 135h-162z" />
<glyph unicode="&#xa5;" horiz-adv-x="1259" d="M16 1456h380l237 -576l236 576h379l-361 -714h203v-190h-287v-100h287v-189h-287v-263h-349v263h-319v189h319v100h-319v190h243z" />
<glyph unicode="&#xa8;" horiz-adv-x="1013" d="M93 1365q0 55 43.5 94t107.5 39q63 0 106.5 -39t43.5 -94t-43.5 -94t-106.5 -39q-64 0 -107.5 39t-43.5 94zM612 1365q0 55 43.5 94t107.5 39q63 0 106.5 -39t43.5 -94t-43.5 -94t-106.5 -39q-64 0 -107.5 39t-43.5 94z" />
<glyph unicode="&#xa9;" horiz-adv-x="1608" d="M85 729q0 202 93.5 375t259 272.5t357.5 99.5t357.5 -99.5t259 -272.5t93.5 -375q0 -204 -95 -377.5t-259.5 -272.5t-355.5 -99q-193 0 -357.5 100t-258.5 273t-94 376zM207 729q0 -165 74.5 -308t211.5 -229.5t302 -86.5q164 0 300.5 86t211.5 229t75 309t-75 308.5 t-212 228t-300 85.5q-159 0 -295.5 -82t-214.5 -226t-78 -314zM432 675v113q0 174 95.5 280.5t253.5 106.5q163 0 249.5 -82.5t86.5 -231.5h-156q0 96 -46 137.5t-134 41.5q-92 0 -142.5 -67.5t-51.5 -180.5v-123q0 -117 51 -184.5t143 -67.5q89 0 134 40.5t45 138.5h156 q0 -152 -87.5 -233t-247.5 -81t-254.5 106.5t-94.5 286.5z" />
<glyph unicode="&#xab;" horiz-adv-x="1054" d="M65 506v19l272 390h206l-232 -400l232 -399h-206zM478 506v19l272 390h206l-232 -400l232 -399h-206z" />
<glyph unicode="&#xad;" horiz-adv-x="921" d="M152 497v261h601v-261h-601z" />
<glyph unicode="&#xae;" horiz-adv-x="1608" d="M85 729q0 202 93.5 375t259 272.5t357.5 99.5t357.5 -99.5t259 -272.5t93.5 -375q0 -204 -95 -377.5t-259.5 -272.5t-355.5 -99q-193 0 -357.5 100t-258.5 273t-94 376zM207 729q0 -165 74.5 -308t211.5 -229.5t302 -86.5q164 0 300.5 86t211.5 229t75 309t-75 308.5 t-212 228t-300 85.5q-159 0 -295.5 -82t-214.5 -226t-78 -314zM500 316v850h281q154 0 239.5 -70t85.5 -194q0 -110 -107 -170q58 -32 81 -88t23 -138.5t3.5 -116.5t13.5 -57v-16h-155q-13 34 -13 194q0 76 -33 109.5t-110 33.5h-158v-337h-151zM651 787h128 q76 0 126.5 31.5t50.5 84.5q0 70 -35.5 99.5t-128.5 30.5h-141v-246z" />
<glyph unicode="&#xb4;" horiz-adv-x="691" d="M90 1222l197 314h356l-278 -314h-275z" />
<glyph unicode="&#xb8;" horiz-adv-x="569" d="M86 -136l31 146h256l-10 -61q150 -28 150 -173q0 -116 -99 -182t-275 -66l-7 186q88 0 88 77q0 38 -31.5 53t-102.5 20z" />
<glyph unicode="&#xbb;" horiz-adv-x="1054" d="M77 115l232 399l-232 400h207l272 -390v-19l-272 -390h-207zM490 115l232 399l-232 400h207l272 -390v-19l-272 -390h-207z" />
<glyph unicode="&#xd3;" horiz-adv-x="1414" d="M69 675v82q0 214 78.5 377.5t225 252.5t333.5 89q185 0 330 -88t225.5 -250.5t81.5 -372.5v-67q0 -213 -79 -377t-224.5 -252.5t-331.5 -88.5t-330 85.5t-224.5 244.5t-84.5 365zM426 698q0 -214 71 -329t211 -115q133 0 205 113t73 325v67q0 217 -72.5 329.5 t-207.5 112.5q-264 0 -279 -396zM550 1532l197 314h356l-278 -314h-275z" />
<glyph unicode="&#xf3;" horiz-adv-x="1150" d="M52 551q0 162 63 288.5t181 194.5t277 68q243 0 383 -150.5t140 -409.5v-12q0 -253 -140.5 -401.5t-380.5 -148.5q-231 0 -371 138.5t-151 375.5zM389 530q0 -150 47 -220t139 -70q180 0 184 277v34q0 291 -186 291q-169 0 -183 -251zM422 1222l197 314h356l-278 -314 h-275z" />
<glyph unicode="&#x104;" horiz-adv-x="1395" d="M-3 0l534 1456h330l538 -1456h-107q-78 -39 -111.5 -74.5t-33.5 -86.5q0 -62 60 -62q30 0 69 18l38 -168q-73 -44 -166 -44q-110 0 -176.5 58t-66.5 156q0 130 114 213l-82 262h-481l-84 -272h-375zM540 543h313l-157 505z" />
<glyph unicode="&#x105;" horiz-adv-x="1087" d="M45 305q0 176 130 266t378 90h104v57q0 149 -129 149q-120 0 -120 -118h-337q0 157 133.5 255t340.5 98t327 -101t123 -277v-479q2 -149 46 -228v-17h-55q-78 -39 -111.5 -74.5t-33.5 -86.5q0 -62 60 -62q30 0 69 18l38 -168q-73 -44 -166 -44q-110 0 -176.5 58 t-66.5 156q0 127 103 206q-19 39 -30 94q-93 -117 -260 -117q-153 0 -260 92.5t-107 232.5zM383 323q0 -46 31 -74.5t79 -28.5q63 0 104.5 27t59.5 61v173h-98q-176 0 -176 -158z" />
<glyph unicode="&#x106;" horiz-adv-x="1344" d="M69 695v72q0 214 74.5 374.5t214.5 248t324 87.5q265 0 426 -139.5t183 -384.5h-350q-4 133 -67 191t-192 58q-131 0 -192 -98t-64 -313v-103q0 -233 58.5 -333t201.5 -100q121 0 185 57t68 181h349q-7 -152 -82 -268.5t-210.5 -180.5t-309.5 -64q-287 0 -452 187 t-165 528zM538 1532l197 314h356l-278 -314h-275z" />
<glyph unicode="&#x107;" horiz-adv-x="1064" d="M52 538v14q0 164 60.5 289.5t174.5 193t270 67.5q211 0 335 -117t124 -317h-316q0 84 -41 129t-110 45q-131 0 -153 -167q-7 -53 -7 -146q0 -163 39 -226t124 -63q71 0 110 38.5t38 107.5h316q0 -178 -127.5 -292t-328.5 -114q-236 0 -372 148t-136 410zM382 1222 l197 314h356l-278 -314h-275z" />
<glyph unicode="&#x118;" horiz-adv-x="1146" d="M110 0v1456h1005v-271h-654v-307h552v-261h-552v-347h652v-270h-195q-78 -39 -111.5 -74.5t-33.5 -86.5q0 -62 60 -62q30 0 69 18l38 -168q-73 -44 -166 -44q-110 0 -176.5 58t-66.5 156q0 124 100 203h-521z" />
<glyph unicode="&#x119;" horiz-adv-x="1115" d="M61 513v30q0 166 61.5 293t179.5 196.5t280 69.5q228 0 360 -141.5t132 -394.5v-131h-670q18 -91 79 -143t158 -52q160 0 250 112l154 -182q-57 -82 -168 -134l3 -1q-78 -39 -111.5 -74.5t-33.5 -86.5q0 -62 60 -62q30 0 69 18l38 -168q-73 -44 -166 -44 q-110 0 -176.5 58t-66.5 156q0 91 49 152q-217 23 -349 167t-132 362zM404 646h340v26q2 81 -41 125.5t-123 44.5q-148 0 -176 -196z" />
<glyph unicode="&#x141;" horiz-adv-x="1160" d="M25 602v178l136 37v639h351v-542l194 53v-178l-194 -53v-466h611v-270h-962v639z" />
<glyph unicode="&#x142;" horiz-adv-x="662" d="M26 600v180l130 40v716h338v-611l135 42v-180l-135 -42v-745h-338v640z" />
<glyph unicode="&#x143;" horiz-adv-x="1438" d="M110 0v1456h351l515 -906v906h350v-1456h-349l-516 906v-906h-351zM572 1532l197 314h356l-278 -314h-275z" />
<glyph unicode="&#x144;" horiz-adv-x="1155" d="M88 0v1082h316l11 -127q112 147 309 147q169 0 252.5 -101t86.5 -304v-697h-338v683q0 82 -33 120.5t-120 38.5q-99 0 -147 -78v-764h-337zM423 1222l197 314h356l-278 -314h-275z" />
<glyph unicode="&#x15a;" horiz-adv-x="1282" d="M64 472h352q0 -117 60.5 -172.5t196.5 -55.5q87 0 137.5 37.5t50.5 105.5q0 77 -54.5 120t-191.5 89t-224 89q-283 139 -283 382q0 121 70.5 213.5t199.5 144t290 51.5q157 0 281.5 -56t193.5 -159.5t69 -236.5h-350q0 89 -54.5 138t-147.5 49q-94 0 -148.5 -41.5 t-54.5 -105.5q0 -56 60 -101.5t211 -94t248 -104.5q236 -136 236 -375q0 -191 -144 -300t-395 -109q-177 0 -320.5 63.5t-216 174t-72.5 254.5zM508 1532l197 314h356l-278 -314h-275z" />
<glyph unicode="&#x15b;" horiz-adv-x="1049" d="M35 347h315q2 -75 50 -109.5t123 -34.5q69 0 103.5 28t34.5 73q0 43 -45 69t-171 54t-208 73.5t-125 110.5t-43 149q0 149 123 245.5t322 96.5q214 0 344 -97t130 -255h-338q0 130 -137 130q-53 0 -89 -29.5t-36 -73.5q0 -45 44 -73t140.5 -46t169.5 -43 q244 -84 244 -301q0 -148 -131.5 -241t-340.5 -93q-139 0 -248 50t-170 136t-61 181zM354 1222l197 314h356l-278 -314h-275z" />
<glyph unicode="&#x179;" horiz-adv-x="1249" d="M62 1185v271h1131v-180l-689 -1006h696v-270h-1134v185l694 1000h-698zM482 1532l197 314h356l-278 -314h-275z" />
<glyph unicode="&#x17a;" horiz-adv-x="1054" d="M66 0v188l480 634h-459v260h887v-182l-482 -640h493v-260h-919zM372 1222l197 314h356l-278 -314h-275z" />
<glyph unicode="&#x17b;" horiz-adv-x="1249" d="M62 1185v271h1131v-180l-689 -1006h696v-270h-1134v185l694 1000h-698zM469 1711q0 65 47 106t119 41q71 0 118 -41t47 -106q0 -64 -47 -105t-118 -41q-72 0 -119 41t-47 105z" />
<glyph unicode="&#x17c;" horiz-adv-x="1054" d="M66 0v188l480 634h-459v260h887v-182l-482 -640h493v-260h-919zM359 1401q0 65 47 106t119 41q71 0 118 -41t47 -106q0 -64 -47 -105t-118 -41q-72 0 -119 41t-47 105z" />
<glyph unicode="&#x2c6;" horiz-adv-x="1033" d="M97 1242v17l323 277h193l328 -281v-13h-266l-159 136l-159 -136h-260z" />
<glyph unicode="&#x2da;" horiz-adv-x="674" d="M118 1294q0 86 65.5 144.5t159.5 58.5q93 0 158.5 -58.5t65.5 -144.5q0 -85 -64.5 -142t-159.5 -57q-96 0 -160.5 57t-64.5 142zM239 1294q0 -44 27.5 -74t76.5 -30q48 0 75.5 30t27.5 74t-27.5 75t-75.5 31q-49 0 -76.5 -31t-27.5 -75z" />
<glyph unicode="&#x2dc;" horiz-adv-x="987" d="M112 1263q0 111 66.5 192t163.5 81q50 0 131 -36.5t102.5 -41.5t45.5 -5q32 0 55 22t23 68l186 -11q0 -114 -66.5 -193.5t-164.5 -79.5q-66 0 -147 42t-131 42q-32 0 -54.5 -22t-22.5 -68z" />
<glyph unicode="&#x2000;" horiz-adv-x="929" />
<glyph unicode="&#x2001;" horiz-adv-x="1858" />
<glyph unicode="&#x2002;" horiz-adv-x="929" />
<glyph unicode="&#x2003;" horiz-adv-x="1858" />
<glyph unicode="&#x2004;" horiz-adv-x="619" />
<glyph unicode="&#x2005;" horiz-adv-x="464" />
<glyph unicode="&#x2006;" horiz-adv-x="309" />
<glyph unicode="&#x2007;" horiz-adv-x="309" />
<glyph unicode="&#x2008;" horiz-adv-x="232" />
<glyph unicode="&#x2009;" horiz-adv-x="371" />
<glyph unicode="&#x200a;" horiz-adv-x="103" />
<glyph unicode="&#x2010;" horiz-adv-x="921" d="M152 497v261h601v-261h-601z" />
<glyph unicode="&#x2011;" horiz-adv-x="921" d="M152 497v261h601v-261h-601z" />
<glyph unicode="&#x2012;" horiz-adv-x="921" d="M152 497v261h601v-261h-601z" />
<glyph unicode="&#x2013;" horiz-adv-x="1266" d="M144 578v264h1055v-264h-1055z" />
<glyph unicode="&#x2014;" horiz-adv-x="1541" d="M10 578v264h1406v-264h-1406z" />
<glyph unicode="&#x2018;" horiz-adv-x="511" d="M108 1042v165q1 91 54 195.5t129 173.5l148 -80q-82 -148 -85 -277v-177h-246z" />
<glyph unicode="&#x2019;" horiz-adv-x="497" d="M66 1080q83 144 85 282v174h246v-163q0 -93 -53.5 -198.5t-129.5 -174.5z" />
<glyph unicode="&#x201a;" horiz-adv-x="556" d="M83 -230q72 125 74 280v199h258l-1 -190q-1 -91 -54 -195.5t-129 -173.5z" />
<glyph unicode="&#x201c;" horiz-adv-x="875" d="M115 1042v165q1 91 54 195.5t129 173.5l148 -80q-82 -148 -85 -277v-177h-246zM466 1042v165q1 91 54 195.5t129 173.5l148 -80q-82 -148 -85 -277v-177h-246z" />
<glyph unicode="&#x201d;" horiz-adv-x="881" d="M80 1080q83 144 85 282v174h246v-163q0 -93 -53.5 -198.5t-129.5 -174.5zM442 1080q83 144 85 282v174h246v-163q0 -93 -53.5 -198.5t-129.5 -174.5z" />
<glyph unicode="&#x201e;" horiz-adv-x="876" d="M83 -250q72 134 74 299v220h258l-1 -207q0 -97 -48 -207.5t-124 -184.5zM433 -250q82 153 85 297v222h259l-1 -213q-2 -96 -54 -204t-129 -182z" />
<glyph unicode="&#x2022;" horiz-adv-x="757" d="M134 721v42q0 107 70 174t182 67q115 0 184 -65t71 -171v-42q0 -107 -69 -172.5t-184 -65.5q-113 0 -182.5 64.5t-71.5 168.5z" />
<glyph unicode="&#x2026;" horiz-adv-x="1587" d="M128 158q0 73 52.5 121t133.5 48q80 0 133 -47.5t53 -121.5t-53 -121.5t-133 -47.5q-81 0 -133.5 48t-52.5 121zM617 158q0 73 52.5 121t133.5 48q80 0 133 -47.5t53 -121.5t-53 -121.5t-133 -47.5q-81 0 -133.5 48t-52.5 121zM1105 158q0 73 52.5 121t133.5 48 q80 0 133 -47.5t53 -121.5t-53 -121.5t-133 -47.5q-81 0 -133.5 48t-52.5 121z" />
<glyph unicode="&#x202f;" horiz-adv-x="371" />
<glyph unicode="&#x2039;" horiz-adv-x="650" d="M108 506v19l272 390h206l-232 -400l232 -399h-206z" />
<glyph unicode="&#x203a;" horiz-adv-x="620" d="M76 115l232 399l-232 400h207l272 -390v-19l-272 -390h-207z" />
<glyph unicode="&#x205f;" horiz-adv-x="464" />
<glyph unicode="&#x20ac;" d="M85 508v160h165v122h-165v159h168q19 248 186 387t441 139q106 0 232 -31l-43 -270q-78 31 -167 31q-138 0 -211 -62.5t-86 -193.5h309v-159h-312v-122h312v-160h-312q5 -132 71.5 -195t219.5 -63q99 0 176 30l43 -269q-133 -30 -263 -30q-270 0 -430.5 140t-168.5 387 h-165z" />
<glyph unicode="&#x2122;" horiz-adv-x="1298" d="M124 1340v116h419v-116h-121v-423h-168v423h-130zM609 913v543h180l106 -358l117 358h168v-543h-147v337l-97 -337h-83l-97 340v-340h-147z" />
<glyph unicode="&#x25fc;" horiz-adv-x="1080" d="M0 0v1080h1080v-1080h-1080z" />
<hkern u1="&#x20;" u2="T" k="60" />
<hkern u1="&#x22;" u2="w" k="-11" />
<hkern u1="&#x27;" u2="w" k="-11" />
<hkern u1="&#x28;" u2="Y" k="-22" />
<hkern u1="&#x28;" u2="W" k="-38" />
<hkern u1="&#x28;" u2="V" k="-20" />
<hkern u1="&#x2f;" u2="&#x2f;" k="248" />
<hkern u1="A" u2="w" k="33" />
<hkern u1="A" u2="t" k="17" />
<hkern u1="A" u2="&#x3f;" k="81" />
<hkern u1="C" u2="&#x7d;" k="17" />
<hkern u1="C" u2="]" k="12" />
<hkern u1="C" u2="&#x29;" k="26" />
<hkern u1="E" u2="w" k="22" />
<hkern u1="E" u2="f" k="18" />
<hkern u1="F" u2="&#x2026;" k="274" />
<hkern u1="F" u2="&#x201e;" k="274" />
<hkern u1="F" u2="&#x201a;" k="274" />
<hkern u1="F" u2="&#x119;" k="21" />
<hkern u1="F" u2="&#x107;" k="21" />
<hkern u1="F" u2="&#x105;" k="34" />
<hkern u1="F" u2="&#x104;" k="192" />
<hkern u1="F" u2="&#xf3;" k="21" />
<hkern u1="F" u2="y" k="24" />
<hkern u1="F" u2="v" k="24" />
<hkern u1="F" u2="u" k="22" />
<hkern u1="F" u2="r" k="26" />
<hkern u1="F" u2="q" k="21" />
<hkern u1="F" u2="o" k="21" />
<hkern u1="F" u2="g" k="21" />
<hkern u1="F" u2="e" k="21" />
<hkern u1="F" u2="d" k="21" />
<hkern u1="F" u2="c" k="21" />
<hkern u1="F" u2="a" k="34" />
<hkern u1="F" u2="T" k="-20" />
<hkern u1="F" u2="J" k="208" />
<hkern u1="F" u2="A" k="192" />
<hkern u1="F" u2="&#x2e;" k="274" />
<hkern u1="F" u2="&#x2c;" k="274" />
<hkern u1="K" u2="w" k="63" />
<hkern u1="L" u2="w" k="52" />
<hkern u1="P" u2="t" k="-14" />
<hkern u1="Q" u2="Y" k="35" />
<hkern u1="Q" u2="W" k="20" />
<hkern u1="Q" u2="V" k="28" />
<hkern u1="Q" u2="T" k="33" />
<hkern u1="R" u2="Y" k="48" />
<hkern u1="R" u2="V" k="19" />
<hkern u1="R" u2="T" k="50" />
<hkern u1="T" u2="&#xbb;" k="146" />
<hkern u1="T" u2="&#xab;" k="148" />
<hkern u1="T" u2="w" k="47" />
<hkern u1="T" u2="r" k="65" />
<hkern u1="T" u2="&#x20;" k="60" />
<hkern u1="V" u2="&#x7d;" k="-19" />
<hkern u1="V" u2="r" k="30" />
<hkern u1="V" u2="]" k="-17" />
<hkern u1="V" u2="&#x29;" k="-20" />
<hkern u1="W" u2="&#x7d;" k="-14" />
<hkern u1="W" u2="r" k="21" />
<hkern u1="W" u2="]" k="-12" />
<hkern u1="W" u2="&#x29;" k="-15" />
<hkern u1="Y" u2="&#x2022;" k="45" />
<hkern u1="Y" u2="&#xbb;" k="51" />
<hkern u1="Y" u2="&#xab;" k="82" />
<hkern u1="Y" u2="&#x7d;" k="-19" />
<hkern u1="Y" u2="t" k="22" />
<hkern u1="Y" u2="r" k="40" />
<hkern u1="Y" u2="f" k="22" />
<hkern u1="Y" u2="]" k="-18" />
<hkern u1="Y" u2="&#x2a;" k="49" />
<hkern u1="Y" u2="&#x29;" k="-20" />
<hkern u1="Y" u2="&#x26;" k="30" />
<hkern u1="Z" u2="w" k="27" />
<hkern u1="[" u2="U" k="18" />
<hkern u1="[" u2="J" k="18" />
<hkern u1="e" u2="&#x2019;" k="64" />
<hkern u1="f" u2="&#x201d;" k="-16" />
<hkern u1="f" u2="&#x201c;" k="-16" />
<hkern u1="f" u2="&#x2019;" k="-16" />
<hkern u1="f" u2="&#x2018;" k="-16" />
<hkern u1="f" u2="&#x119;" k="24" />
<hkern u1="f" u2="&#x107;" k="24" />
<hkern u1="f" u2="&#x7d;" k="-19" />
<hkern u1="f" u2="q" k="24" />
<hkern u1="f" u2="g" k="24" />
<hkern u1="f" u2="e" k="24" />
<hkern u1="f" u2="d" k="24" />
<hkern u1="f" u2="c" k="24" />
<hkern u1="f" u2="]" k="-18" />
<hkern u1="f" u2="&#x29;" k="-20" />
<hkern u1="f" u2="&#x27;" k="-16" />
<hkern u1="f" u2="&#x22;" k="-16" />
<hkern u1="h" u2="&#x2019;" k="104" />
<hkern u1="k" u2="&#x119;" k="20" />
<hkern u1="k" u2="&#x107;" k="20" />
<hkern u1="k" u2="q" k="20" />
<hkern u1="k" u2="g" k="20" />
<hkern u1="k" u2="e" k="20" />
<hkern u1="k" u2="d" k="20" />
<hkern u1="k" u2="c" k="20" />
<hkern u1="m" u2="&#x2019;" k="120" />
<hkern u1="n" u2="&#x2019;" k="120" />
<hkern u1="o" u2="&#x2019;" k="112" />
<hkern u1="r" u2="&#x2019;" k="-16" />
<hkern u1="r" u2="w" k="-17" />
<hkern u1="r" u2="t" k="-50" />
<hkern u1="r" u2="f" k="-20" />
<hkern u1="t" u2="&#x2019;" k="-24" />
<hkern u1="t" u2="&#xf3;" k="30" />
<hkern u1="t" u2="o" k="30" />
<hkern u1="v" u2="f" k="-13" />
<hkern u1="w" u2="&#x2026;" k="124" />
<hkern u1="w" u2="&#x201e;" k="124" />
<hkern u1="w" u2="&#x201a;" k="124" />
<hkern u1="w" u2="&#x2e;" k="124" />
<hkern u1="w" u2="&#x2c;" k="124" />
<hkern u1="y" u2="f" k="-13" />
<hkern u1="&#x7b;" u2="U" k="20" />
<hkern u1="&#x7b;" u2="J" k="20" />
<hkern u1="&#xf3;" u2="&#x2019;" k="112" />
<hkern u1="&#x104;" u2="w" k="33" />
<hkern u1="&#x104;" u2="t" k="17" />
<hkern u1="&#x104;" u2="&#x3f;" k="81" />
<hkern u1="&#x106;" u2="&#x7d;" k="17" />
<hkern u1="&#x106;" u2="]" k="12" />
<hkern u1="&#x106;" u2="&#x29;" k="26" />
<hkern u1="&#x118;" u2="w" k="22" />
<hkern u1="&#x118;" u2="f" k="18" />
<hkern u1="&#x119;" u2="&#x2019;" k="64" />
<hkern u1="&#x144;" u2="&#x2019;" k="120" />
<hkern u1="&#x179;" u2="w" k="27" />
<hkern u1="&#x17b;" u2="w" k="27" />
<hkern u1="&#x2018;" u2="w" k="-11" />
<hkern u1="&#x2019;" u2="&#x15b;" k="232" />
<hkern u1="&#x2019;" u2="&#x119;" k="104" />
<hkern u1="&#x2019;" u2="&#x107;" k="104" />
<hkern u1="&#x2019;" u2="&#xf3;" k="144" />
<hkern u1="&#x2019;" u2="w" k="-11" />
<hkern u1="&#x2019;" u2="s" k="232" />
<hkern u1="&#x2019;" u2="q" k="104" />
<hkern u1="&#x2019;" u2="o" k="144" />
<hkern u1="&#x2019;" u2="g" k="104" />
<hkern u1="&#x2019;" u2="e" k="104" />
<hkern u1="&#x2019;" u2="d" k="104" />
<hkern u1="&#x2019;" u2="c" k="104" />
<hkern u1="&#x201c;" u2="w" k="-11" />
<hkern u1="&#x201d;" u2="w" k="-11" />
<hkern g1="comma,period,quotesinglbase,quotedblbase,ellipsis" 	g2="quotedbl,quotesingle,quoteleft,quoteright,quotedblleft,quotedblright" 	k="285" />
<hkern g1="A,Aogonek" 	g2="quotedbl,quotesingle,quoteleft,quoteright,quotedblleft,quotedblright" 	k="120" />
<hkern g1="A,Aogonek" 	g2="m,n,p,nacute" 	k="48" />
<hkern g1="A,Aogonek" 	g2="o,oacute" 	k="12" />
<hkern g1="A,Aogonek" 	g2="C,G,O,Q,Oacute,Cacute" 	k="21" />
<hkern g1="A,Aogonek" 	g2="T" 	k="120" />
<hkern g1="A,Aogonek" 	g2="U" 	k="17" />
<hkern g1="A,Aogonek" 	g2="V" 	k="77" />
<hkern g1="A,Aogonek" 	g2="W" 	k="39" />
<hkern g1="A,Aogonek" 	g2="Y" 	k="150" />
<hkern g1="A,Aogonek" 	g2="u" 	k="11" />
<hkern g1="A,Aogonek" 	g2="v,y" 	k="50" />
<hkern g1="A,Aogonek" 	g2="z,zacute,zdotaccent" 	k="-12" />
<hkern g1="B" 	g2="T" 	k="27" />
<hkern g1="B" 	g2="V" 	k="24" />
<hkern g1="B" 	g2="Y" 	k="55" />
<hkern g1="C,Cacute" 	g2="T" 	k="29" />
<hkern g1="D,O,Oacute" 	g2="A,Aogonek" 	k="21" />
<hkern g1="D,O,Oacute" 	g2="T" 	k="85" />
<hkern g1="D,O,Oacute" 	g2="V" 	k="22" />
<hkern g1="D,O,Oacute" 	g2="Y" 	k="43" />
<hkern g1="D,O,Oacute" 	g2="comma,period,quotesinglbase,quotedblbase,ellipsis" 	k="122" />
<hkern g1="D,O,Oacute" 	g2="X" 	k="22" />
<hkern g1="D,O,Oacute" 	g2="Z,Zacute,Zdotaccent" 	k="23" />
<hkern g1="E,Eogonek" 	g2="c,d,e,g,q,cacute,eogonek" 	k="19" />
<hkern g1="E,Eogonek" 	g2="o,oacute" 	k="19" />
<hkern g1="E,Eogonek" 	g2="T" 	k="-20" />
<hkern g1="E,Eogonek" 	g2="u" 	k="17" />
<hkern g1="E,Eogonek" 	g2="v,y" 	k="26" />
<hkern g1="H,I,M,N,Nacute" 	g2="A,Aogonek" 	k="-18" />
<hkern g1="H,I,M,N,Nacute" 	g2="T" 	k="29" />
<hkern g1="H,I,M,N,Nacute" 	g2="Y" 	k="28" />
<hkern g1="H,I,M,N,Nacute" 	g2="X" 	k="-17" />
<hkern g1="J,U" 	g2="A,Aogonek" 	k="22" />
<hkern g1="K" 	g2="c,d,e,g,q,cacute,eogonek" 	k="26" />
<hkern g1="K" 	g2="o,oacute" 	k="27" />
<hkern g1="K" 	g2="C,G,O,Q,Oacute,Cacute" 	k="31" />
<hkern g1="K" 	g2="u" 	k="23" />
<hkern g1="K" 	g2="v,y" 	k="40" />
<hkern g1="K" 	g2="hyphen,endash,emdash" 	k="164" />
<hkern g1="L" 	g2="quotedbl,quotesingle,quoteleft,quoteright,quotedblleft,quotedblright" 	k="288" />
<hkern g1="L" 	g2="A,Aogonek" 	k="-19" />
<hkern g1="L" 	g2="C,G,O,Q,Oacute,Cacute" 	k="64" />
<hkern g1="L" 	g2="T" 	k="205" />
<hkern g1="L" 	g2="U" 	k="24" />
<hkern g1="L" 	g2="V" 	k="206" />
<hkern g1="L" 	g2="W" 	k="93" />
<hkern g1="L" 	g2="Y" 	k="279" />
<hkern g1="L" 	g2="u" 	k="14" />
<hkern g1="L" 	g2="v,y" 	k="123" />
<hkern g1="P" 	g2="A,Aogonek" 	k="178" />
<hkern g1="P" 	g2="a,aogonek" 	k="11" />
<hkern g1="P" 	g2="c,d,e,g,q,cacute,eogonek" 	k="13" />
<hkern g1="P" 	g2="o,oacute" 	k="13" />
<hkern g1="P" 	g2="v,y" 	k="-15" />
<hkern g1="P" 	g2="comma,period,quotesinglbase,quotedblbase,ellipsis" 	k="404" />
<hkern g1="P" 	g2="X" 	k="51" />
<hkern g1="P" 	g2="Z,Zacute,Zdotaccent" 	k="36" />
<hkern g1="P" 	g2="J" 	k="184" />
<hkern g1="T" 	g2="A,Aogonek" 	k="120" />
<hkern g1="T" 	g2="a,aogonek" 	k="168" />
<hkern g1="T" 	g2="c,d,e,g,q,cacute,eogonek" 	k="89" />
<hkern g1="T" 	g2="m,n,p,nacute" 	k="89" />
<hkern g1="T" 	g2="o,oacute" 	k="208" />
<hkern g1="T" 	g2="s,sacute" 	k="76" />
<hkern g1="T" 	g2="C,G,O,Q,Oacute,Cacute" 	k="28" />
<hkern g1="T" 	g2="T" 	k="-16" />
<hkern g1="T" 	g2="V" 	k="-16" />
<hkern g1="T" 	g2="W" 	k="-15" />
<hkern g1="T" 	g2="Y" 	k="-16" />
<hkern g1="T" 	g2="u" 	k="65" />
<hkern g1="T" 	g2="v,y" 	k="82" />
<hkern g1="T" 	g2="z,zacute,zdotaccent" 	k="60" />
<hkern g1="T" 	g2="comma,period,quotesinglbase,quotedblbase,ellipsis" 	k="258" />
<hkern g1="T" 	g2="hyphen,endash,emdash" 	k="272" />
<hkern g1="T" 	g2="J" 	k="216" />
<hkern g1="T" 	g2="S,Sacute" 	k="16" />
<hkern g1="T" 	g2="x" 	k="77" />
<hkern g1="V" 	g2="A,Aogonek" 	k="75" />
<hkern g1="V" 	g2="a,aogonek" 	k="46" />
<hkern g1="V" 	g2="c,d,e,g,q,cacute,eogonek" 	k="44" />
<hkern g1="V" 	g2="o,oacute" 	k="46" />
<hkern g1="V" 	g2="C,G,O,Q,Oacute,Cacute" 	k="13" />
<hkern g1="V" 	g2="u" 	k="28" />
<hkern g1="V" 	g2="v,y" 	k="11" />
<hkern g1="V" 	g2="comma,period,quotesinglbase,quotedblbase,ellipsis" 	k="215" />
<hkern g1="V" 	g2="hyphen,endash,emdash" 	k="157" />
<hkern g1="W" 	g2="A,Aogonek" 	k="43" />
<hkern g1="W" 	g2="a,aogonek" 	k="33" />
<hkern g1="W" 	g2="c,d,e,g,q,cacute,eogonek" 	k="31" />
<hkern g1="W" 	g2="o,oacute" 	k="31" />
<hkern g1="W" 	g2="T" 	k="-14" />
<hkern g1="W" 	g2="u" 	k="19" />
<hkern g1="W" 	g2="comma,period,quotesinglbase,quotedblbase,ellipsis" 	k="143" />
<hkern g1="W" 	g2="hyphen,endash,emdash" 	k="60" />
<hkern g1="X" 	g2="c,d,e,g,q,cacute,eogonek" 	k="26" />
<hkern g1="X" 	g2="o,oacute" 	k="21" />
<hkern g1="X" 	g2="C,G,O,Q,Oacute,Cacute" 	k="25" />
<hkern g1="X" 	g2="V" 	k="-14" />
<hkern g1="X" 	g2="u" 	k="21" />
<hkern g1="X" 	g2="v,y" 	k="31" />
<hkern g1="X" 	g2="hyphen,endash,emdash" 	k="156" />
<hkern g1="Y" 	g2="A,Aogonek" 	k="150" />
<hkern g1="Y" 	g2="a,aogonek" 	k="63" />
<hkern g1="Y" 	g2="c,d,e,g,q,cacute,eogonek" 	k="65" />
<hkern g1="Y" 	g2="m,n,p,nacute" 	k="40" />
<hkern g1="Y" 	g2="o,oacute" 	k="65" />
<hkern g1="Y" 	g2="s,sacute" 	k="58" />
<hkern g1="Y" 	g2="C,G,O,Q,Oacute,Cacute" 	k="29" />
<hkern g1="Y" 	g2="T" 	k="-17" />
<hkern g1="Y" 	g2="U" 	k="96" />
<hkern g1="Y" 	g2="V" 	k="-18" />
<hkern g1="Y" 	g2="W" 	k="-17" />
<hkern g1="Y" 	g2="Y" 	k="-18" />
<hkern g1="Y" 	g2="u" 	k="39" />
<hkern g1="Y" 	g2="v,y" 	k="20" />
<hkern g1="Y" 	g2="z,zacute,zdotaccent" 	k="30" />
<hkern g1="Y" 	g2="comma,period,quotesinglbase,quotedblbase,ellipsis" 	k="231" />
<hkern g1="Y" 	g2="X" 	k="-13" />
<hkern g1="Y" 	g2="hyphen,endash,emdash" 	k="152" />
<hkern g1="Y" 	g2="J" 	k="96" />
<hkern g1="Y" 	g2="S,Sacute" 	k="16" />
<hkern g1="Y" 	g2="x" 	k="23" />
<hkern g1="Z,Zacute,Zdotaccent" 	g2="A,Aogonek" 	k="-13" />
<hkern g1="Z,Zacute,Zdotaccent" 	g2="c,d,e,g,q,cacute,eogonek" 	k="21" />
<hkern g1="Z,Zacute,Zdotaccent" 	g2="o,oacute" 	k="21" />
<hkern g1="Z,Zacute,Zdotaccent" 	g2="C,G,O,Q,Oacute,Cacute" 	k="26" />
<hkern g1="Z,Zacute,Zdotaccent" 	g2="u" 	k="19" />
<hkern g1="Z,Zacute,Zdotaccent" 	g2="v,y" 	k="27" />
<hkern g1="a,aogonek" 	g2="quotedbl,quotesingle,quoteleft,quoteright,quotedblleft,quotedblright" 	k="17" />
<hkern g1="a,aogonek" 	g2="v,y" 	k="15" />
<hkern g1="b,p" 	g2="quotedbl,quotesingle,quoteleft,quoteright,quotedblleft,quotedblright" 	k="29" />
<hkern g1="b,p" 	g2="v,y" 	k="11" />
<hkern g1="b,p" 	g2="z,zacute,zdotaccent" 	k="15" />
<hkern g1="b,p" 	g2="x" 	k="15" />
<hkern g1="c,cacute" 	g2="quotedbl,quotesingle,quoteleft,quoteright,quotedblleft,quotedblright" 	k="11" />
<hkern g1="e,eogonek" 	g2="quotedbl,quotesingle,quoteleft,quoteright,quotedblleft,quotedblright" 	k="14" />
<hkern g1="e,eogonek" 	g2="v,y" 	k="13" />
<hkern g1="h,m,n,nacute" 	g2="quotedbl,quotesingle,quoteleft,quoteright,quotedblleft,quotedblright" 	k="80" />
<hkern g1="o,oacute" 	g2="quotedbl,quotesingle,quoteleft,quoteright,quotedblleft,quotedblright" 	k="88" />
<hkern g1="o,oacute" 	g2="v,y" 	k="15" />
<hkern g1="o,oacute" 	g2="z,zacute,zdotaccent" 	k="16" />
<hkern g1="o,oacute" 	g2="x" 	k="21" />
<hkern g1="r" 	g2="quotedbl,quotesingle,quoteleft,quoteright,quotedblleft,quotedblright" 	k="-16" />
<hkern g1="r" 	g2="a,aogonek" 	k="30" />
<hkern g1="r" 	g2="c,d,e,g,q,cacute,eogonek" 	k="19" />
<hkern g1="r" 	g2="o,oacute" 	k="36" />
<hkern g1="r" 	g2="v,y" 	k="-18" />
<hkern g1="r" 	g2="comma,period,quotesinglbase,quotedblbase,ellipsis" 	k="173" />
<hkern g1="v,y" 	g2="quotedbl,quotesingle,quoteleft,quoteright,quotedblleft,quotedblright" 	k="-15" />
<hkern g1="v,y" 	g2="a,aogonek" 	k="15" />
<hkern g1="v,y" 	g2="c,d,e,g,q,cacute,eogonek" 	k="13" />
<hkern g1="v,y" 	g2="o,oacute" 	k="15" />
<hkern g1="v,y" 	g2="comma,period,quotesinglbase,quotedblbase,ellipsis" 	k="167" />
<hkern g1="x" 	g2="c,d,e,g,q,cacute,eogonek" 	k="20" />
<hkern g1="x" 	g2="o,oacute" 	k="40" />
<hkern g1="z,zacute,zdotaccent" 	g2="c,d,e,g,q,cacute,eogonek" 	k="16" />
<hkern g1="z,zacute,zdotaccent" 	g2="o,oacute" 	k="16" />
</font>
</defs></svg> 