{
    "name": "Slider",
    "alias": "slider",
    "description": "",
    "keywords": [],
    "active": 1,
    "order": 1,
    "providers": [
        "Modules\\Slider\\Providers\\SliderServiceProvider",
        "Modules\\Slider\\Providers\\RouteServiceProvider"
    ],
    "aliases": {
        "SliderMultipleDirective": "Modules\\Slider\\Blade\\Facades\\SliderMultipleDirective"
    },
    "files": [
        "composers.php"
    ]
}